Optical Pumping/Data/34.9etalon.csv

X,CH1,CH2,Start,Increment,
Sequence,Volt,Volt,-1.228000e-03,2.000000e-06
0,-3.60e-01,-5.20e-01,
1,-4.20e-01,-4.40e-01,
2,-3.80e-01,-4.60e-01,
3,-4.40e-01,-5.20e-01,
4,-3.80e-01,-5.00e-01,
5,-4.40e-01,-4.40e-01,
6,-4.00e-01,-5.00e-01,
7,-4.60e-01,-4.40e-01,
8,-4.00e-01,-5.00e-01,
9,-4.60e-01,-4.40e-01,
10,-4.00e-01,-5.00e-01,
11,-4.60e-01,-4.40e-01,
12,-4.20e-01,-4.40e-01,
13,-4.80e-01,-5.00e-01,
14,-4.80e-01,-5.00e-01,
15,-4.20e-01,-4.40e-01,
16,-4.80e-01,-4.40e-01,
17,-4.20e-01,-5.00e-01,
18,-4.40e-01,-4.40e-01,
19,-5.00e-01,-5.00e-01,
20,-4.40e-01,-4.40e-01,
21,-5.00e-01,-5.00e-01,
22,-5.00e-01,-4.40e-01,
23,-4.40e-01,-5.00e-01,
24,-5.00e-01,-4.40e-01,
25,-4.40e-01,-5.00e-01,
26,-4.60e-01,-4.40e-01,
27,-5.00e-01,-4.80e-01,
28,-4.60e-01,-4.80e-01,
29,-5.20e-01,-4.20e-01,
30,-4.60e-01,-5.00e-01,
31,-5.20e-01,-4.20e-01,
32,-5.20e-01,-4.80e-01,
33,-4.60e-01,-4.20e-01,
34,-4.60e-01,-4.80e-01,
35,-5.20e-01,-4.20e-01,
36,-4.60e-01,-4.80e-01,
37,-5.20e-01,-4.20e-01,
38,-4.60e-01,-4.80e-01,
39,-5.20e-01,-4.20e-01,
40,-5.20e-01,-4.80e-01,
41,-4.60e-01,-4.20e-01,
42,-5.20e-01,-4.80e-01,
43,-4.80e-01,-4.20e-01,
44,-5.20e-01,-4.20e-01,
45,-4.60e-01,-4.80e-01,
46,-4.60e-01,-4.20e-01,
47,-5.40e-01,-4.80e-01,
48,-4.80e-01,-4.20e-01,
49,-5.40e-01,-4.80e-01,
50,-4.80e-01,-4.20e-01,
51,-5.40e-01,-4.80e-01,
52,-4.80e-01,-4.80e-01,
53,-5.40e-01,-4.00e-01,
54,-4.80e-01,-4.60e-01,
55,-5.40e-01,-4.00e-01,
56,-5.40e-01,-4.60e-01,
57,-4.60e-01,-4.00e-01,
58,-4.80e-01,-4.60e-01,
59,-5.40e-01,-4.00e-01,
60,-5.20e-01,-4.60e-01,
61,-4.60e-01,-4.00e-01,
62,-5.20e-01,-4.60e-01,
63,-4.60e-01,-4.00e-01,
64,-5.40e-01,-4.00e-01,
65,-4.60e-01,-4.60e-01,
66,-4.80e-01,-4.00e-01,
67,-5.40e-01,-4.60e-01,
68,-4.80e-01,-4.00e-01,
69,-5.40e-01,-4.60e-01,
70,-4.80e-01,-4.00e-01,
71,-5.40e-01,-4.60e-01,
72,-4.80e-01,-4.00e-01,
73,-5.40e-01,-4.60e-01,
74,-4.80e-01,-4.00e-01,
75,-5.40e-01,-4.60e-01,
76,-5.40e-01,-4.60e-01,
77,-4.80e-01,-3.80e-01,
78,-4.80e-01,-4.00e-01,
79,-5.40e-01,-4.40e-01,
80,-4.80e-01,-4.40e-01,
81,-5.40e-01,-3.80e-01,
82,-4.80e-01,-4.40e-01,
83,-5.40e-01,-3.80e-01,
84,-4.80e-01,-4.40e-01,
85,-5.40e-01,-3.80e-01,
86,-4.80e-01,-4.40e-01,
87,-5.40e-01,-3.80e-01,
88,-5.40e-01,-4.40e-01,
89,-4.80e-01,-3.80e-01,
90,-5.40e-01,-4.40e-01,
91,-4.80e-01,-3.80e-01,
92,-4.80e-01,-3.80e-01,
93,-5.40e-01,-4.40e-01,
94,-4.80e-01,-3.80e-01,
95,-5.40e-01,-4.40e-01,
96,-5.40e-01,-3.80e-01,
97,-4.80e-01,-4.40e-01,
98,-5.40e-01,-3.80e-01,
99,-4.80e-01,-4.40e-01,
100,-4.80e-01,-3.80e-01,
101,-5.40e-01,-4.40e-01,
102,-4.80e-01,-3.80e-01,
103,-5.40e-01,-4.40e-01,
104,-5.40e-01,-3.80e-01,
105,-4.80e-01,-4.40e-01,
106,-4.80e-01,-4.20e-01,
107,-5.40e-01,-3.60e-01,
108,-5.40e-01,-4.20e-01,
109,-4.80e-01,-3.60e-01,
110,-4.80e-01,-3.60e-01,
111,-5.40e-01,-4.40e-01,
112,-4.80e-01,-4.20e-01,
113,-5.40e-01,-3.60e-01,
114,-4.80e-01,-4.20e-01,
115,-5.40e-01,-3.60e-01,
116,-5.40e-01,-4.20e-01,
117,-4.80e-01,-3.60e-01,
118,-5.40e-01,-3.60e-01,
119,-4.80e-01,-4.20e-01,
120,-4.80e-01,-4.20e-01,
121,-5.40e-01,-3.60e-01,
122,-4.80e-01,-3.60e-01,
123,-5.40e-01,-4.20e-01,
124,-5.40e-01,-3.60e-01,
125,-4.80e-01,-4.20e-01,
126,-5.40e-01,-3.60e-01,
127,-4.80e-01,-4.20e-01,
128,-5.40e-01,-3.60e-01,
129,-4.80e-01,-4.20e-01,
130,-4.80e-01,-3.40e-01,
131,-5.40e-01,-4.20e-01,
132,-5.40e-01,-4.00e-01,
133,-4.80e-01,-3.60e-01,
134,-5.40e-01,-3.40e-01,
135,-4.80e-01,-4.20e-01,
136,-5.40e-01,-4.00e-01,
137,-4.80e-01,-3.40e-01,
138,-4.80e-01,-4.00e-01,
139,-5.40e-01,-3.40e-01,
140,-4.80e-01,-4.00e-01,
141,-5.40e-01,-3.40e-01,
142,-5.40e-01,-4.00e-01,
143,-4.80e-01,-3.40e-01,
144,-5.40e-01,-4.00e-01,
145,-4.80e-01,-3.40e-01,
146,-5.40e-01,-3.40e-01,
147,-4.80e-01,-4.00e-01,
148,-5.40e-01,-3.40e-01,
149,-4.80e-01,-4.00e-01,
150,-4.80e-01,-3.80e-01,
151,-5.40e-01,-3.20e-01,
152,-5.40e-01,-3.40e-01,
153,-4.80e-01,-4.00e-01,
154,-5.40e-01,-3.40e-01,
155,-4.80e-01,-3.80e-01,
156,-4.80e-01,-3.20e-01,
157,-5.40e-01,-4.00e-01,
158,-5.40e-01,-3.40e-01,
159,-4.80e-01,-4.00e-01,
160,-4.80e-01,-3.40e-01,
161,-5.40e-01,-3.80e-01,
162,-5.40e-01,-3.80e-01,
163,-4.80e-01,-3.20e-01,
164,-5.40e-01,-3.80e-01,
165,-4.80e-01,-3.20e-01,
166,-5.40e-01,-3.80e-01,
167,-4.80e-01,-3.20e-01,
168,-4.80e-01,-3.80e-01,
169,-5.40e-01,-3.20e-01,
170,-5.40e-01,-3.80e-01,
171,-4.80e-01,-3.20e-01,
172,-4.80e-01,-3.20e-01,
173,-5.40e-01,-3.80e-01,
174,-4.80e-01,-3.20e-01,
175,-5.40e-01,-3.80e-01,
176,-4.80e-01,-3.20e-01,
177,-5.40e-01,-3.80e-01,
178,-5.40e-01,-3.20e-01,
179,-4.80e-01,-3.80e-01,
180,-5.40e-01,-3.20e-01,
181,-4.80e-01,-3.80e-01,
182,-4.80e-01,-3.20e-01,
183,-5.40e-01,-3.60e-01,
184,-4.80e-01,-3.60e-01,
185,-5.40e-01,-3.00e-01,
186,-4.80e-01,-3.60e-01,
187,-5.40e-01,-3.00e-01,
188,-5.40e-01,-3.00e-01,
189,-4.80e-01,-3.60e-01,
190,-4.80e-01,-3.60e-01,
191,-5.40e-01,-3.00e-01,
192,-5.40e-01,-3.60e-01,
193,-4.80e-01,-3.00e-01,
194,-4.80e-01,-3.00e-01,
195,-5.40e-01,-3.60e-01,
196,-5.40e-01,-3.00e-01,
197,-4.80e-01,-3.60e-01,
198,-5.40e-01,-3.00e-01,
199,-4.80e-01,-3.60e-01,
200,-5.40e-01,-3.00e-01,
201,-4.80e-01,-3.60e-01,
202,-4.80e-01,-3.00e-01,
203,-5.40e-01,-3.60e-01,
204,-4.80e-01,-3.00e-01,
205,-5.40e-01,-3.60e-01,
206,-4.80e-01,-3.00e-01,
207,-5.40e-01,-3.40e-01,
208,-4.80e-01,-3.40e-01,
209,-5.40e-01,-2.80e-01,
210,-4.80e-01,-2.80e-01,
211,-5.40e-01,-3.40e-01,
212,-4.80e-01,-3.40e-01,
213,-5.40e-01,-2.80e-01,
214,-4.80e-01,-3.40e-01,
215,-5.40e-01,-2.80e-01,
216,-4.80e-01,-3.40e-01,
217,-5.40e-01,-2.80e-01,
218,-4.80e-01,-3.40e-01,
219,-5.40e-01,-2.80e-01,
220,-4.80e-01,-2.80e-01,
221,-5.40e-01,-3.40e-01,
222,-4.80e-01,-2.80e-01,
223,-5.40e-01,-3.40e-01,
224,-5.40e-01,-2.80e-01,
225,-4.80e-01,-3.40e-01,
226,-4.80e-01,-2.80e-01,
227,-5.40e-01,-3.40e-01,
228,-5.40e-01,-2.80e-01,
229,-4.80e-01,-3.40e-01,
230,-4.80e-01,-2.80e-01,
231,-5.40e-01,-3.20e-01,
232,-4.80e-01,-2.60e-01,
233,-5.40e-01,-3.40e-01,
234,-4.80e-01,-3.20e-01,
235,-5.40e-01,-2.60e-01,
236,-4.80e-01,-3.40e-01,
237,-5.40e-01,-2.60e-01,
238,-4.80e-01,-3.20e-01,
239,-5.40e-01,-2.60e-01,
240,-4.80e-01,-3.20e-01,
241,-5.40e-01,-2.60e-01,
242,-4.80e-01,-2.60e-01,
243,-5.40e-01,-3.20e-01,
244,-4.80e-01,-2.60e-01,
245,-5.40e-01,-3.20e-01,
246,-4.80e-01,-2.60e-01,
247,-5.40e-01,-3.20e-01,
248,-4.80e-01,-2.60e-01,
249,-5.40e-01,-3.20e-01,
250,-5.20e-01,-2.60e-01,
251,-4.60e-01,-3.20e-01,
252,-5.20e-01,-2.60e-01,
253,-4.60e-01,-3.00e-01,
254,-4.80e-01,-2.60e-01,
255,-5.40e-01,-3.00e-01,
256,-5.20e-01,-2.60e-01,
257,-4.80e-01,-3.00e-01,
258,-5.20e-01,-2.60e-01,
259,-4.80e-01,-3.00e-01,
260,-5.20e-01,-3.00e-01,
261,-4.60e-01,-2.40e-01,
262,-5.20e-01,-3.00e-01,
263,-4.60e-01,-2.40e-01,
264,-5.20e-01,-3.00e-01,
265,-4.60e-01,-2.20e-01,
266,-4.80e-01,-3.00e-01,
267,-5.40e-01,-2.20e-01,
268,-4.80e-01,-3.00e-01,
269,-5.40e-01,-2.20e-01,
270,-4.60e-01,-2.20e-01,
271,-5.40e-01,-3.00e-01,
272,-5.20e-01,-2.20e-01,
273,-4.60e-01,-3.00e-01,
274,-4.60e-01,-2.20e-01,
275,-5.40e-01,-3.00e-01,
276,-4.60e-01,-2.80e-01,
277,-5.40e-01,-2.20e-01,
278,-5.20e-01,-2.80e-01,
279,-4.60e-01,-2.20e-01,
280,-5.20e-01,-2.60e-01,
281,-4.60e-01,-2.20e-01,
282,-5.20e-01,-2.60e-01,
283,-4.60e-01,-2.20e-01,
284,-5.20e-01,-2.60e-01,
285,-4.60e-01,-2.00e-01,
286,-4.60e-01,-2.60e-01,
287,-5.20e-01,-2.00e-01,
288,-5.20e-01,-2.60e-01,
289,-4.60e-01,-2.00e-01,
290,-5.20e-01,-2.60e-01,
291,-4.60e-01,-2.00e-01,
292,-5.20e-01,-2.60e-01,
293,-4.60e-01,-2.00e-01,
294,-5.20e-01,-2.60e-01,
295,-4.60e-01,-2.00e-01,
296,-5.20e-01,-2.60e-01,
297,-4.60e-01,-2.00e-01,
298,-4.80e-01,-2.60e-01,
299,-5.40e-01,-2.00e-01,
300,-5.20e-01,-2.60e-01,
301,-4.60e-01,-2.00e-01,
302,-5.20e-01,-2.60e-01,
303,-4.60e-01,-2.00e-01,
304,-5.20e-01,-2.60e-01,
305,-4.60e-01,-2.00e-01,
306,-5.40e-01,-2.60e-01,
307,-4.60e-01,-2.00e-01,
308,-5.20e-01,-2.60e-01,
309,-4.60e-01,-2.00e-01,
310,-5.20e-01,-2.40e-01,
311,-4.60e-01,-2.00e-01,
312,-4.60e-01,-2.40e-01,
313,-5.20e-01,-2.00e-01,
314,-5.20e-01,-2.40e-01,
315,-4.60e-01,-1.80e-01,
316,-4.60e-01,-2.40e-01,
317,-5.20e-01,-1.80e-01,
318,-5.20e-01,-2.40e-01,
319,-4.60e-01,-1.80e-01,
320,-4.60e-01,-2.40e-01,
321,-5.20e-01,-1.80e-01,
322,-5.20e-01,-2.40e-01,
323,-4.60e-01,-1.80e-01,
324,-4.60e-01,-1.80e-01,
325,-5.20e-01,-2.40e-01,
326,-5.20e-01,-1.80e-01,
327,-4.60e-01,-2.40e-01,
328,-5.20e-01,-1.80e-01,
329,-4.60e-01,-2.40e-01,
330,-5.20e-01,-1.80e-01,
331,-4.60e-01,-2.40e-01,
332,-5.20e-01,-1.80e-01,
333,-4.60e-01,-2.40e-01,
334,-4.60e-01,-2.20e-01,
335,-5.20e-01,-1.80e-01,
336,-5.20e-01,-2.40e-01,
337,-4.60e-01,-1.60e-01,
338,-5.20e-01,-2.20e-01,
339,-4.60e-01,-1.80e-01,
340,-4.60e-01,-2.20e-01,
341,-5.20e-01,-1.60e-01,
342,-4.60e-01,-2.20e-01,
343,-5.20e-01,-1.80e-01,
344,-4.60e-01,-2.20e-01,
345,-5.20e-01,-1.80e-01,
346,-5.20e-01,-2.20e-01,
347,-4.60e-01,-1.60e-01,
348,-5.20e-01,-2.20e-01,
349,-4.60e-01,-1.60e-01,
350,-4.60e-01,-2.20e-01,
351,-5.20e-01,-1.60e-01,
352,-4.60e-01,-2.20e-01,
353,-5.20e-01,-1.60e-01,
354,-4.60e-01,-1.60e-01,
355,-5.20e-01,-2.20e-01,
356,-4.60e-01,-1.60e-01,
357,-5.20e-01,-2.20e-01,
358,-4.60e-01,-2.20e-01,
359,-5.20e-01,-1.60e-01,
360,-5.20e-01,-2.20e-01,
361,-4.60e-01,-1.60e-01,
362,-5.20e-01,-1.60e-01,
363,-4.60e-01,-2.00e-01,
364,-5.20e-01,-2.00e-01,
365,-4.60e-01,-1.60e-01,
366,-4.60e-01,-2.00e-01,
367,-5.20e-01,-1.40e-01,
368,-5.20e-01,-2.00e-01,
369,-4.60e-01,-1.60e-01,
370,-4.60e-01,-2.00e-01,
371,-5.20e-01,-1.60e-01,
372,-5.20e-01,-2.00e-01,
373,-4.60e-01,-1.40e-01,
374,-4.60e-01,-2.00e-01,
375,-5.20e-01,-1.40e-01,
376,-5.20e-01,-2.00e-01,
377,-4.60e-01,-1.40e-01,
378,-4.60e-01,-1.40e-01,
379,-5.20e-01,-2.00e-01,
380,-4.60e-01,-2.00e-01,
381,-5.20e-01,-1.40e-01,
382,-5.20e-01,-1.40e-01,
383,-4.60e-01,-2.00e-01,
384,-5.20e-01,-1.40e-01,
385,-4.60e-01,-2.00e-01,
386,-5.20e-01,-1.40e-01,
387,-4.60e-01,-2.00e-01,
388,-5.20e-01,-1.80e-01,
389,-4.60e-01,-1.40e-01,
390,-4.60e-01,-1.40e-01,
391,-5.20e-01,-2.00e-01,
392,-4.60e-01,-1.80e-01,
393,-5.20e-01,-1.40e-01,
394,-4.60e-01,-1.80e-01,
395,-5.20e-01,-1.40e-01,
396,-4.60e-01,-1.80e-01,
397,-5.20e-01,-1.20e-01,
398,-5.20e-01,-1.80e-01,
399,-4.60e-01,-1.20e-01,
400,-4.60e-01,-1.80e-01,
401,-5.20e-01,-1.20e-01,
402,-5.20e-01,-1.80e-01,
403,-4.60e-01,-1.20e-01,
404,-5.20e-01,-1.80e-01,
405,-4.60e-01,-1.20e-01,
406,-4.60e-01,-1.20e-01,
407,-5.20e-01,-1.80e-01,
408,-4.60e-01,-1.80e-01,
409,-5.20e-01,-1.20e-01,
410,-4.60e-01,-1.20e-01,
411,-5.20e-01,-1.80e-01,
412,-4.60e-01,-1.80e-01,
413,-5.20e-01,-1.20e-01,
414,-4.60e-01,-1.20e-01,
415,-5.20e-01,-1.60e-01,
416,-4.60e-01,-1.20e-01,
417,-5.20e-01,-1.60e-01,
418,-4.60e-01,-1.20e-01,
419,-5.20e-01,-1.60e-01,
420,-4.60e-01,-1.20e-01,
421,-5.20e-01,-1.60e-01,
422,-4.60e-01,-1.20e-01,
423,-5.20e-01,-1.60e-01,
424,-5.00e-01,-1.60e-01,
425,-4.60e-01,-1.00e-01,
426,-5.00e-01,-1.60e-01,
427,-4.40e-01,-1.00e-01,
428,-4.40e-01,-1.60e-01,
429,-5.00e-01,-1.00e-01,
430,-5.00e-01,-1.00e-01,
431,-4.40e-01,-1.60e-01,
432,-5.00e-01,-1.00e-01,
433,-4.40e-01,-1.60e-01,
434,-5.00e-01,-1.00e-01,
435,-4.40e-01,-1.60e-01,
436,-4.40e-01,-1.00e-01,
437,-5.00e-01,-1.60e-01,
438,-4.40e-01,-1.00e-01,
439,-5.00e-01,-1.60e-01,
440,-5.00e-01,-1.40e-01,
441,-4.40e-01,-1.00e-01,
442,-4.40e-01,-1.00e-01,
443,-5.00e-01,-1.60e-01,
444,-5.00e-01,-1.00e-01,
445,-4.40e-01,-1.60e-01,
446,-4.40e-01,-1.00e-01,
447,-5.00e-01,-1.40e-01,
448,-4.40e-01,-1.40e-01,
449,-5.00e-01,-1.00e-01,
450,-4.40e-01,-1.40e-01,
451,-4.80e-01,-8.00e-02,
452,-4.80e-01,-1.40e-01,
453,-4.20e-01,-8.00e-02,
454,-4.80e-01,-1.40e-01,
455,-4.20e-01,-8.00e-02,
456,-4.80e-01,-1.40e-01,
457,-4.20e-01,-8.00e-02,
458,-4.20e-01,-8.00e-02,
459,-4.80e-01,-1.40e-01,
460,-4.20e-01,-8.00e-02,
461,-4.80e-01,-1.40e-01,
462,-4.60e-01,-8.00e-02,
463,-4.00e-01,-1.20e-01,
464,-4.00e-01,-8.00e-02,
465,-4.60e-01,-1.20e-01,
466,-4.00e-01,-1.20e-01,
467,-4.60e-01,-8.00e-02,
468,-4.00e-01,-8.00e-02,
469,-4.60e-01,-1.20e-01,
470,-4.60e-01,-1.20e-01,
471,-3.80e-01,-6.00e-02,
472,-4.40e-01,-1.20e-01,
473,-3.80e-01,-6.00e-02,
474,-3.80e-01,-1.20e-01,
475,-4.40e-01,-6.00e-02,
476,-4.40e-01,-6.00e-02,
477,-3.80e-01,-1.20e-01,
478,-4.40e-01,-1.20e-01,
479,-3.60e-01,-6.00e-02,
480,-4.20e-01,-6.00e-02,
481,-3.60e-01,-1.20e-01,
482,-3.60e-01,-6.00e-02,
483,-4.20e-01,-1.20e-01,
484,-4.00e-01,-6.00e-02,
485,-3.40e-01,-1.20e-01,
486,-3.40e-01,-6.00e-02,
487,-4.00e-01,-1.20e-01,
488,-3.40e-01,-6.00e-02,
489,-4.00e-01,-1.00e-01,
490,-3.80e-01,-1.00e-01,
491,-3.20e-01,-6.00e-02,
492,-3.80e-01,-6.00e-02,
493,-3.00e-01,-1.00e-01,
494,-3.00e-01,-1.00e-01,
495,-3.80e-01,-4.00e-02,
496,-3.80e-01,-6.00e-02,
497,-3.00e-01,-1.00e-01,
498,-3.00e-01,-1.00e-01,
499,-3.80e-01,-4.00e-02,
500,-3.60e-01,-1.00e-01,
501,-3.00e-01,-4.00e-02,
502,-3.40e-01,-1.00e-01,
503,-2.80e-01,-4.00e-02,
504,-3.40e-01,-1.00e-01,
505,-2.80e-01,-4.00e-02,
506,-3.40e-01,-1.00e-01,
507,-2.80e-01,-4.00e-02,
508,-3.40e-01,-4.00e-02,
509,-2.80e-01,-1.00e-01,
510,-3.40e-01,-4.00e-02,
511,-2.80e-01,-1.00e-01,
512,-3.40e-01,-4.00e-02,
513,-2.80e-01,-1.00e-01,
514,-3.40e-01,-4.00e-02,
515,-2.80e-01,-1.00e-01,
516,-2.80e-01,-4.00e-02,
517,-3.40e-01,-1.00e-01,
518,-3.40e-01,-4.00e-02,
519,-2.80e-01,-1.00e-01,
520,-3.40e-01,-4.00e-02,
521,-2.80e-01,-8.00e-02,
522,-2.80e-01,-8.00e-02,
523,-3.40e-01,-2.00e-02,
524,-3.40e-01,-8.00e-02,
525,-2.80e-01,-2.00e-02,
526,-3.40e-01,-8.00e-02,
527,-2.80e-01,-2.00e-02,
528,-2.80e-01,-8.00e-02,
529,-3.40e-01,-2.00e-02,
530,-2.80e-01,-8.00e-02,
531,-3.40e-01,-2.00e-02,
532,-2.80e-01,-2.00e-02,
533,-3.40e-01,-8.00e-02,
534,-3.40e-01,-2.00e-02,
535,-2.80e-01,-8.00e-02,
536,-3.20e-01,-2.00e-02,
537,-2.60e-01,-8.00e-02,
538,-3.20e-01,-2.00e-02,
539,-2.60e-01,-8.00e-02,
540,-3.20e-01,-2.00e-02,
541,-2.60e-01,-6.00e-02,
542,-3.20e-01,-2.00e-02,
543,-2.60e-01,-8.00e-02,
544,-3.20e-01,-6.00e-02,
545,-2.60e-01,-2.00e-02,
546,-2.60e-01,-2.00e-02,
547,-3.20e-01,-6.00e-02,
548,-3.20e-01,-2.00e-02,
549,-2.40e-01,-6.00e-02,
550,-3.00e-01,-6.00e-02,
551,-2.40e-01,0.00e+00,
552,-3.00e-01,-2.00e-02,
553,-2.40e-01,-6.00e-02,
554,-2.40e-01,-6.00e-02,
555,-3.00e-01,0.00e+00,
556,-2.40e-01,-6.00e-02,
557,-3.00e-01,0.00e+00,
558,-2.80e-01,0.00e+00,
559,-2.20e-01,-6.00e-02,
560,-2.80e-01,-6.00e-02,
561,-2.20e-01,0.00e+00,
562,-2.20e-01,0.00e+00,
563,-2.80e-01,-6.00e-02,
564,-2.80e-01,0.00e+00,
565,-2.00e-01,-6.00e-02,
566,-2.60e-01,0.00e+00,
567,-2.00e-01,-6.00e-02,
568,-2.00e-01,0.00e+00,
569,-2.60e-01,-6.00e-02,
570,-2.00e-01,0.00e+00,
571,-2.60e-01,-6.00e-02,
572,-2.40e-01,0.00e+00,
573,-1.80e-01,-4.00e-02,
574,-2.40e-01,0.00e+00,
575,-1.80e-01,-4.00e-02,
576,-2.20e-01,-4.00e-02,
577,-1.60e-01,2.00e-02,
578,-2.20e-01,-4.00e-02,
579,-1.60e-01,2.00e-02,
580,-2.20e-01,-4.00e-02,
581,-1.60e-01,2.00e-02,
582,-2.20e-01,-4.00e-02,
583,-1.40e-01,2.00e-02,
584,-2.00e-01,2.00e-02,
585,-1.40e-01,-4.00e-02,
586,-1.40e-01,-4.00e-02,
587,-2.00e-01,2.00e-02,
588,-1.80e-01,2.00e-02,
589,-1.20e-01,-4.00e-02,
590,-1.80e-01,2.00e-02,
591,-1.00e-01,-4.00e-02,
592,-1.00e-01,2.00e-02,
593,-1.60e-01,-4.00e-02,
594,-1.40e-01,2.00e-02,
595,-8.00e-02,-4.00e-02,
596,-8.00e-02,2.00e-02,
597,-1.40e-01,-2.00e-02,
598,-4.00e-02,2.00e-02,
599,-1.20e-01,-4.00e-02,
600,-4.00e-02,-2.00e-02,
601,-1.20e-01,4.00e-02,
602,-8.00e-02,-2.00e-02,
603,-2.00e-02,4.00e-02,
604,-8.00e-02,-2.00e-02,
605,-2.00e-02,4.00e-02,
606,-6.00e-02,-2.00e-02,
607,0.00e+00,4.00e-02,
608,-6.00e-02,-2.00e-02,
609,0.00e+00,4.00e-02,
610,-4.00e-02,-2.00e-02,
611,2.00e-02,4.00e-02,
612,2.00e-02,-2.00e-02,
613,-4.00e-02,4.00e-02,
614,4.00e-02,4.00e-02,
615,-2.00e-02,-2.00e-02,
616,4.00e-02,4.00e-02,
617,-2.00e-02,-2.00e-02,
618,4.00e-02,4.00e-02,
619,-2.00e-02,0.00e+00,
620,4.00e-02,4.00e-02,
621,-2.00e-02,0.00e+00,
622,4.00e-02,0.00e+00,
623,-2.00e-02,4.00e-02,
624,4.00e-02,0.00e+00,
625,-2.00e-02,4.00e-02,
626,-2.00e-02,0.00e+00,
627,4.00e-02,6.00e-02,
628,-4.00e-02,4.00e-02,
629,2.00e-02,-2.00e-02,
630,-4.00e-02,0.00e+00,
631,2.00e-02,6.00e-02,
632,0.00e+00,0.00e+00,
633,-6.00e-02,6.00e-02,
634,-6.00e-02,0.00e+00,
635,0.00e+00,6.00e-02,
636,0.00e+00,6.00e-02,
637,-8.00e-02,0.00e+00,
638,-2.00e-02,6.00e-02,
639,-8.00e-02,0.00e+00,
640,-8.00e-02,6.00e-02,
641,-2.00e-02,2.00e-02,
642,-8.00e-02,6.00e-02,
643,-2.00e-02,0.00e+00,
644,-2.00e-02,6.00e-02,
645,-1.00e-01,0.00e+00,
646,-1.20e-01,6.00e-02,
647,-4.00e-02,0.00e+00,
648,-1.20e-01,6.00e-02,
649,-4.00e-02,2.00e-02,
650,-4.00e-02,6.00e-02,
651,-1.20e-01,2.00e-02,
652,-4.00e-02,8.00e-02,
653,-1.20e-01,2.00e-02,
654,-1.20e-01,6.00e-02,
655,-4.00e-02,2.00e-02,
656,-1.20e-01,6.00e-02,
657,-4.00e-02,2.00e-02,
658,-4.00e-02,2.00e-02,
659,-1.20e-01,8.00e-02,
660,-1.00e-01,2.00e-02,
661,-4.00e-02,8.00e-02,
662,-1.20e-01,2.00e-02,
663,-4.00e-02,1.00e-01,
664,-1.20e-01,2.00e-02,
665,-4.00e-02,8.00e-02,
666,-1.20e-01,8.00e-02,
667,-4.00e-02,2.00e-02,
668,-1.00e-01,2.00e-02,
669,-4.00e-02,8.00e-02,
670,-2.00e-02,8.00e-02,
671,-1.00e-01,2.00e-02,
672,-8.00e-02,1.00e-01,
673,-2.00e-02,2.00e-02,
674,-8.00e-02,8.00e-02,
675,-2.00e-02,2.00e-02,
676,-2.00e-02,4.00e-02,
677,-8.00e-02,1.00e-01,
678,-6.00e-02,4.00e-02,
679,0.00e+00,1.00e-01,
680,-6.00e-02,4.00e-02,
681,0.00e+00,1.00e-01,
682,-4.00e-02,1.00e-01,
683,2.00e-02,4.00e-02,
684,-4.00e-02,8.00e-02,
685,2.00e-02,4.00e-02,
686,-2.00e-02,4.00e-02,
687,4.00e-02,1.20e-01,
688,-2.00e-02,1.00e-01,
689,4.00e-02,4.00e-02,
690,0.00e+00,1.20e-01,
691,6.00e-02,4.00e-02,
692,0.00e+00,6.00e-02,
693,8.00e-02,1.20e-01,
694,2.00e-02,1.20e-01,
695,8.00e-02,4.00e-02,
696,2.00e-02,1.20e-01,
697,1.00e-01,6.00e-02,
698,4.00e-02,1.20e-01,
699,1.00e-01,6.00e-02,
700,1.00e-01,1.20e-01,
701,4.00e-02,6.00e-02,
702,6.00e-02,8.00e-02,
703,1.20e-01,1.20e-01,
704,6.00e-02,1.20e-01,
705,1.40e-01,6.00e-02,
706,8.00e-02,8.00e-02,
707,1.60e-01,1.20e-01,
708,1.60e-01,8.00e-02,
709,1.00e-01,1.20e-01,
710,1.20e-01,8.00e-02,
711,2.00e-01,1.20e-01,
712,1.20e-01,8.00e-02,
713,2.20e-01,1.20e-01,
714,2.20e-01,8.00e-02,
715,1.40e-01,1.40e-01,
716,1.80e-01,8.00e-02,
717,2.40e-01,1.40e-01,
718,2.00e-01,8.00e-02,
719,2.60e-01,1.40e-01,
720,2.00e-01,8.00e-02,
721,2.80e-01,1.40e-01,
722,2.20e-01,1.40e-01,
723,3.00e-01,8.00e-02,
724,2.40e-01,8.00e-02,
725,3.00e-01,1.40e-01,
726,2.60e-01,1.40e-01,
727,3.20e-01,8.00e-02,
728,2.60e-01,1.40e-01,
729,3.40e-01,8.00e-02,
730,2.80e-01,1.40e-01,
731,3.40e-01,8.00e-02,
732,2.80e-01,1.00e-01,
733,3.40e-01,1.40e-01,
734,2.80e-01,1.40e-01,
735,3.40e-01,1.00e-01,
736,3.20e-01,1.00e-01,
737,2.60e-01,1.40e-01,
738,3.20e-01,1.00e-01,
739,2.40e-01,1.60e-01,
740,3.00e-01,1.00e-01,
741,2.40e-01,1.40e-01,
742,2.20e-01,1.00e-01,
743,2.80e-01,1.60e-01,
744,2.60e-01,1.00e-01,
745,2.00e-01,1.60e-01,
746,2.60e-01,1.00e-01,
747,1.80e-01,1.60e-01,
748,1.80e-01,1.00e-01,
749,2.40e-01,1.60e-01,
750,2.20e-01,1.60e-01,
751,1.40e-01,1.00e-01,
752,2.20e-01,1.60e-01,
753,1.40e-01,1.00e-01,
754,1.20e-01,1.60e-01,
755,2.00e-01,1.20e-01,
756,2.00e-01,1.20e-01,
757,1.20e-01,1.60e-01,
758,1.60e-01,1.20e-01,
759,1.00e-01,1.80e-01,
760,1.00e-01,1.20e-01,
761,1.60e-01,1.80e-01,
762,1.60e-01,1.20e-01,
763,1.00e-01,1.80e-01,
764,1.40e-01,1.20e-01,
765,1.00e-01,1.80e-01,
766,1.40e-01,1.20e-01,
767,8.00e-02,1.80e-01,
768,8.00e-02,1.20e-01,
769,1.40e-01,1.80e-01,
770,1.40e-01,1.80e-01,
771,8.00e-02,1.20e-01,
772,1.40e-01,1.80e-01,
773,8.00e-02,1.20e-01,
774,1.40e-01,1.80e-01,
775,8.00e-02,1.40e-01,
776,1.40e-01,1.80e-01,
777,8.00e-02,1.20e-01,
778,8.00e-02,1.40e-01,
779,1.40e-01,1.80e-01,
780,1.40e-01,1.80e-01,
781,8.00e-02,1.40e-01,
782,1.00e-01,1.40e-01,
783,1.60e-01,2.00e-01,
784,1.00e-01,1.40e-01,
785,1.60e-01,2.00e-01,
786,1.00e-01,1.40e-01,
787,1.80e-01,2.00e-01,
788,1.20e-01,1.40e-01,
789,1.80e-01,2.00e-01,
790,1.20e-01,1.40e-01,
791,2.00e-01,2.00e-01,
792,1.40e-01,2.00e-01,
793,2.20e-01,1.40e-01,
794,2.20e-01,1.40e-01,
795,1.40e-01,2.00e-01,
796,1.80e-01,1.40e-01,
797,2.40e-01,2.00e-01,
798,1.80e-01,1.40e-01,
799,2.60e-01,2.00e-01,
800,2.00e-01,1.40e-01,
801,2.60e-01,2.00e-01,
802,2.20e-01,1.40e-01,
803,2.80e-01,2.00e-01,
804,2.20e-01,2.00e-01,
805,3.00e-01,1.40e-01,
806,2.40e-01,2.00e-01,
807,3.00e-01,1.60e-01,
808,2.60e-01,2.00e-01,
809,3.20e-01,1.40e-01,
810,2.60e-01,1.60e-01,
811,3.40e-01,2.00e-01,
812,2.80e-01,1.60e-01,
813,3.60e-01,2.20e-01,
814,3.00e-01,1.60e-01,
815,3.80e-01,2.20e-01,
