Optical Pumping/Data/60etalon.csv

X,CH1,CH2,Start,Increment,
Sequence,Volt,Volt,-1.224000e-03,2.000000e-06
0,-4.00e-02,-4.80e-01,
1,-1.40e-01,-5.40e-01,
2,-1.00e-01,-4.80e-01,
3,-2.00e-01,-5.40e-01,
4,-1.40e-01,-4.80e-01,
5,-2.40e-01,-5.40e-01,
6,-2.00e-01,-4.80e-01,
7,-3.00e-01,-5.40e-01,
8,-2.40e-01,-4.60e-01,
9,-3.20e-01,-5.40e-01,
10,-2.80e-01,-4.60e-01,
11,-3.60e-01,-5.40e-01,
12,-3.20e-01,-4.60e-01,
13,-3.80e-01,-5.20e-01,
14,-3.40e-01,-4.60e-01,
15,-4.20e-01,-5.20e-01,
16,-3.60e-01,-4.60e-01,
17,-4.40e-01,-5.20e-01,
18,-3.80e-01,-5.20e-01,
19,-4.60e-01,-4.60e-01,
20,-4.00e-01,-4.60e-01,
21,-4.80e-01,-5.20e-01,
22,-4.20e-01,-4.60e-01,
23,-4.80e-01,-5.20e-01,
24,-5.00e-01,-4.60e-01,
25,-4.40e-01,-5.20e-01,
26,-4.60e-01,-4.60e-01,
27,-5.20e-01,-5.20e-01,
28,-5.20e-01,-4.60e-01,
29,-4.60e-01,-5.20e-01,
30,-4.60e-01,-4.60e-01,
31,-5.40e-01,-5.20e-01,
32,-4.80e-01,-5.20e-01,
33,-5.60e-01,-4.40e-01,
34,-5.00e-01,-5.00e-01,
35,-5.60e-01,-4.40e-01,
36,-5.20e-01,-5.00e-01,
37,-5.80e-01,-4.40e-01,
38,-5.20e-01,-5.00e-01,
39,-5.80e-01,-4.40e-01,
40,-5.80e-01,-4.40e-01,
41,-5.20e-01,-5.00e-01,
42,-5.80e-01,-5.00e-01,
43,-5.20e-01,-4.40e-01,
44,-6.00e-01,-5.00e-01,
45,-5.20e-01,-4.40e-01,
46,-5.40e-01,-4.40e-01,
47,-6.00e-01,-5.00e-01,
48,-5.40e-01,-4.40e-01,
49,-6.00e-01,-5.00e-01,
50,-5.40e-01,-4.40e-01,
51,-6.00e-01,-5.00e-01,
52,-5.60e-01,-4.40e-01,
53,-6.00e-01,-5.00e-01,
54,-5.60e-01,-5.00e-01,
55,-6.20e-01,-4.40e-01,
56,-5.60e-01,-4.40e-01,
57,-6.20e-01,-5.00e-01,
58,-6.20e-01,-5.00e-01,
59,-5.60e-01,-4.20e-01,
60,-5.60e-01,-4.80e-01,
61,-6.20e-01,-4.20e-01,
62,-5.60e-01,-4.80e-01,
63,-6.20e-01,-4.20e-01,
64,-5.60e-01,-4.80e-01,
65,-6.20e-01,-4.20e-01,
66,-6.20e-01,-4.80e-01,
67,-5.60e-01,-4.20e-01,
68,-6.20e-01,-4.80e-01,
69,-5.60e-01,-4.20e-01,
70,-6.20e-01,-4.80e-01,
71,-5.60e-01,-4.20e-01,
72,-6.20e-01,-4.20e-01,
73,-5.60e-01,-4.80e-01,
74,-6.20e-01,-4.20e-01,
75,-5.60e-01,-4.80e-01,
76,-5.60e-01,-4.80e-01,
77,-6.20e-01,-4.20e-01,
78,-5.60e-01,-4.20e-01,
79,-6.40e-01,-4.80e-01,
80,-6.40e-01,-4.20e-01,
81,-5.60e-01,-4.80e-01,
82,-5.80e-01,-4.20e-01,
83,-6.40e-01,-4.80e-01,
84,-5.60e-01,-4.80e-01,
85,-6.40e-01,-4.00e-01,
86,-6.20e-01,-4.60e-01,
87,-5.60e-01,-4.00e-01,
88,-6.20e-01,-4.60e-01,
89,-5.60e-01,-4.00e-01,
90,-5.80e-01,-4.60e-01,
91,-6.20e-01,-4.00e-01,
92,-5.80e-01,-4.60e-01,
93,-6.20e-01,-4.00e-01,
94,-5.60e-01,-4.60e-01,
95,-6.40e-01,-4.00e-01,
96,-5.80e-01,-4.60e-01,
97,-6.40e-01,-4.00e-01,
98,-5.80e-01,-4.60e-01,
99,-6.40e-01,-4.00e-01,
100,-6.20e-01,-4.60e-01,
101,-5.60e-01,-4.00e-01,
102,-5.80e-01,-4.00e-01,
103,-6.40e-01,-4.60e-01,
104,-6.20e-01,-4.00e-01,
105,-5.60e-01,-4.60e-01,
106,-5.60e-01,-4.60e-01,
107,-6.40e-01,-3.80e-01,
108,-6.40e-01,-4.00e-01,
109,-5.60e-01,-4.40e-01,
110,-5.80e-01,-4.60e-01,
111,-6.40e-01,-3.80e-01,
112,-6.40e-01,-4.40e-01,
113,-5.60e-01,-3.80e-01,
114,-6.40e-01,-4.40e-01,
115,-5.80e-01,-3.80e-01,
116,-5.80e-01,-3.80e-01,
117,-6.40e-01,-4.40e-01,
118,-5.80e-01,-4.40e-01,
119,-6.40e-01,-3.80e-01,
120,-5.80e-01,-4.40e-01,
121,-6.40e-01,-3.80e-01,
122,-5.80e-01,-4.40e-01,
123,-6.40e-01,-3.80e-01,
124,-5.80e-01,-3.80e-01,
125,-6.40e-01,-4.40e-01,
126,-6.40e-01,-3.80e-01,
127,-5.80e-01,-4.40e-01,
128,-6.40e-01,-3.80e-01,
129,-5.60e-01,-4.40e-01,
130,-6.40e-01,-4.40e-01,
131,-5.80e-01,-3.60e-01,
132,-5.60e-01,-3.60e-01,
133,-6.40e-01,-4.40e-01,
134,-6.20e-01,-3.80e-01,
135,-5.60e-01,-4.40e-01,
136,-5.80e-01,-4.20e-01,
137,-6.40e-01,-3.60e-01,
138,-5.60e-01,-4.20e-01,
139,-6.40e-01,-3.60e-01,
140,-6.20e-01,-4.20e-01,
141,-5.60e-01,-3.60e-01,
142,-6.40e-01,-4.20e-01,
143,-5.60e-01,-3.60e-01,
144,-5.80e-01,-4.20e-01,
145,-6.40e-01,-3.60e-01,
146,-5.60e-01,-3.60e-01,
147,-6.40e-01,-4.20e-01,
148,-6.20e-01,-3.60e-01,
149,-5.60e-01,-4.20e-01,
150,-6.40e-01,-3.60e-01,
151,-5.60e-01,-4.20e-01,
152,-5.80e-01,-3.60e-01,
153,-6.40e-01,-4.20e-01,
154,-6.40e-01,-3.60e-01,
155,-5.60e-01,-4.20e-01,
156,-5.60e-01,-3.60e-01,
157,-6.40e-01,-4.20e-01,
158,-5.80e-01,-3.60e-01,
159,-6.40e-01,-4.20e-01,
160,-5.80e-01,-3.60e-01,
161,-6.40e-01,-4.20e-01,
162,-5.80e-01,-3.60e-01,
163,-6.40e-01,-4.20e-01,
164,-5.80e-01,-4.00e-01,
165,-6.40e-01,-3.40e-01,
166,-6.40e-01,-4.00e-01,
167,-5.60e-01,-3.40e-01,
168,-5.80e-01,-4.00e-01,
169,-6.40e-01,-3.40e-01,
170,-5.60e-01,-4.00e-01,
171,-6.40e-01,-3.40e-01,
172,-5.80e-01,-3.40e-01,
173,-6.40e-01,-4.00e-01,
174,-5.80e-01,-4.00e-01,
175,-6.40e-01,-3.40e-01,
176,-5.80e-01,-3.40e-01,
177,-6.40e-01,-4.00e-01,
178,-5.60e-01,-3.40e-01,
179,-6.40e-01,-4.00e-01,
180,-5.80e-01,-3.40e-01,
181,-6.40e-01,-4.00e-01,
182,-6.20e-01,-3.40e-01,
183,-5.60e-01,-4.00e-01,
184,-6.20e-01,-3.40e-01,
185,-5.60e-01,-4.00e-01,
186,-6.20e-01,-3.40e-01,
187,-5.60e-01,-4.00e-01,
188,-5.60e-01,-3.40e-01,
189,-6.40e-01,-3.80e-01,
190,-5.60e-01,-3.80e-01,
191,-6.20e-01,-3.20e-01,
192,-6.20e-01,-3.80e-01,
193,-5.60e-01,-3.20e-01,
194,-5.60e-01,-3.80e-01,
195,-6.20e-01,-3.20e-01,
196,-6.20e-01,-3.80e-01,
197,-5.60e-01,-3.20e-01,
198,-6.20e-01,-3.20e-01,
199,-5.60e-01,-3.80e-01,
200,-6.20e-01,-3.80e-01,
201,-5.60e-01,-3.20e-01,
202,-6.20e-01,-3.20e-01,
203,-5.60e-01,-3.80e-01,
204,-5.60e-01,-3.20e-01,
205,-6.40e-01,-3.80e-01,
206,-5.60e-01,-3.20e-01,
207,-6.40e-01,-3.80e-01,
208,-6.20e-01,-3.20e-01,
209,-5.60e-01,-3.80e-01,
210,-6.20e-01,-3.20e-01,
211,-5.60e-01,-3.60e-01,
212,-5.60e-01,-3.20e-01,
213,-6.20e-01,-3.80e-01,
214,-6.40e-01,-3.80e-01,
215,-5.60e-01,-3.20e-01,
216,-5.60e-01,-3.60e-01,
217,-6.40e-01,-3.00e-01,
218,-6.40e-01,-3.20e-01,
219,-5.60e-01,-3.80e-01,
220,-5.60e-01,-3.20e-01,
221,-6.20e-01,-3.60e-01,
222,-5.60e-01,-3.60e-01,
223,-6.40e-01,-3.00e-01,
224,-6.40e-01,-3.60e-01,
225,-5.60e-01,-3.00e-01,
226,-6.20e-01,-3.60e-01,
227,-5.60e-01,-3.00e-01,
228,-6.40e-01,-3.60e-01,
229,-5.60e-01,-3.00e-01,
230,-5.60e-01,-3.00e-01,
231,-6.20e-01,-3.60e-01,
232,-6.20e-01,-3.00e-01,
233,-5.60e-01,-3.60e-01,
234,-5.60e-01,-3.00e-01,
235,-6.20e-01,-3.60e-01,
236,-5.60e-01,-3.40e-01,
237,-6.20e-01,-2.80e-01,
238,-5.60e-01,-3.00e-01,
239,-6.20e-01,-3.40e-01,
240,-6.20e-01,-3.00e-01,
241,-5.60e-01,-3.40e-01,
242,-5.60e-01,-3.40e-01,
243,-6.20e-01,-2.80e-01,
244,-5.60e-01,-3.40e-01,
245,-6.20e-01,-2.80e-01,
246,-5.60e-01,-3.40e-01,
247,-6.20e-01,-2.80e-01,
248,-6.20e-01,-3.40e-01,
249,-5.60e-01,-2.80e-01,
250,-5.60e-01,-3.40e-01,
251,-6.20e-01,-2.80e-01,
252,-5.60e-01,-2.80e-01,
253,-6.20e-01,-3.40e-01,
254,-5.60e-01,-3.40e-01,
255,-6.20e-01,-2.80e-01,
256,-5.60e-01,-2.80e-01,
257,-6.20e-01,-3.40e-01,
258,-6.20e-01,-2.80e-01,
259,-5.60e-01,-3.40e-01,
260,-6.20e-01,-2.80e-01,
261,-5.60e-01,-3.20e-01,
262,-5.60e-01,-2.80e-01,
263,-6.20e-01,-3.40e-01,
264,-5.60e-01,-2.80e-01,
265,-6.20e-01,-3.20e-01,
266,-5.60e-01,-3.20e-01,
267,-6.20e-01,-2.60e-01,
268,-5.60e-01,-2.80e-01,
269,-6.20e-01,-3.20e-01,
270,-5.60e-01,-2.60e-01,
271,-6.20e-01,-3.20e-01,
272,-6.20e-01,-2.60e-01,
273,-5.60e-01,-3.20e-01,
274,-6.20e-01,-2.60e-01,
275,-5.60e-01,-3.20e-01,
276,-6.20e-01,-3.20e-01,
277,-5.60e-01,-2.60e-01,
278,-5.60e-01,-2.60e-01,
279,-6.20e-01,-3.20e-01,
280,-5.60e-01,-2.60e-01,
281,-6.20e-01,-3.20e-01,
282,-5.60e-01,-2.60e-01,
283,-6.20e-01,-3.20e-01,
284,-5.60e-01,-2.60e-01,
285,-6.20e-01,-3.20e-01,
286,-5.60e-01,-2.60e-01,
287,-6.20e-01,-3.20e-01,
288,-6.20e-01,-2.60e-01,
289,-5.60e-01,-3.20e-01,
290,-5.60e-01,-2.60e-01,
291,-6.20e-01,-3.00e-01,
292,-6.20e-01,-2.60e-01,
293,-5.60e-01,-3.00e-01,
294,-5.60e-01,-2.40e-01,
295,-6.20e-01,-3.00e-01,
296,-5.60e-01,-3.00e-01,
297,-6.20e-01,-2.40e-01,
298,-5.60e-01,-2.40e-01,
299,-6.20e-01,-3.00e-01,
300,-6.20e-01,-3.00e-01,
301,-5.60e-01,-2.20e-01,
302,-5.60e-01,-2.20e-01,
303,-6.20e-01,-3.00e-01,
304,-5.60e-01,-3.00e-01,
305,-6.20e-01,-2.20e-01,
306,-5.60e-01,-2.20e-01,
307,-6.20e-01,-3.00e-01,
308,-5.60e-01,-3.00e-01,
309,-6.20e-01,-2.20e-01,
310,-6.20e-01,-3.00e-01,
311,-5.60e-01,-2.20e-01,
312,-5.60e-01,-2.20e-01,
313,-6.20e-01,-3.00e-01,
314,-5.60e-01,-2.80e-01,
315,-6.20e-01,-2.20e-01,
316,-6.20e-01,-2.60e-01,
317,-5.40e-01,-2.20e-01,
318,-6.00e-01,-2.60e-01,
319,-5.40e-01,-2.00e-01,
320,-5.40e-01,-2.60e-01,
321,-6.00e-01,-2.00e-01,
322,-5.60e-01,-2.60e-01,
323,-6.00e-01,-2.00e-01,
324,-5.60e-01,-2.60e-01,
325,-6.20e-01,-2.00e-01,
326,-5.60e-01,-2.60e-01,
327,-6.20e-01,-2.00e-01,
328,-6.20e-01,-2.60e-01,
329,-5.40e-01,-2.00e-01,
330,-6.00e-01,-2.60e-01,
331,-5.40e-01,-2.00e-01,
332,-6.00e-01,-2.00e-01,
333,-5.40e-01,-2.60e-01,
334,-5.60e-01,-2.60e-01,
335,-6.00e-01,-2.00e-01,
336,-6.00e-01,-2.00e-01,
337,-5.40e-01,-2.60e-01,
338,-6.20e-01,-2.00e-01,
339,-5.40e-01,-2.60e-01,
340,-5.60e-01,-2.60e-01,
341,-6.00e-01,-2.00e-01,
342,-5.60e-01,-2.60e-01,
343,-6.20e-01,-1.80e-01,
344,-5.60e-01,-2.00e-01,
345,-6.20e-01,-2.60e-01,
346,-5.60e-01,-2.00e-01,
347,-6.20e-01,-2.60e-01,
348,-5.60e-01,-2.00e-01,
349,-6.20e-01,-2.60e-01,
350,-5.60e-01,-2.40e-01,
351,-6.20e-01,-2.00e-01,
352,-5.40e-01,-2.40e-01,
353,-6.20e-01,-1.80e-01,
354,-6.00e-01,-2.40e-01,
355,-5.60e-01,-1.80e-01,
356,-5.40e-01,-2.40e-01,
357,-6.20e-01,-1.80e-01,
358,-5.40e-01,-2.40e-01,
359,-6.20e-01,-1.80e-01,
360,-6.00e-01,-2.40e-01,
361,-5.40e-01,-1.80e-01,
362,-6.00e-01,-1.80e-01,
363,-5.40e-01,-2.40e-01,
364,-5.40e-01,-1.80e-01,
365,-6.00e-01,-2.40e-01,
366,-5.40e-01,-2.40e-01,
367,-6.00e-01,-1.80e-01,
368,-5.40e-01,-2.20e-01,
369,-6.00e-01,-1.60e-01,
370,-5.40e-01,-2.20e-01,
371,-6.00e-01,-1.60e-01,
372,-5.40e-01,-2.20e-01,
373,-6.00e-01,-1.60e-01,
374,-5.40e-01,-2.20e-01,
375,-6.00e-01,-1.60e-01,
376,-5.40e-01,-2.20e-01,
377,-6.00e-01,-1.60e-01,
378,-5.40e-01,-2.20e-01,
379,-6.00e-01,-1.60e-01,
380,-5.40e-01,-2.20e-01,
381,-6.00e-01,-1.60e-01,
382,-6.00e-01,-2.20e-01,
383,-5.20e-01,-1.60e-01,
384,-6.00e-01,-2.20e-01,
385,-5.20e-01,-1.60e-01,
386,-5.20e-01,-2.20e-01,
387,-6.00e-01,-1.60e-01,
388,-5.80e-01,-2.20e-01,
389,-5.20e-01,-1.60e-01,
390,-5.80e-01,-2.20e-01,
391,-5.20e-01,-1.60e-01,
392,-5.20e-01,-1.60e-01,
393,-5.80e-01,-2.20e-01,
394,-5.20e-01,-1.60e-01,
395,-5.80e-01,-2.20e-01,
396,-5.20e-01,-2.00e-01,
397,-5.80e-01,-1.60e-01,
398,-5.20e-01,-2.00e-01,
399,-5.80e-01,-1.40e-01,
400,-5.60e-01,-1.40e-01,
401,-4.80e-01,-2.00e-01,
402,-5.60e-01,-2.00e-01,
403,-4.80e-01,-1.60e-01,
404,-5.60e-01,-2.00e-01,
405,-4.80e-01,-1.60e-01,
406,-5.60e-01,-2.00e-01,
407,-4.80e-01,-1.60e-01,
408,-5.60e-01,-2.00e-01,
409,-4.80e-01,-1.40e-01,
410,-4.80e-01,-2.00e-01,
411,-5.60e-01,-1.40e-01,
412,-5.60e-01,-2.00e-01,
413,-4.80e-01,-1.40e-01,
414,-5.60e-01,-1.40e-01,
415,-4.80e-01,-2.00e-01,
416,-5.60e-01,-2.00e-01,
417,-4.80e-01,-1.40e-01,
418,-5.40e-01,-1.40e-01,
419,-4.60e-01,-2.00e-01,
420,-5.20e-01,-1.40e-01,
421,-4.60e-01,-2.00e-01,
422,-4.60e-01,-2.00e-01,
423,-5.40e-01,-1.20e-01,
424,-5.20e-01,-1.80e-01,
425,-4.60e-01,-1.40e-01,
426,-4.60e-01,-1.80e-01,
427,-5.20e-01,-1.20e-01,
428,-5.20e-01,-1.80e-01,
429,-4.40e-01,-1.20e-01,
430,-5.00e-01,-1.80e-01,
431,-4.40e-01,-1.20e-01,
432,-5.00e-01,-1.80e-01,
433,-4.40e-01,-1.20e-01,
434,-4.40e-01,-1.80e-01,
435,-5.00e-01,-1.20e-01,
436,-4.40e-01,-1.20e-01,
437,-5.00e-01,-1.80e-01,
438,-4.40e-01,-1.80e-01,
439,-5.00e-01,-1.20e-01,
440,-5.00e-01,-1.80e-01,
441,-4.40e-01,-1.20e-01,
442,-4.80e-01,-1.20e-01,
443,-4.20e-01,-1.80e-01,
444,-4.80e-01,-1.20e-01,
445,-4.20e-01,-1.80e-01,
446,-4.20e-01,-1.20e-01,
447,-4.80e-01,-1.60e-01,
448,-4.80e-01,-1.60e-01,
449,-4.20e-01,-1.00e-01,
450,-4.80e-01,-1.60e-01,
451,-4.00e-01,-1.00e-01,
452,-4.60e-01,-1.60e-01,
453,-4.00e-01,-1.00e-01,
454,-4.60e-01,-1.60e-01,
455,-4.00e-01,-1.00e-01,
456,-4.60e-01,-1.00e-01,
457,-4.00e-01,-1.60e-01,
458,-4.00e-01,-1.00e-01,
459,-4.60e-01,-1.60e-01,
460,-4.40e-01,-1.60e-01,
461,-3.80e-01,-1.00e-01,
462,-4.40e-01,-1.00e-01,
463,-3.80e-01,-1.60e-01,
464,-3.80e-01,-1.60e-01,
465,-4.40e-01,-1.00e-01,
466,-3.80e-01,-1.00e-01,
467,-4.40e-01,-1.60e-01,
468,-4.20e-01,-1.60e-01,
469,-3.60e-01,-1.00e-01,
470,-3.60e-01,-1.00e-01,
471,-4.20e-01,-1.60e-01,
472,-4.20e-01,-1.60e-01,
473,-3.60e-01,-1.00e-01,
474,-4.00e-01,-1.00e-01,
475,-3.40e-01,-1.60e-01,
476,-4.00e-01,-1.00e-01,
477,-3.40e-01,-1.40e-01,
478,-4.00e-01,-1.40e-01,
479,-3.40e-01,-8.00e-02,
480,-4.00e-01,-1.40e-01,
481,-3.20e-01,-8.00e-02,
482,-3.80e-01,-1.40e-01,
483,-3.20e-01,-8.00e-02,
484,-3.20e-01,-1.40e-01,
485,-3.80e-01,-8.00e-02,
486,-3.60e-01,-1.40e-01,
487,-3.00e-01,-8.00e-02,
488,-3.00e-01,-8.00e-02,
489,-3.60e-01,-1.40e-01,
490,-3.60e-01,-8.00e-02,
491,-2.80e-01,-1.40e-01,
492,-3.40e-01,-8.00e-02,
493,-2.80e-01,-1.40e-01,
494,-2.80e-01,-8.00e-02,
495,-3.40e-01,-1.40e-01,
496,-3.20e-01,-8.00e-02,
497,-2.60e-01,-1.20e-01,
498,-2.60e-01,-8.00e-02,
499,-3.20e-01,-1.20e-01,
500,-3.00e-01,-8.00e-02,
501,-2.40e-01,-1.40e-01,
502,-3.00e-01,-8.00e-02,
503,-2.20e-01,-1.20e-01,
504,-2.80e-01,-1.20e-01,
505,-2.00e-01,-6.00e-02,
506,-2.80e-01,-1.20e-01,
507,-2.00e-01,-6.00e-02,
508,-2.60e-01,-1.20e-01,
509,-2.00e-01,-6.00e-02,
510,-2.40e-01,-1.20e-01,
511,-1.80e-01,-6.00e-02,
512,-2.40e-01,-6.00e-02,
513,-1.80e-01,-1.20e-01,
514,-2.40e-01,-6.00e-02,
515,-1.60e-01,-1.20e-01,
516,-2.20e-01,-6.00e-02,
517,-1.60e-01,-1.20e-01,
518,-2.20e-01,-6.00e-02,
519,-1.60e-01,-1.20e-01,
520,-1.60e-01,-6.00e-02,
521,-2.20e-01,-1.00e-01,
522,-1.60e-01,-1.00e-01,
523,-2.20e-01,-6.00e-02,
524,-2.20e-01,-6.00e-02,
525,-1.60e-01,-1.00e-01,
526,-1.60e-01,-6.00e-02,
527,-2.40e-01,-1.00e-01,
528,-1.80e-01,-1.00e-01,
529,-2.40e-01,-4.00e-02,
530,-2.40e-01,-1.00e-01,
531,-1.80e-01,-4.00e-02,
532,-1.80e-01,-1.00e-01,
533,-2.40e-01,-4.00e-02,
534,-2.00e-01,-1.00e-01,
535,-2.60e-01,-4.00e-02,
536,-2.00e-01,-1.00e-01,
537,-2.80e-01,-4.00e-02,
538,-2.60e-01,-4.00e-02,
539,-2.00e-01,-1.00e-01,
540,-2.60e-01,-1.00e-01,
541,-2.00e-01,-4.00e-02,
542,-2.60e-01,-4.00e-02,
543,-2.00e-01,-1.00e-01,
544,-2.60e-01,-8.00e-02,
545,-2.00e-01,-4.00e-02,
546,-2.60e-01,-4.00e-02,
547,-2.00e-01,-8.00e-02,
548,-2.80e-01,-8.00e-02,
549,-2.20e-01,-2.00e-02,
550,-2.80e-01,-8.00e-02,
551,-2.00e-01,-4.00e-02,
552,-2.60e-01,-8.00e-02,
553,-2.20e-01,-2.00e-02,
554,-2.20e-01,-8.00e-02,
555,-2.80e-01,-2.00e-02,
556,-2.60e-01,-8.00e-02,
557,-2.20e-01,-2.00e-02,
558,-2.80e-01,-8.00e-02,
559,-2.00e-01,-2.00e-02,
560,-2.80e-01,-2.00e-02,
561,-2.20e-01,-8.00e-02,
562,-2.20e-01,-8.00e-02,
563,-2.80e-01,-2.00e-02,
564,-2.60e-01,-2.00e-02,
565,-2.20e-01,-8.00e-02,
566,-2.60e-01,-2.00e-02,
567,-2.20e-01,-8.00e-02,
568,-2.00e-01,-8.00e-02,
569,-2.80e-01,-2.00e-02,
570,-2.60e-01,-2.00e-02,
571,-2.00e-01,-8.00e-02,
572,-2.60e-01,-8.00e-02,
573,-2.00e-01,-2.00e-02,
574,-2.00e-01,-2.00e-02,
575,-2.60e-01,-8.00e-02,
576,-2.60e-01,-2.00e-02,
577,-1.80e-01,-6.00e-02,
578,-2.40e-01,-2.00e-02,
579,-1.80e-01,-6.00e-02,
580,-2.40e-01,-6.00e-02,
581,-1.80e-01,0.00e+00,
582,-2.20e-01,-6.00e-02,
583,-1.60e-01,0.00e+00,
584,-2.20e-01,-6.00e-02,
585,-1.60e-01,0.00e+00,
586,-2.00e-01,-6.00e-02,
587,-1.40e-01,0.00e+00,
588,-1.40e-01,-6.00e-02,
589,-2.00e-01,0.00e+00,
590,-1.80e-01,0.00e+00,
591,-1.20e-01,-6.00e-02,
592,-1.80e-01,0.00e+00,
593,-1.20e-01,-6.00e-02,
594,-1.20e-01,0.00e+00,
595,-1.80e-01,-6.00e-02,
596,-1.60e-01,0.00e+00,
597,-1.00e-01,-6.00e-02,
598,-1.00e-01,0.00e+00,
599,-1.60e-01,-6.00e-02,
600,-1.60e-01,0.00e+00,
601,-8.00e-02,-6.00e-02,
602,-8.00e-02,0.00e+00,
603,-1.40e-01,-4.00e-02,
604,-1.40e-01,0.00e+00,
605,-6.00e-02,-4.00e-02,
606,-1.20e-01,-4.00e-02,
607,-6.00e-02,2.00e-02,
608,-1.20e-01,2.00e-02,
609,-4.00e-02,-4.00e-02,
610,-4.00e-02,0.00e+00,
611,-1.00e-01,-4.00e-02,
612,-2.00e-02,2.00e-02,
613,-8.00e-02,-4.00e-02,
614,-6.00e-02,-4.00e-02,
615,0.00e+00,2.00e-02,
616,0.00e+00,2.00e-02,
617,-6.00e-02,-4.00e-02,
618,-4.00e-02,2.00e-02,
619,4.00e-02,-4.00e-02,
620,-2.00e-02,2.00e-02,
621,6.00e-02,-4.00e-02,
622,0.00e+00,-4.00e-02,
623,6.00e-02,2.00e-02,
624,8.00e-02,-2.00e-02,
625,2.00e-02,2.00e-02,
626,4.00e-02,2.00e-02,
627,1.00e-01,-4.00e-02,
628,4.00e-02,-2.00e-02,
629,1.20e-01,4.00e-02,
630,6.00e-02,-2.00e-02,
631,1.20e-01,2.00e-02,
632,1.20e-01,2.00e-02,
633,6.00e-02,-2.00e-02,
634,8.00e-02,4.00e-02,
635,1.40e-01,-2.00e-02,
636,8.00e-02,-2.00e-02,
637,1.40e-01,4.00e-02,
638,1.40e-01,-2.00e-02,
639,8.00e-02,4.00e-02,
640,1.40e-01,4.00e-02,
641,8.00e-02,-2.00e-02,
642,1.40e-01,4.00e-02,
643,8.00e-02,-2.00e-02,
644,8.00e-02,-2.00e-02,
645,1.40e-01,4.00e-02,
646,6.00e-02,4.00e-02,
647,1.20e-01,-2.00e-02,
648,1.20e-01,4.00e-02,
649,4.00e-02,-2.00e-02,
650,1.00e-01,4.00e-02,
651,2.00e-02,0.00e+00,
652,8.00e-02,4.00e-02,
653,2.00e-02,0.00e+00,
654,6.00e-02,4.00e-02,
655,0.00e+00,0.00e+00,
656,6.00e-02,4.00e-02,
657,0.00e+00,0.00e+00,
658,4.00e-02,4.00e-02,
659,-4.00e-02,0.00e+00,
660,-4.00e-02,4.00e-02,
661,4.00e-02,0.00e+00,
662,2.00e-02,0.00e+00,
663,-6.00e-02,6.00e-02,
664,0.00e+00,0.00e+00,
665,-6.00e-02,6.00e-02,
666,0.00e+00,6.00e-02,
667,-8.00e-02,0.00e+00,
668,-2.00e-02,0.00e+00,
669,-8.00e-02,6.00e-02,
670,-2.00e-02,0.00e+00,
671,-8.00e-02,6.00e-02,
672,-8.00e-02,6.00e-02,
673,-2.00e-02,0.00e+00,
674,-8.00e-02,6.00e-02,
675,-2.00e-02,0.00e+00,
676,-8.00e-02,6.00e-02,
677,-2.00e-02,0.00e+00,
678,-8.00e-02,6.00e-02,
679,-2.00e-02,0.00e+00,
680,-8.00e-02,6.00e-02,
681,-2.00e-02,0.00e+00,
682,-8.00e-02,6.00e-02,
683,-2.00e-02,2.00e-02,
684,-8.00e-02,2.00e-02,
685,-2.00e-02,8.00e-02,
686,-2.00e-02,6.00e-02,
687,-8.00e-02,2.00e-02,
688,-2.00e-02,6.00e-02,
689,-8.00e-02,2.00e-02,
690,-2.00e-02,2.00e-02,
691,-8.00e-02,8.00e-02,
692,-6.00e-02,2.00e-02,
693,0.00e+00,1.00e-01,
694,2.00e-02,2.00e-02,
695,-6.00e-02,8.00e-02,
696,-4.00e-02,8.00e-02,
697,2.00e-02,2.00e-02,
698,-4.00e-02,8.00e-02,
699,4.00e-02,2.00e-02,
700,4.00e-02,2.00e-02,
701,-2.00e-02,1.00e-01,
702,0.00e+00,4.00e-02,
703,6.00e-02,1.00e-01,
704,2.00e-02,4.00e-02,
705,8.00e-02,1.00e-01,
706,2.00e-02,4.00e-02,
707,8.00e-02,1.00e-01,
708,2.00e-02,4.00e-02,
709,1.00e-01,1.00e-01,
710,4.00e-02,4.00e-02,
711,1.00e-01,1.00e-01,
712,6.00e-02,4.00e-02,
713,1.20e-01,1.00e-01,
714,6.00e-02,1.20e-01,
715,1.40e-01,4.00e-02,
716,8.00e-02,4.00e-02,
717,1.40e-01,1.20e-01,
718,1.00e-01,4.00e-02,
719,1.60e-01,1.20e-01,
720,1.00e-01,4.00e-02,
721,1.80e-01,1.20e-01,
722,1.20e-01,1.20e-01,
723,1.80e-01,4.00e-02,
724,1.40e-01,6.00e-02,
725,2.00e-01,1.20e-01,
726,1.40e-01,4.00e-02,
727,2.20e-01,1.20e-01,
728,1.60e-01,1.20e-01,
729,2.40e-01,6.00e-02,
730,1.80e-01,6.00e-02,
731,2.60e-01,1.20e-01,
732,2.00e-01,1.20e-01,
733,2.80e-01,4.00e-02,
734,2.20e-01,1.20e-01,
735,3.00e-01,6.00e-02,
736,2.60e-01,1.20e-01,
737,3.20e-01,6.00e-02,
738,2.80e-01,8.00e-02,
739,3.40e-01,1.20e-01,
740,2.80e-01,8.00e-02,
741,3.60e-01,1.40e-01,
742,3.00e-01,8.00e-02,
743,3.80e-01,1.20e-01,
744,3.20e-01,8.00e-02,
745,4.00e-01,1.20e-01,
746,3.40e-01,8.00e-02,
747,4.00e-01,1.40e-01,
748,3.60e-01,8.00e-02,
749,4.20e-01,1.40e-01,
750,3.60e-01,8.00e-02,
751,4.20e-01,1.40e-01,
752,3.60e-01,8.00e-02,
753,4.20e-01,1.40e-01,
754,4.00e-01,1.40e-01,
755,3.40e-01,8.00e-02,
756,3.80e-01,8.00e-02,
757,3.20e-01,1.40e-01,
758,3.80e-01,1.40e-01,
759,3.00e-01,8.00e-02,
760,3.60e-01,1.00e-01,
761,2.80e-01,1.40e-01,
762,3.40e-01,1.00e-01,
763,2.60e-01,1.40e-01,
764,3.20e-01,1.00e-01,
765,2.40e-01,1.40e-01,
766,2.80e-01,1.40e-01,
767,2.00e-01,1.00e-01,
768,2.60e-01,1.00e-01,
769,1.80e-01,1.40e-01,
770,2.40e-01,1.00e-01,
771,1.80e-01,1.60e-01,
772,2.20e-01,1.60e-01,
773,1.60e-01,1.00e-01,
774,2.00e-01,1.00e-01,
775,1.40e-01,1.60e-01,
776,2.00e-01,1.00e-01,
777,1.40e-01,1.60e-01,
778,1.80e-01,1.00e-01,
779,1.20e-01,1.60e-01,
780,1.80e-01,1.60e-01,
781,1.20e-01,1.00e-01,
782,1.20e-01,1.60e-01,
783,1.80e-01,1.00e-01,
784,1.60e-01,1.00e-01,
785,1.00e-01,1.60e-01,
786,1.60e-01,1.20e-01,
787,1.00e-01,1.60e-01,
788,1.00e-01,1.60e-01,
789,1.60e-01,1.00e-01,
790,1.60e-01,1.60e-01,
791,1.00e-01,1.00e-01,
792,1.00e-01,1.60e-01,
793,1.60e-01,1.20e-01,
794,1.60e-01,1.20e-01,
795,1.00e-01,1.60e-01,
796,1.60e-01,1.20e-01,
797,1.00e-01,1.80e-01,
798,1.60e-01,1.20e-01,
799,1.00e-01,1.80e-01,
800,1.00e-01,1.20e-01,
801,1.80e-01,1.80e-01,
802,1.80e-01,1.20e-01,
803,1.20e-01,1.80e-01,
804,1.20e-01,1.20e-01,
805,2.00e-01,1.80e-01,
806,1.40e-01,1.20e-01,
807,2.00e-01,1.80e-01,
808,2.00e-01,1.20e-01,
809,1.40e-01,1.80e-01,
810,2.20e-01,1.20e-01,
811,1.60e-01,1.80e-01,
812,1.80e-01,1.80e-01,
813,2.40e-01,1.20e-01,
814,1.80e-01,1.80e-01,
815,2.60e-01,1.20e-01,
