Optical Pumping/Data/DRcoil2RfAb1at59.4.csv

X,CH1,CH2,Start,Increment,
Sequence,Volt,Volt,-3.000000e-02,5.000000e-05
0,-6.00e-03,-3.20e-02,
1,-6.00e-03,-3.20e-02,
2,-6.80e-03,-4.00e-02,
3,-6.80e-03,-4.00e-02,
4,-7.20e-03,-5.60e-02,
5,-7.20e-03,-5.60e-02,
6,-8.00e-03,-6.40e-02,
7,-8.00e-03,-6.40e-02,
8,-8.80e-03,-8.00e-02,
9,-8.80e-03,-8.00e-02,
10,-9.20e-03,-8.80e-02,
11,-9.20e-03,-8.80e-02,
12,-1.00e-02,-1.04e-01,
13,-1.00e-02,-1.04e-01,
14,-1.08e-02,-1.12e-01,
15,-1.08e-02,-1.12e-01,
16,-1.12e-02,-1.28e-01,
17,-1.12e-02,-1.28e-01,
18,-1.12e-02,-1.36e-01,
19,-1.12e-02,-1.36e-01,
20,-1.16e-02,-1.52e-01,
21,-1.16e-02,-1.52e-01,
22,-1.20e-02,-1.60e-01,
23,-1.20e-02,-1.60e-01,
24,-1.20e-02,-1.76e-01,
25,-1.20e-02,-1.76e-01,
26,-1.20e-02,-1.84e-01,
27,-1.20e-02,-1.84e-01,
28,-1.16e-02,-2.00e-01,
29,-1.16e-02,-2.00e-01,
30,-1.12e-02,-2.08e-01,
31,-1.12e-02,-2.08e-01,
32,-1.08e-02,-2.16e-01,
33,-1.08e-02,-2.16e-01,
34,-1.00e-02,-2.24e-01,
35,-1.00e-02,-2.24e-01,
36,-9.20e-03,-2.40e-01,
37,-9.20e-03,-2.40e-01,
38,-8.80e-03,-2.48e-01,
39,-8.80e-03,-2.48e-01,
40,-8.00e-03,-2.56e-01,
41,-8.00e-03,-2.56e-01,
42,-7.20e-03,-2.64e-01,
43,-7.20e-03,-2.64e-01,
44,-6.40e-03,-2.72e-01,
45,-6.40e-03,-2.72e-01,
46,-5.60e-03,-2.80e-01,
47,-5.60e-03,-2.80e-01,
48,-4.40e-03,-2.88e-01,
49,-4.40e-03,-2.88e-01,
50,-3.60e-03,-3.04e-01,
51,-3.60e-03,-3.04e-01,
52,-2.40e-03,-3.12e-01,
53,-2.40e-03,-3.12e-01,
54,-2.00e-03,-3.20e-01,
55,-2.00e-03,-3.20e-01,
56,-1.20e-03,-3.20e-01,
57,-1.20e-03,-3.20e-01,
58,-4.00e-04,-3.28e-01,
59,-4.00e-04,-3.28e-01,
60,0.00e+00,-3.36e-01,
61,0.00e+00,-3.36e-01,
62,8.00e-04,-3.44e-01,
63,8.00e-04,-3.44e-01,
64,1.20e-03,-3.44e-01,
65,1.20e-03,-3.44e-01,
66,2.00e-03,-3.52e-01,
67,2.00e-03,-3.52e-01,
68,2.40e-03,-3.60e-01,
69,2.40e-03,-3.60e-01,
70,2.80e-03,-3.68e-01,
71,2.80e-03,-3.68e-01,
72,3.20e-03,-3.68e-01,
73,3.20e-03,-3.68e-01,
74,3.60e-03,-3.76e-01,
75,3.60e-03,-3.76e-01,
76,4.00e-03,-3.76e-01,
77,4.00e-03,-3.76e-01,
78,4.40e-03,-3.76e-01,
79,4.40e-03,-3.76e-01,
80,4.80e-03,-3.84e-01,
81,4.80e-03,-3.84e-01,
82,5.20e-03,-3.84e-01,
83,5.20e-03,-3.84e-01,
84,5.20e-03,-3.84e-01,
85,5.20e-03,-3.84e-01,
86,5.60e-03,-3.84e-01,
87,5.60e-03,-3.84e-01,
88,6.00e-03,-3.92e-01,
89,6.00e-03,-3.92e-01,
90,6.40e-03,-3.92e-01,
91,6.40e-03,-3.92e-01,
92,6.40e-03,-3.92e-01,
93,6.40e-03,-3.92e-01,
94,6.40e-03,-3.92e-01,
95,6.40e-03,-3.92e-01,
96,6.80e-03,-4.00e-01,
97,6.80e-03,-4.00e-01,
98,6.80e-03,-3.92e-01,
99,6.80e-03,-3.92e-01,
100,6.80e-03,-3.92e-01,
101,6.80e-03,-3.92e-01,
102,6.80e-03,-3.92e-01,
103,6.80e-03,-3.92e-01,
104,6.80e-03,-3.92e-01,
105,6.80e-03,-3.92e-01,
106,7.20e-03,-3.92e-01,
107,7.20e-03,-3.92e-01,
108,7.20e-03,-3.92e-01,
109,7.20e-03,-3.92e-01,
110,7.20e-03,-3.84e-01,
111,7.20e-03,-3.84e-01,
112,7.20e-03,-3.84e-01,
113,7.20e-03,-3.84e-01,
114,7.20e-03,-3.84e-01,
115,7.20e-03,-3.84e-01,
116,7.60e-03,-3.76e-01,
117,7.60e-03,-3.76e-01,
118,7.20e-03,-3.68e-01,
119,7.20e-03,-3.68e-01,
120,7.20e-03,-3.68e-01,
121,7.20e-03,-3.68e-01,
122,6.80e-03,-3.60e-01,
123,6.80e-03,-3.60e-01,
124,6.80e-03,-3.60e-01,
125,6.80e-03,-3.60e-01,
126,6.80e-03,-3.52e-01,
127,6.80e-03,-3.52e-01,
128,7.20e-03,-3.44e-01,
129,7.20e-03,-3.44e-01,
130,7.20e-03,-3.36e-01,
131,7.20e-03,-3.36e-01,
132,6.80e-03,-3.36e-01,
133,6.80e-03,-3.36e-01,
134,6.80e-03,-3.20e-01,
135,6.80e-03,-3.20e-01,
136,6.80e-03,-3.20e-01,
137,6.80e-03,-3.20e-01,
138,6.80e-03,-3.12e-01,
139,6.80e-03,-3.12e-01,
140,6.80e-03,-3.04e-01,
141,6.80e-03,-3.04e-01,
142,6.40e-03,-2.96e-01,
143,6.40e-03,-2.96e-01,
144,6.40e-03,-2.88e-01,
145,6.40e-03,-2.88e-01,
146,6.40e-03,-2.80e-01,
147,6.40e-03,-2.80e-01,
148,6.00e-03,-2.72e-01,
149,6.00e-03,-2.72e-01,
150,6.40e-03,-2.64e-01,
151,6.40e-03,-2.64e-01,
152,6.00e-03,-2.48e-01,
153,6.00e-03,-2.48e-01,
154,6.00e-03,-2.48e-01,
155,6.00e-03,-2.48e-01,
156,6.00e-03,-2.32e-01,
157,6.00e-03,-2.32e-01,
158,5.60e-03,-2.24e-01,
159,5.60e-03,-2.24e-01,
160,5.60e-03,-2.16e-01,
161,5.60e-03,-2.16e-01,
162,5.20e-03,-2.00e-01,
163,5.20e-03,-2.00e-01,
164,5.20e-03,-1.92e-01,
165,5.20e-03,-1.92e-01,
166,4.80e-03,-1.84e-01,
167,4.80e-03,-1.84e-01,
168,4.40e-03,-1.68e-01,
169,4.40e-03,-1.68e-01,
170,4.40e-03,-1.52e-01,
171,4.40e-03,-1.52e-01,
172,4.40e-03,-1.44e-01,
173,4.40e-03,-1.44e-01,
174,4.00e-03,-1.44e-01,
175,4.00e-03,-1.44e-01,
176,4.00e-03,-1.20e-01,
177,4.00e-03,-1.20e-01,
178,3.60e-03,-1.12e-01,
179,3.60e-03,-1.12e-01,
180,3.20e-03,-1.04e-01,
181,3.20e-03,-1.04e-01,
182,2.80e-03,-8.80e-02,
183,2.80e-03,-8.80e-02,
184,2.40e-03,-8.00e-02,
185,2.40e-03,-8.00e-02,
186,2.00e-03,-7.20e-02,
187,2.00e-03,-7.20e-02,
188,1.20e-03,-4.80e-02,
189,1.20e-03,-4.80e-02,
190,1.20e-03,-4.80e-02,
191,1.20e-03,-4.80e-02,
192,8.00e-04,-3.20e-02,
193,8.00e-04,-3.20e-02,
194,4.00e-04,-2.40e-02,
195,4.00e-04,-2.40e-02,
196,0.00e+00,-8.00e-03,
197,0.00e+00,-8.00e-03,
198,-4.00e-04,8.00e-03,
199,-4.00e-04,8.00e-03,
200,-1.20e-03,2.40e-02,
201,-1.20e-03,2.40e-02,
202,-1.60e-03,3.20e-02,
203,-1.60e-03,3.20e-02,
204,-2.00e-03,4.00e-02,
205,-2.00e-03,4.00e-02,
206,-2.80e-03,5.60e-02,
207,-2.80e-03,5.60e-02,
208,-3.60e-03,6.40e-02,
209,-3.60e-03,6.40e-02,
210,-4.40e-03,8.00e-02,
211,-4.40e-03,8.00e-02,
212,-5.20e-03,8.80e-02,
213,-5.20e-03,8.80e-02,
214,-5.60e-03,1.04e-01,
215,-5.60e-03,1.04e-01,
216,-6.40e-03,1.12e-01,
217,-6.40e-03,1.12e-01,
218,-7.20e-03,1.28e-01,
219,-7.20e-03,1.28e-01,
220,-8.00e-03,1.28e-01,
221,-8.00e-03,1.28e-01,
222,-8.80e-03,1.44e-01,
223,-8.80e-03,1.44e-01,
224,-9.60e-03,1.52e-01,
225,-9.60e-03,1.52e-01,
226,-1.08e-02,1.68e-01,
227,-1.08e-02,1.68e-01,
228,-1.12e-02,1.76e-01,
229,-1.12e-02,1.76e-01,
230,-1.20e-02,1.84e-01,
231,-1.20e-02,1.84e-01,
232,-1.24e-02,2.00e-01,
233,-1.24e-02,2.00e-01,
234,-1.32e-02,2.08e-01,
235,-1.32e-02,2.08e-01,
236,-1.36e-02,2.16e-01,
237,-1.36e-02,2.16e-01,
238,-1.40e-02,2.24e-01,
239,-1.40e-02,2.24e-01,
240,-1.40e-02,2.32e-01,
241,-1.40e-02,2.32e-01,
242,-1.44e-02,2.40e-01,
243,-1.44e-02,2.40e-01,
244,-1.40e-02,2.56e-01,
245,-1.40e-02,2.56e-01,
246,-1.36e-02,2.64e-01,
247,-1.36e-02,2.64e-01,
248,-1.36e-02,2.72e-01,
249,-1.36e-02,2.72e-01,
250,-1.28e-02,2.88e-01,
251,-1.28e-02,2.88e-01,
252,-1.24e-02,2.88e-01,
253,-1.24e-02,2.88e-01,
254,-1.16e-02,2.96e-01,
255,-1.16e-02,2.96e-01,
256,-1.08e-02,2.96e-01,
257,-1.08e-02,2.96e-01,
258,-1.04e-02,3.04e-01,
259,-1.04e-02,3.04e-01,
260,-9.20e-03,3.12e-01,
261,-9.20e-03,3.12e-01,
262,-8.80e-03,3.20e-01,
263,-8.80e-03,3.20e-01,
264,-7.60e-03,3.28e-01,
265,-7.60e-03,3.28e-01,
266,-6.80e-03,3.36e-01,
267,-6.80e-03,3.36e-01,
268,-6.00e-03,3.36e-01,
269,-6.00e-03,3.36e-01,
270,-4.80e-03,3.44e-01,
271,-4.80e-03,3.44e-01,
272,-4.40e-03,3.44e-01,
273,-4.40e-03,3.44e-01,
274,-3.60e-03,3.52e-01,
275,-3.60e-03,3.52e-01,
276,-3.20e-03,3.60e-01,
277,-3.20e-03,3.60e-01,
278,-2.00e-03,3.68e-01,
279,-2.00e-03,3.68e-01,
280,-1.60e-03,3.60e-01,
281,-1.60e-03,3.60e-01,
282,-8.00e-04,3.68e-01,
283,-8.00e-04,3.68e-01,
284,-4.00e-04,3.68e-01,
285,-4.00e-04,3.68e-01,
286,4.00e-04,3.68e-01,
287,4.00e-04,3.68e-01,
288,8.00e-04,3.68e-01,
289,8.00e-04,3.68e-01,
290,1.60e-03,3.76e-01,
291,1.60e-03,3.76e-01,
292,2.00e-03,3.76e-01,
293,2.00e-03,3.76e-01,
294,2.00e-03,3.76e-01,
295,2.00e-03,3.76e-01,
296,2.40e-03,3.76e-01,
297,2.40e-03,3.76e-01,
298,2.80e-03,3.76e-01,
299,2.80e-03,3.76e-01,
300,3.20e-03,3.76e-01,
301,3.20e-03,3.76e-01,
302,3.60e-03,3.76e-01,
303,3.60e-03,3.76e-01,
304,3.60e-03,3.68e-01,
305,3.60e-03,3.68e-01,
306,4.00e-03,3.68e-01,
307,4.00e-03,3.68e-01,
308,4.00e-03,3.68e-01,
309,4.00e-03,3.68e-01,
310,4.40e-03,3.68e-01,
311,4.40e-03,3.68e-01,
312,4.40e-03,3.60e-01,
313,4.40e-03,3.60e-01,
314,4.80e-03,3.60e-01,
315,4.80e-03,3.60e-01,
316,4.80e-03,3.60e-01,
317,4.80e-03,3.60e-01,
318,4.80e-03,3.52e-01,
319,4.80e-03,3.52e-01,
320,5.20e-03,3.52e-01,
321,5.20e-03,3.52e-01,
322,4.80e-03,3.44e-01,
323,4.80e-03,3.44e-01,
324,5.20e-03,3.44e-01,
325,5.20e-03,3.44e-01,
326,5.20e-03,3.36e-01,
327,5.20e-03,3.36e-01,
328,4.80e-03,3.28e-01,
329,4.80e-03,3.28e-01,
330,5.60e-03,3.28e-01,
331,5.60e-03,3.28e-01,
332,4.80e-03,3.20e-01,
333,4.80e-03,3.20e-01,
334,5.20e-03,3.04e-01,
335,5.20e-03,3.04e-01,
336,4.80e-03,3.04e-01,
337,4.80e-03,3.04e-01,
338,4.80e-03,3.04e-01,
339,4.80e-03,3.04e-01,
340,4.80e-03,2.88e-01,
341,4.80e-03,2.88e-01,
342,4.80e-03,2.80e-01,
343,4.80e-03,2.80e-01,
344,4.80e-03,2.72e-01,
345,4.80e-03,2.72e-01,
346,4.80e-03,2.64e-01,
347,4.80e-03,2.64e-01,
348,4.80e-03,2.56e-01,
349,4.80e-03,2.56e-01,
350,4.40e-03,2.48e-01,
351,4.40e-03,2.48e-01,
352,4.00e-03,2.32e-01,
353,4.00e-03,2.32e-01,
354,4.00e-03,2.24e-01,
355,4.00e-03,2.24e-01,
356,4.00e-03,2.24e-01,
357,4.00e-03,2.24e-01,
358,3.60e-03,2.08e-01,
359,3.60e-03,2.08e-01,
360,3.20e-03,2.00e-01,
361,3.20e-03,2.00e-01,
362,2.80e-03,1.92e-01,
363,2.80e-03,1.92e-01,
364,2.80e-03,1.76e-01,
365,2.80e-03,1.76e-01,
366,2.40e-03,1.68e-01,
367,2.40e-03,1.68e-01,
368,2.40e-03,1.60e-01,
369,2.40e-03,1.60e-01,
370,1.60e-03,1.52e-01,
371,1.60e-03,1.52e-01,
372,1.60e-03,1.36e-01,
373,1.60e-03,1.36e-01,
374,1.20e-03,1.20e-01,
375,1.20e-03,1.20e-01,
376,8.00e-04,1.20e-01,
377,8.00e-04,1.20e-01,
378,4.00e-04,1.04e-01,
379,4.00e-04,1.04e-01,
380,0.00e+00,8.80e-02,
381,0.00e+00,8.80e-02,
382,-4.00e-04,8.00e-02,
383,-4.00e-04,8.00e-02,
384,-1.20e-03,6.40e-02,
385,-1.20e-03,6.40e-02,
386,-1.60e-03,5.60e-02,
387,-1.60e-03,5.60e-02,
388,-2.00e-03,4.00e-02,
389,-2.00e-03,4.00e-02,
390,-2.80e-03,2.40e-02,
391,-2.80e-03,2.40e-02,
392,-3.20e-03,1.60e-02,
393,-3.20e-03,1.60e-02,
394,-3.60e-03,8.00e-03,
395,-3.60e-03,8.00e-03,
396,-4.40e-03,-1.60e-02,
397,-4.40e-03,-1.60e-02,
398,-5.20e-03,-2.40e-02,
399,-5.20e-03,-2.40e-02,
400,-6.00e-03,-3.20e-02,
401,-6.00e-03,-3.20e-02,
402,-6.80e-03,-4.80e-02,
403,-6.80e-03,-4.80e-02,
404,-7.20e-03,-5.60e-02,
405,-7.20e-03,-5.60e-02,
406,-8.40e-03,-6.40e-02,
407,-8.40e-03,-6.40e-02,
408,-8.80e-03,-8.00e-02,
409,-8.80e-03,-8.00e-02,
410,-9.60e-03,-8.80e-02,
411,-9.60e-03,-8.80e-02,
412,-1.00e-02,-1.04e-01,
413,-1.00e-02,-1.04e-01,
414,-1.08e-02,-1.12e-01,
415,-1.08e-02,-1.12e-01,
416,-1.12e-02,-1.28e-01,
417,-1.12e-02,-1.28e-01,
418,-1.16e-02,-1.36e-01,
419,-1.16e-02,-1.36e-01,
420,-1.12e-02,-1.52e-01,
421,-1.12e-02,-1.52e-01,
422,-1.16e-02,-1.60e-01,
423,-1.16e-02,-1.60e-01,
424,-1.20e-02,-1.68e-01,
425,-1.20e-02,-1.68e-01,
426,-1.16e-02,-1.84e-01,
427,-1.16e-02,-1.84e-01,
428,-1.12e-02,-1.92e-01,
429,-1.12e-02,-1.92e-01,
430,-1.08e-02,-2.08e-01,
431,-1.08e-02,-2.08e-01,
432,-1.04e-02,-2.16e-01,
433,-1.04e-02,-2.16e-01,
434,-1.00e-02,-2.24e-01,
435,-1.00e-02,-2.24e-01,
436,-9.20e-03,-2.32e-01,
437,-9.20e-03,-2.32e-01,
438,-8.40e-03,-2.48e-01,
439,-8.40e-03,-2.48e-01,
440,-7.60e-03,-2.56e-01,
441,-7.60e-03,-2.56e-01,
442,-6.80e-03,-2.64e-01,
443,-6.80e-03,-2.64e-01,
444,-6.40e-03,-2.72e-01,
445,-6.40e-03,-2.72e-01,
446,-5.20e-03,-2.80e-01,
447,-5.20e-03,-2.80e-01,
448,-4.40e-03,-2.88e-01,
449,-4.40e-03,-2.88e-01,
450,-3.60e-03,-2.96e-01,
451,-3.60e-03,-2.96e-01,
452,-2.80e-03,-3.04e-01,
453,-2.80e-03,-3.04e-01,
454,-2.00e-03,-3.12e-01,
455,-2.00e-03,-3.12e-01,
456,-1.60e-03,-3.20e-01,
457,-1.60e-03,-3.20e-01,
458,-4.00e-04,-3.28e-01,
459,-4.00e-04,-3.28e-01,
460,4.00e-04,-3.36e-01,
461,4.00e-04,-3.36e-01,
462,8.00e-04,-3.36e-01,
463,8.00e-04,-3.36e-01,
464,1.60e-03,-3.44e-01,
465,1.60e-03,-3.44e-01,
466,2.00e-03,-3.52e-01,
467,2.00e-03,-3.52e-01,
468,2.40e-03,-3.60e-01,
469,2.40e-03,-3.60e-01,
470,2.80e-03,-3.60e-01,
471,2.80e-03,-3.60e-01,
472,3.20e-03,-3.60e-01,
473,3.20e-03,-3.60e-01,
474,4.00e-03,-3.68e-01,
475,4.00e-03,-3.68e-01,
476,4.00e-03,-3.76e-01,
477,4.00e-03,-3.76e-01,
478,4.40e-03,-3.76e-01,
479,4.40e-03,-3.76e-01,
480,4.80e-03,-3.76e-01,
481,4.80e-03,-3.76e-01,
482,5.20e-03,-3.84e-01,
483,5.20e-03,-3.84e-01,
484,5.20e-03,-3.84e-01,
485,5.20e-03,-3.84e-01,
486,5.60e-03,-3.84e-01,
487,5.60e-03,-3.84e-01,
488,6.00e-03,-3.84e-01,
489,6.00e-03,-3.84e-01,
490,6.40e-03,-3.92e-01,
491,6.40e-03,-3.92e-01,
492,6.40e-03,-3.92e-01,
493,6.40e-03,-3.92e-01,
494,6.40e-03,-3.92e-01,
495,6.40e-03,-3.92e-01,
496,6.40e-03,-3.92e-01,
497,6.40e-03,-3.92e-01,
498,6.80e-03,-3.92e-01,
499,6.80e-03,-3.92e-01,
500,6.80e-03,-3.92e-01,
501,6.80e-03,-3.92e-01,
502,7.20e-03,-3.84e-01,
503,7.20e-03,-3.84e-01,
504,6.80e-03,-3.84e-01,
505,6.80e-03,-3.84e-01,
506,6.80e-03,-3.92e-01,
507,6.80e-03,-3.92e-01,
508,7.20e-03,-3.84e-01,
509,7.20e-03,-3.84e-01,
510,7.20e-03,-3.84e-01,
511,7.20e-03,-3.84e-01,
512,7.20e-03,-3.76e-01,
513,7.20e-03,-3.76e-01,
514,7.20e-03,-3.84e-01,
515,7.20e-03,-3.84e-01,
516,7.20e-03,-3.76e-01,
517,7.20e-03,-3.76e-01,
518,6.80e-03,-3.76e-01,
519,6.80e-03,-3.76e-01,
520,7.20e-03,-3.60e-01,
521,7.20e-03,-3.60e-01,
522,7.20e-03,-3.60e-01,
523,7.20e-03,-3.60e-01,
524,7.20e-03,-3.52e-01,
525,7.20e-03,-3.52e-01,
526,7.20e-03,-3.52e-01,
527,7.20e-03,-3.52e-01,
528,6.80e-03,-3.44e-01,
529,6.80e-03,-3.44e-01,
530,7.20e-03,-3.36e-01,
531,7.20e-03,-3.36e-01,
532,6.80e-03,-3.28e-01,
533,6.80e-03,-3.28e-01,
534,6.80e-03,-3.20e-01,
535,6.80e-03,-3.20e-01,
536,6.80e-03,-3.20e-01,
537,6.80e-03,-3.20e-01,
538,6.80e-03,-3.12e-01,
539,6.80e-03,-3.12e-01,
540,6.80e-03,-3.04e-01,
541,6.80e-03,-3.04e-01,
542,6.40e-03,-2.96e-01,
543,6.40e-03,-2.96e-01,
544,6.40e-03,-2.88e-01,
545,6.40e-03,-2.88e-01,
546,6.40e-03,-2.80e-01,
547,6.40e-03,-2.80e-01,
548,6.40e-03,-2.64e-01,
549,6.40e-03,-2.64e-01,
550,6.00e-03,-2.64e-01,
551,6.00e-03,-2.64e-01,
552,6.40e-03,-2.48e-01,
553,6.40e-03,-2.48e-01,
554,6.00e-03,-2.40e-01,
555,6.00e-03,-2.40e-01,
556,5.60e-03,-2.24e-01,
557,5.60e-03,-2.24e-01,
558,5.60e-03,-2.24e-01,
559,5.60e-03,-2.24e-01,
560,5.60e-03,-2.16e-01,
561,5.60e-03,-2.16e-01,
562,5.20e-03,-2.00e-01,
563,5.20e-03,-2.00e-01,
564,5.20e-03,-1.92e-01,
565,5.20e-03,-1.92e-01,
566,4.80e-03,-1.84e-01,
567,4.80e-03,-1.84e-01,
568,4.80e-03,-1.68e-01,
569,4.80e-03,-1.68e-01,
570,4.40e-03,-1.52e-01,
571,4.40e-03,-1.52e-01,
572,4.40e-03,-1.44e-01,
573,4.40e-03,-1.44e-01,
574,4.00e-03,-1.28e-01,
575,4.00e-03,-1.28e-01,
576,3.60e-03,-1.20e-01,
577,3.60e-03,-1.20e-01,
578,3.60e-03,-1.20e-01,
579,3.60e-03,-1.20e-01,
580,3.20e-03,-1.04e-01,
581,3.20e-03,-1.04e-01,
582,2.80e-03,-8.80e-02,
583,2.80e-03,-8.80e-02,
584,2.40e-03,-8.00e-02,
585,2.40e-03,-8.00e-02,
586,2.40e-03,-6.40e-02,
587,2.40e-03,-6.40e-02,
588,1.60e-03,-5.60e-02,
589,1.60e-03,-5.60e-02,
590,1.20e-03,-4.00e-02,
591,1.20e-03,-4.00e-02,
592,8.00e-04,-2.40e-02,
593,8.00e-04,-2.40e-02,
594,4.00e-04,-1.60e-02,
595,4.00e-04,-1.60e-02,
596,0.00e+00,-8.00e-03,
597,0.00e+00,-8.00e-03,
598,-8.00e-04,8.00e-03,
599,-8.00e-04,8.00e-03,
600,-8.00e-04,2.40e-02,
601,-8.00e-04,2.40e-02,
602,-2.00e-03,2.40e-02,
603,-2.00e-03,2.40e-02,
604,-2.40e-03,4.00e-02,
605,-2.40e-03,4.00e-02,
606,-2.80e-03,5.60e-02,
607,-2.80e-03,5.60e-02,
608,-3.60e-03,6.40e-02,
609,-3.60e-03,6.40e-02,
610,-4.40e-03,8.00e-02,
611,-4.40e-03,8.00e-02,
612,-4.80e-03,8.80e-02,
613,-4.80e-03,8.80e-02,
614,-5.60e-03,9.60e-02,
615,-5.60e-03,9.60e-02,
616,-6.40e-03,1.12e-01,
617,-6.40e-03,1.12e-01,
618,-7.20e-03,1.28e-01,
619,-7.20e-03,1.28e-01,
620,-8.40e-03,1.28e-01,
621,-8.40e-03,1.28e-01,
622,-8.80e-03,1.36e-01,
623,-8.80e-03,1.36e-01,
624,-1.00e-02,1.60e-01,
625,-1.00e-02,1.60e-01,
626,-1.04e-02,1.68e-01,
627,-1.04e-02,1.68e-01,
628,-1.16e-02,1.76e-01,
629,-1.16e-02,1.76e-01,
630,-1.20e-02,1.92e-01,
631,-1.20e-02,1.92e-01,
632,-1.24e-02,2.00e-01,
633,-1.24e-02,2.00e-01,
634,-1.32e-02,2.16e-01,
635,-1.32e-02,2.16e-01,
636,-1.36e-02,2.24e-01,
637,-1.36e-02,2.24e-01,
638,-1.40e-02,2.24e-01,
639,-1.40e-02,2.24e-01,
640,-1.40e-02,2.40e-01,
641,-1.40e-02,2.40e-01,
642,-1.40e-02,2.48e-01,
643,-1.40e-02,2.48e-01,
644,-1.40e-02,2.56e-01,
645,-1.40e-02,2.56e-01,
646,-1.40e-02,2.64e-01,
647,-1.40e-02,2.64e-01,
648,-1.32e-02,2.72e-01,
649,-1.32e-02,2.72e-01,
650,-1.28e-02,2.80e-01,
651,-1.28e-02,2.80e-01,
652,-1.24e-02,2.88e-01,
653,-1.24e-02,2.88e-01,
654,-1.20e-02,2.96e-01,
655,-1.20e-02,2.96e-01,
656,-1.12e-02,3.04e-01,
657,-1.12e-02,3.04e-01,
658,-1.04e-02,3.04e-01,
659,-1.04e-02,3.04e-01,
660,-9.20e-03,3.20e-01,
661,-9.20e-03,3.20e-01,
662,-8.40e-03,3.20e-01,
663,-8.40e-03,3.20e-01,
664,-8.00e-03,3.28e-01,
665,-8.00e-03,3.28e-01,
666,-6.80e-03,3.36e-01,
667,-6.80e-03,3.36e-01,
668,-6.00e-03,3.36e-01,
669,-6.00e-03,3.36e-01,
670,-5.20e-03,3.44e-01,
671,-5.20e-03,3.44e-01,
672,-4.40e-03,3.52e-01,
673,-4.40e-03,3.52e-01,
674,-3.60e-03,3.52e-01,
675,-3.60e-03,3.52e-01,
676,-3.20e-03,3.60e-01,
677,-3.20e-03,3.60e-01,
678,-2.40e-03,3.60e-01,
679,-2.40e-03,3.60e-01,
680,-1.60e-03,3.60e-01,
681,-1.60e-03,3.60e-01,
682,-8.00e-04,3.68e-01,
683,-8.00e-04,3.68e-01,
684,-4.00e-04,3.76e-01,
685,-4.00e-04,3.76e-01,
686,4.00e-04,3.68e-01,
687,4.00e-04,3.68e-01,
688,8.00e-04,3.76e-01,
689,8.00e-04,3.76e-01,
690,1.20e-03,3.76e-01,
691,1.20e-03,3.76e-01,
692,1.20e-03,3.76e-01,
693,1.20e-03,3.76e-01,
694,2.40e-03,3.76e-01,
695,2.40e-03,3.76e-01,
696,2.40e-03,3.84e-01,
697,2.40e-03,3.84e-01,
698,2.80e-03,3.76e-01,
699,2.80e-03,3.76e-01,
700,2.80e-03,3.76e-01,
701,2.80e-03,3.76e-01,
702,3.20e-03,3.76e-01,
703,3.20e-03,3.76e-01,
704,3.60e-03,3.68e-01,
705,3.60e-03,3.68e-01,
706,4.00e-03,3.68e-01,
707,4.00e-03,3.68e-01,
708,4.00e-03,3.68e-01,
709,4.00e-03,3.68e-01,
710,4.40e-03,3.68e-01,
711,4.40e-03,3.68e-01,
712,4.40e-03,3.60e-01,
713,4.40e-03,3.60e-01,
714,4.40e-03,3.60e-01,
715,4.40e-03,3.60e-01,
716,4.80e-03,3.60e-01,
717,4.80e-03,3.60e-01,
718,4.80e-03,3.60e-01,
719,4.80e-03,3.60e-01,
720,4.80e-03,3.52e-01,
721,4.80e-03,3.52e-01,
722,5.20e-03,3.44e-01,
723,5.20e-03,3.44e-01,
724,5.20e-03,3.44e-01,
725,5.20e-03,3.44e-01,
726,5.60e-03,3.28e-01,
727,5.60e-03,3.28e-01,
728,5.20e-03,3.28e-01,
729,5.20e-03,3.28e-01,
730,5.20e-03,3.28e-01,
731,5.20e-03,3.28e-01,
732,5.20e-03,3.20e-01,
733,5.20e-03,3.20e-01,
734,5.20e-03,3.12e-01,
735,5.20e-03,3.12e-01,
736,5.20e-03,3.12e-01,
737,5.20e-03,3.12e-01,
738,5.20e-03,3.04e-01,
739,5.20e-03,3.04e-01,
740,5.20e-03,2.88e-01,
741,5.20e-03,2.88e-01,
742,4.80e-03,2.88e-01,
743,4.80e-03,2.88e-01,
744,4.80e-03,2.72e-01,
745,4.80e-03,2.72e-01,
746,4.80e-03,2.64e-01,
747,4.80e-03,2.64e-01,
748,4.40e-03,2.56e-01,
749,4.40e-03,2.56e-01,
750,4.40e-03,2.48e-01,
751,4.40e-03,2.48e-01,
752,4.00e-03,2.40e-01,
753,4.00e-03,2.40e-01,
754,4.00e-03,2.32e-01,
755,4.00e-03,2.32e-01,
756,4.00e-03,2.16e-01,
757,4.00e-03,2.16e-01,
758,4.00e-03,2.16e-01,
759,4.00e-03,2.16e-01,
760,3.60e-03,2.08e-01,
761,3.60e-03,2.08e-01,
762,3.20e-03,1.92e-01,
763,3.20e-03,1.92e-01,
764,2.80e-03,1.84e-01,
765,2.80e-03,1.84e-01,
766,2.40e-03,1.68e-01,
767,2.40e-03,1.68e-01,
768,2.00e-03,1.60e-01,
769,2.00e-03,1.60e-01,
770,2.00e-03,1.44e-01,
771,2.00e-03,1.44e-01,
772,1.60e-03,1.36e-01,
773,1.60e-03,1.36e-01,
774,1.20e-03,1.20e-01,
775,1.20e-03,1.20e-01,
776,8.00e-04,1.12e-01,
777,8.00e-04,1.12e-01,
778,4.00e-04,9.60e-02,
779,4.00e-04,9.60e-02,
780,0.00e+00,8.80e-02,
781,0.00e+00,8.80e-02,
782,-4.00e-04,8.00e-02,
783,-4.00e-04,8.00e-02,
784,-8.00e-04,6.40e-02,
785,-8.00e-04,6.40e-02,
786,-1.20e-03,4.80e-02,
787,-1.20e-03,4.80e-02,
788,-2.00e-03,4.80e-02,
789,-2.00e-03,4.80e-02,
790,-2.40e-03,2.40e-02,
791,-2.40e-03,2.40e-02,
792,-3.20e-03,1.60e-02,
793,-3.20e-03,1.60e-02,
794,-3.60e-03,8.00e-03,
795,-3.60e-03,8.00e-03,
796,-4.40e-03,-8.00e-03,
797,-4.40e-03,-8.00e-03,
798,-5.20e-03,-1.60e-02,
799,-5.20e-03,-1.60e-02,
800,-6.00e-03,-3.20e-02,
801,-6.00e-03,-3.20e-02,
802,-6.40e-03,-4.00e-02,
803,-6.40e-03,-4.00e-02,
804,-7.20e-03,-5.60e-02,
805,-7.20e-03,-5.60e-02,
806,-8.00e-03,-6.40e-02,
807,-8.00e-03,-6.40e-02,
808,-8.40e-03,-8.00e-02,
809,-8.40e-03,-8.00e-02,
810,-9.20e-03,-8.80e-02,
811,-9.20e-03,-8.80e-02,
812,-1.00e-02,-1.04e-01,
813,-1.00e-02,-1.04e-01,
814,-1.04e-02,-1.12e-01,
815,-1.04e-02,-1.12e-01,
816,-1.08e-02,-1.28e-01,
817,-1.08e-02,-1.28e-01,
818,-1.12e-02,-1.44e-01,
819,-1.12e-02,-1.44e-01,
820,-1.12e-02,-1.52e-01,
821,-1.12e-02,-1.52e-01,
822,-1.12e-02,-1.60e-01,
823,-1.12e-02,-1.60e-01,
824,-1.16e-02,-1.68e-01,
825,-1.16e-02,-1.68e-01,
826,-1.16e-02,-1.76e-01,
827,-1.16e-02,-1.76e-01,
828,-1.16e-02,-1.92e-01,
829,-1.16e-02,-1.92e-01,
830,-1.08e-02,-2.00e-01,
831,-1.08e-02,-2.00e-01,
832,-1.04e-02,-2.08e-01,
833,-1.04e-02,-2.08e-01,
834,-1.00e-02,-2.24e-01,
835,-1.00e-02,-2.24e-01,
