Optical Pumping/Data/DRcoil2RfAb2at59.8.csv

X,CH1,CH2,Start,Increment,
Sequence,Volt,Volt,-3.000000e-02,5.000000e-05
0,-2.40e-03,-3.20e-02,
1,-2.40e-03,-3.20e-02,
2,-2.40e-03,-4.80e-02,
3,-2.40e-03,-4.80e-02,
4,-2.80e-03,-5.60e-02,
5,-2.80e-03,-5.60e-02,
6,-2.80e-03,-7.20e-02,
7,-2.80e-03,-7.20e-02,
8,-3.20e-03,-8.00e-02,
9,-3.20e-03,-8.00e-02,
10,-3.60e-03,-8.80e-02,
11,-3.60e-03,-8.80e-02,
12,-3.60e-03,-1.04e-01,
13,-3.60e-03,-1.04e-01,
14,-3.60e-03,-1.12e-01,
15,-3.60e-03,-1.12e-01,
16,-4.00e-03,-1.20e-01,
17,-4.00e-03,-1.20e-01,
18,-4.00e-03,-1.36e-01,
19,-4.00e-03,-1.36e-01,
20,-4.00e-03,-1.52e-01,
21,-4.00e-03,-1.52e-01,
22,-4.40e-03,-1.60e-01,
23,-4.40e-03,-1.60e-01,
24,-4.40e-03,-1.68e-01,
25,-4.40e-03,-1.68e-01,
26,-4.40e-03,-1.84e-01,
27,-4.40e-03,-1.84e-01,
28,-4.40e-03,-1.92e-01,
29,-4.40e-03,-1.92e-01,
30,-4.00e-03,-2.08e-01,
31,-4.00e-03,-2.08e-01,
32,-3.60e-03,-2.08e-01,
33,-3.60e-03,-2.08e-01,
34,-3.60e-03,-2.16e-01,
35,-3.60e-03,-2.16e-01,
36,-3.20e-03,-2.32e-01,
37,-3.20e-03,-2.32e-01,
38,-2.80e-03,-2.48e-01,
39,-2.80e-03,-2.48e-01,
40,-2.80e-03,-2.56e-01,
41,-2.80e-03,-2.56e-01,
42,-2.00e-03,-2.64e-01,
43,-2.00e-03,-2.64e-01,
44,-1.60e-03,-2.72e-01,
45,-1.60e-03,-2.72e-01,
46,-1.60e-03,-2.80e-01,
47,-1.60e-03,-2.80e-01,
48,-8.00e-04,-2.88e-01,
49,-8.00e-04,-2.88e-01,
50,-8.00e-04,-2.96e-01,
51,-8.00e-04,-2.96e-01,
52,-4.00e-04,-3.04e-01,
53,-4.00e-04,-3.04e-01,
54,0.00e+00,-3.12e-01,
55,0.00e+00,-3.12e-01,
56,4.00e-04,-3.12e-01,
57,4.00e-04,-3.12e-01,
58,8.00e-04,-3.28e-01,
59,8.00e-04,-3.28e-01,
60,1.20e-03,-3.36e-01,
61,1.20e-03,-3.36e-01,
62,1.20e-03,-3.36e-01,
63,1.20e-03,-3.36e-01,
64,0.00e+00,-3.44e-01,
65,0.00e+00,-3.44e-01,
66,-1.60e-03,-3.52e-01,
67,-1.60e-03,-3.52e-01,
68,-1.20e-03,-3.52e-01,
69,-1.20e-03,-3.52e-01,
70,-8.00e-04,-3.60e-01,
71,-8.00e-04,-3.60e-01,
72,0.00e+00,-3.60e-01,
73,0.00e+00,-3.60e-01,
74,4.00e-04,-3.76e-01,
75,4.00e-04,-3.76e-01,
76,8.00e-04,-3.68e-01,
77,8.00e-04,-3.68e-01,
78,1.20e-03,-3.84e-01,
79,1.20e-03,-3.84e-01,
80,1.60e-03,-3.76e-01,
81,1.60e-03,-3.76e-01,
82,2.00e-03,-3.84e-01,
83,2.00e-03,-3.84e-01,
84,2.40e-03,-3.92e-01,
85,2.40e-03,-3.92e-01,
86,2.40e-03,-3.92e-01,
87,2.40e-03,-3.92e-01,
88,2.40e-03,-3.92e-01,
89,2.40e-03,-3.92e-01,
90,2.80e-03,-3.92e-01,
91,2.80e-03,-3.92e-01,
92,2.80e-03,-3.92e-01,
93,2.80e-03,-3.92e-01,
94,2.80e-03,-3.84e-01,
95,2.80e-03,-3.84e-01,
96,3.20e-03,-3.84e-01,
97,3.20e-03,-3.84e-01,
98,3.20e-03,-3.92e-01,
99,3.20e-03,-3.92e-01,
100,3.20e-03,-3.84e-01,
101,3.20e-03,-3.84e-01,
102,3.20e-03,-3.92e-01,
103,3.20e-03,-3.92e-01,
104,3.20e-03,-3.92e-01,
105,3.20e-03,-3.92e-01,
106,3.20e-03,-3.92e-01,
107,3.20e-03,-3.92e-01,
108,3.20e-03,-3.84e-01,
109,3.20e-03,-3.84e-01,
110,3.20e-03,-3.76e-01,
111,3.20e-03,-3.76e-01,
112,3.20e-03,-3.76e-01,
113,3.20e-03,-3.76e-01,
114,3.20e-03,-3.84e-01,
115,3.20e-03,-3.84e-01,
116,3.20e-03,-3.68e-01,
117,3.20e-03,-3.68e-01,
118,3.20e-03,-3.68e-01,
119,3.20e-03,-3.68e-01,
120,3.20e-03,-3.60e-01,
121,3.20e-03,-3.60e-01,
122,3.20e-03,-3.60e-01,
123,3.20e-03,-3.60e-01,
124,3.20e-03,-3.52e-01,
125,3.20e-03,-3.52e-01,
126,3.60e-03,-3.44e-01,
127,3.60e-03,-3.44e-01,
128,3.20e-03,-3.44e-01,
129,3.20e-03,-3.44e-01,
130,3.20e-03,-3.36e-01,
131,3.20e-03,-3.36e-01,
132,3.20e-03,-3.28e-01,
133,3.20e-03,-3.28e-01,
134,3.20e-03,-3.28e-01,
135,3.20e-03,-3.28e-01,
136,3.20e-03,-3.20e-01,
137,3.20e-03,-3.20e-01,
138,3.20e-03,-3.04e-01,
139,3.20e-03,-3.04e-01,
140,3.20e-03,-3.04e-01,
141,3.20e-03,-3.04e-01,
142,2.80e-03,-2.88e-01,
143,2.80e-03,-2.88e-01,
144,2.80e-03,-2.80e-01,
145,2.80e-03,-2.80e-01,
146,2.80e-03,-2.72e-01,
147,2.80e-03,-2.72e-01,
148,2.80e-03,-2.64e-01,
149,2.80e-03,-2.64e-01,
150,2.80e-03,-2.56e-01,
151,2.80e-03,-2.56e-01,
152,2.80e-03,-2.48e-01,
153,2.80e-03,-2.48e-01,
154,2.80e-03,-2.40e-01,
155,2.80e-03,-2.40e-01,
156,2.40e-03,-2.32e-01,
157,2.40e-03,-2.32e-01,
158,2.40e-03,-2.24e-01,
159,2.40e-03,-2.24e-01,
160,2.40e-03,-2.08e-01,
161,2.40e-03,-2.08e-01,
162,2.40e-03,-2.08e-01,
163,2.40e-03,-2.08e-01,
164,2.40e-03,-1.92e-01,
165,2.40e-03,-1.92e-01,
166,2.00e-03,-1.76e-01,
167,2.00e-03,-1.76e-01,
168,2.00e-03,-1.68e-01,
169,2.00e-03,-1.68e-01,
170,2.00e-03,-1.60e-01,
171,2.00e-03,-1.60e-01,
172,2.00e-03,-1.52e-01,
173,2.00e-03,-1.52e-01,
174,1.60e-03,-1.28e-01,
175,1.60e-03,-1.28e-01,
176,1.60e-03,-1.20e-01,
177,1.60e-03,-1.20e-01,
178,1.60e-03,-1.12e-01,
179,1.60e-03,-1.12e-01,
180,1.20e-03,-9.60e-02,
181,1.20e-03,-9.60e-02,
182,1.20e-03,-8.80e-02,
183,1.20e-03,-8.80e-02,
184,8.00e-04,-8.00e-02,
185,8.00e-04,-8.00e-02,
186,-8.00e-04,-6.40e-02,
187,-8.00e-04,-6.40e-02,
188,-5.60e-03,-4.80e-02,
189,-5.60e-03,-4.80e-02,
190,-4.80e-03,-4.80e-02,
191,-4.80e-03,-4.80e-02,
192,-4.00e-03,-3.20e-02,
193,-4.00e-03,-3.20e-02,
194,-4.00e-03,-1.60e-02,
195,-4.00e-03,-1.60e-02,
196,-3.60e-03,-8.00e-03,
197,-3.60e-03,-8.00e-03,
198,-3.20e-03,8.00e-03,
199,-3.20e-03,8.00e-03,
200,-3.20e-03,1.60e-02,
201,-3.20e-03,1.60e-02,
202,-3.20e-03,3.20e-02,
203,-3.20e-03,3.20e-02,
204,-2.80e-03,4.80e-02,
205,-2.80e-03,4.80e-02,
206,-2.80e-03,5.60e-02,
207,-2.80e-03,5.60e-02,
208,-2.80e-03,7.20e-02,
209,-2.80e-03,7.20e-02,
210,-2.80e-03,8.00e-02,
211,-2.80e-03,8.00e-02,
212,-3.20e-03,8.80e-02,
213,-3.20e-03,8.80e-02,
214,-3.20e-03,9.60e-02,
215,-3.20e-03,9.60e-02,
216,-3.20e-03,1.12e-01,
217,-3.20e-03,1.12e-01,
218,-3.60e-03,1.28e-01,
219,-3.60e-03,1.28e-01,
220,-3.60e-03,1.36e-01,
221,-3.60e-03,1.36e-01,
222,-4.00e-03,1.44e-01,
223,-4.00e-03,1.44e-01,
224,-4.00e-03,1.60e-01,
225,-4.00e-03,1.60e-01,
226,-4.40e-03,1.68e-01,
227,-4.40e-03,1.68e-01,
228,-4.80e-03,1.76e-01,
229,-4.80e-03,1.76e-01,
230,-4.80e-03,1.92e-01,
231,-4.80e-03,1.92e-01,
232,-5.20e-03,2.00e-01,
233,-5.20e-03,2.00e-01,
234,-5.60e-03,2.08e-01,
235,-5.60e-03,2.08e-01,
236,-5.60e-03,2.24e-01,
237,-5.60e-03,2.24e-01,
238,-5.60e-03,2.24e-01,
239,-5.60e-03,2.24e-01,
240,-5.60e-03,2.32e-01,
241,-5.60e-03,2.32e-01,
242,-5.60e-03,2.40e-01,
243,-5.60e-03,2.40e-01,
244,-5.60e-03,2.56e-01,
245,-5.60e-03,2.56e-01,
246,-5.20e-03,2.64e-01,
247,-5.20e-03,2.64e-01,
248,-5.20e-03,2.72e-01,
249,-5.20e-03,2.72e-01,
250,-4.80e-03,2.80e-01,
251,-4.80e-03,2.80e-01,
252,-4.80e-03,2.88e-01,
253,-4.80e-03,2.88e-01,
254,-4.40e-03,2.96e-01,
255,-4.40e-03,2.96e-01,
256,-4.00e-03,2.96e-01,
257,-4.00e-03,2.96e-01,
258,-4.00e-03,3.04e-01,
259,-4.00e-03,3.04e-01,
260,-3.20e-03,3.20e-01,
261,-3.20e-03,3.20e-01,
262,-2.80e-03,3.20e-01,
263,-2.80e-03,3.20e-01,
264,-2.80e-03,3.28e-01,
265,-2.80e-03,3.28e-01,
266,-2.40e-03,3.36e-01,
267,-2.40e-03,3.36e-01,
268,-2.00e-03,3.36e-01,
269,-2.00e-03,3.36e-01,
270,-1.60e-03,3.44e-01,
271,-1.60e-03,3.44e-01,
272,-1.20e-03,3.52e-01,
273,-1.20e-03,3.52e-01,
274,-8.00e-04,3.52e-01,
275,-8.00e-04,3.52e-01,
276,-8.00e-04,3.52e-01,
277,-8.00e-04,3.52e-01,
278,-4.00e-04,3.60e-01,
279,-4.00e-04,3.60e-01,
280,4.00e-04,3.68e-01,
281,4.00e-04,3.68e-01,
282,0.00e+00,3.68e-01,
283,0.00e+00,3.68e-01,
284,4.00e-04,3.68e-01,
285,4.00e-04,3.68e-01,
286,4.00e-04,3.76e-01,
287,4.00e-04,3.76e-01,
288,4.00e-04,3.76e-01,
289,4.00e-04,3.76e-01,
290,-8.00e-04,3.76e-01,
291,-8.00e-04,3.76e-01,
292,-1.60e-03,3.76e-01,
293,-1.60e-03,3.76e-01,
294,-2.40e-03,3.76e-01,
295,-2.40e-03,3.76e-01,
296,-2.40e-03,3.76e-01,
297,-2.40e-03,3.76e-01,
298,-2.40e-03,3.76e-01,
299,-2.40e-03,3.76e-01,
300,-1.60e-03,3.68e-01,
301,-1.60e-03,3.68e-01,
302,-8.00e-04,3.76e-01,
303,-8.00e-04,3.76e-01,
304,-4.00e-04,3.68e-01,
305,-4.00e-04,3.68e-01,
306,0.00e+00,3.76e-01,
307,0.00e+00,3.76e-01,
308,4.00e-04,3.68e-01,
309,4.00e-04,3.68e-01,
310,8.00e-04,3.68e-01,
311,8.00e-04,3.68e-01,
312,1.20e-03,3.60e-01,
313,1.20e-03,3.60e-01,
314,1.20e-03,3.60e-01,
315,1.20e-03,3.60e-01,
316,1.20e-03,3.60e-01,
317,1.20e-03,3.60e-01,
318,1.60e-03,3.52e-01,
319,1.60e-03,3.52e-01,
320,1.60e-03,3.44e-01,
321,1.60e-03,3.44e-01,
322,1.60e-03,3.44e-01,
323,1.60e-03,3.44e-01,
324,1.60e-03,3.44e-01,
325,1.60e-03,3.44e-01,
326,2.00e-03,3.36e-01,
327,2.00e-03,3.36e-01,
328,2.00e-03,3.28e-01,
329,2.00e-03,3.28e-01,
330,2.00e-03,3.28e-01,
331,2.00e-03,3.28e-01,
332,2.00e-03,3.20e-01,
333,2.00e-03,3.20e-01,
334,2.00e-03,3.12e-01,
335,2.00e-03,3.12e-01,
336,2.00e-03,3.04e-01,
337,2.00e-03,3.04e-01,
338,2.00e-03,2.96e-01,
339,2.00e-03,2.96e-01,
340,2.00e-03,2.96e-01,
341,2.00e-03,2.96e-01,
342,2.00e-03,2.88e-01,
343,2.00e-03,2.88e-01,
344,1.60e-03,2.72e-01,
345,1.60e-03,2.72e-01,
346,1.60e-03,2.64e-01,
347,1.60e-03,2.64e-01,
348,2.00e-03,2.56e-01,
349,2.00e-03,2.56e-01,
350,1.60e-03,2.48e-01,
351,1.60e-03,2.48e-01,
352,1.60e-03,2.32e-01,
353,1.60e-03,2.32e-01,
354,1.60e-03,2.32e-01,
355,1.60e-03,2.32e-01,
356,4.00e-04,2.16e-01,
357,4.00e-04,2.16e-01,
358,-8.00e-04,2.16e-01,
359,-8.00e-04,2.16e-01,
360,-2.00e-03,2.00e-01,
361,-2.00e-03,2.00e-01,
362,-3.60e-03,1.92e-01,
363,-3.60e-03,1.92e-01,
364,-4.40e-03,1.76e-01,
365,-4.40e-03,1.76e-01,
366,-3.60e-03,1.68e-01,
367,-3.60e-03,1.68e-01,
368,-2.80e-03,1.60e-01,
369,-2.80e-03,1.60e-01,
370,-2.40e-03,1.44e-01,
371,-2.40e-03,1.44e-01,
372,-2.00e-03,1.36e-01,
373,-2.00e-03,1.36e-01,
374,-2.00e-03,1.28e-01,
375,-2.00e-03,1.28e-01,
376,-1.60e-03,1.12e-01,
377,-1.60e-03,1.12e-01,
378,-1.60e-03,1.04e-01,
379,-1.60e-03,1.04e-01,
380,-1.20e-03,8.80e-02,
381,-1.20e-03,8.80e-02,
382,-1.60e-03,8.00e-02,
383,-1.60e-03,8.00e-02,
384,-1.60e-03,6.40e-02,
385,-1.60e-03,6.40e-02,
386,-1.20e-03,4.80e-02,
387,-1.20e-03,4.80e-02,
388,-1.60e-03,4.80e-02,
389,-1.60e-03,4.80e-02,
390,-1.60e-03,3.20e-02,
391,-1.60e-03,3.20e-02,
392,-1.60e-03,1.60e-02,
393,-1.60e-03,1.60e-02,
394,-2.00e-03,8.00e-03,
395,-2.00e-03,8.00e-03,
396,-2.00e-03,-8.00e-03,
397,-2.00e-03,-8.00e-03,
398,-2.00e-03,-1.60e-02,
399,-2.00e-03,-1.60e-02,
400,-2.00e-03,-3.20e-02,
401,-2.00e-03,-3.20e-02,
402,-2.40e-03,-4.00e-02,
403,-2.40e-03,-4.00e-02,
404,-2.80e-03,-5.60e-02,
405,-2.80e-03,-5.60e-02,
406,-2.80e-03,-6.40e-02,
407,-2.80e-03,-6.40e-02,
408,-3.20e-03,-8.00e-02,
409,-3.20e-03,-8.00e-02,
410,-3.20e-03,-8.80e-02,
411,-3.20e-03,-8.80e-02,
412,-3.60e-03,-1.04e-01,
413,-3.60e-03,-1.04e-01,
414,-4.00e-03,-1.12e-01,
415,-4.00e-03,-1.12e-01,
416,-4.00e-03,-1.20e-01,
417,-4.00e-03,-1.20e-01,
418,-4.40e-03,-1.36e-01,
419,-4.40e-03,-1.36e-01,
420,-4.40e-03,-1.44e-01,
421,-4.40e-03,-1.44e-01,
422,-4.40e-03,-1.60e-01,
423,-4.40e-03,-1.60e-01,
424,-4.40e-03,-1.68e-01,
425,-4.40e-03,-1.68e-01,
426,-4.40e-03,-1.76e-01,
427,-4.40e-03,-1.76e-01,
428,-4.00e-03,-1.92e-01,
429,-4.00e-03,-1.92e-01,
430,-4.00e-03,-2.00e-01,
431,-4.00e-03,-2.00e-01,
432,-4.00e-03,-2.16e-01,
433,-4.00e-03,-2.16e-01,
434,-3.60e-03,-2.24e-01,
435,-3.60e-03,-2.24e-01,
436,-3.20e-03,-2.32e-01,
437,-3.20e-03,-2.32e-01,
438,-2.80e-03,-2.48e-01,
439,-2.80e-03,-2.48e-01,
440,-2.40e-03,-2.48e-01,
441,-2.40e-03,-2.48e-01,
442,-2.40e-03,-2.64e-01,
443,-2.40e-03,-2.64e-01,
444,-1.60e-03,-2.72e-01,
445,-1.60e-03,-2.72e-01,
446,-1.60e-03,-2.80e-01,
447,-1.60e-03,-2.80e-01,
448,-1.20e-03,-2.88e-01,
449,-1.20e-03,-2.88e-01,
450,-8.00e-04,-2.96e-01,
451,-8.00e-04,-2.96e-01,
452,-4.00e-04,-2.96e-01,
453,-4.00e-04,-2.96e-01,
454,0.00e+00,-3.12e-01,
455,0.00e+00,-3.12e-01,
456,4.00e-04,-3.12e-01,
457,4.00e-04,-3.12e-01,
458,8.00e-04,-3.28e-01,
459,8.00e-04,-3.28e-01,
460,8.00e-04,-3.36e-01,
461,8.00e-04,-3.36e-01,
462,8.00e-04,-3.36e-01,
463,8.00e-04,-3.36e-01,
464,-4.00e-04,-3.44e-01,
465,-4.00e-04,-3.44e-01,
466,-1.60e-03,-3.52e-01,
467,-1.60e-03,-3.52e-01,
468,-1.20e-03,-3.52e-01,
469,-1.20e-03,-3.52e-01,
470,-8.00e-04,-3.60e-01,
471,-8.00e-04,-3.60e-01,
472,0.00e+00,-3.60e-01,
473,0.00e+00,-3.60e-01,
474,4.00e-04,-3.68e-01,
475,4.00e-04,-3.68e-01,
476,1.20e-03,-3.68e-01,
477,1.20e-03,-3.68e-01,
478,1.20e-03,-3.76e-01,
479,1.20e-03,-3.76e-01,
480,1.60e-03,-3.76e-01,
481,1.60e-03,-3.76e-01,
482,2.00e-03,-3.76e-01,
483,2.00e-03,-3.76e-01,
484,2.00e-03,-3.84e-01,
485,2.00e-03,-3.84e-01,
486,2.40e-03,-3.84e-01,
487,2.40e-03,-3.84e-01,
488,2.40e-03,-3.84e-01,
489,2.40e-03,-3.84e-01,
490,2.40e-03,-3.92e-01,
491,2.40e-03,-3.92e-01,
492,2.80e-03,-3.92e-01,
493,2.80e-03,-3.92e-01,
494,3.20e-03,-3.92e-01,
495,3.20e-03,-3.92e-01,
496,3.20e-03,-3.84e-01,
497,3.20e-03,-3.84e-01,
498,3.20e-03,-3.92e-01,
499,3.20e-03,-3.92e-01,
500,3.20e-03,-3.92e-01,
501,3.20e-03,-3.92e-01,
502,3.20e-03,-3.84e-01,
503,3.20e-03,-3.84e-01,
504,3.20e-03,-3.92e-01,
505,3.20e-03,-3.92e-01,
506,3.20e-03,-3.84e-01,
507,3.20e-03,-3.84e-01,
508,3.60e-03,-3.76e-01,
509,3.60e-03,-3.76e-01,
510,3.60e-03,-3.76e-01,
511,3.60e-03,-3.76e-01,
512,3.60e-03,-3.76e-01,
513,3.60e-03,-3.76e-01,
514,3.60e-03,-3.76e-01,
515,3.60e-03,-3.76e-01,
516,3.60e-03,-3.68e-01,
517,3.60e-03,-3.68e-01,
518,3.60e-03,-3.68e-01,
519,3.60e-03,-3.68e-01,
520,3.60e-03,-3.60e-01,
521,3.60e-03,-3.60e-01,
522,3.60e-03,-3.60e-01,
523,3.60e-03,-3.60e-01,
524,3.20e-03,-3.52e-01,
525,3.20e-03,-3.52e-01,
526,3.60e-03,-3.44e-01,
527,3.60e-03,-3.44e-01,
528,3.60e-03,-3.44e-01,
529,3.60e-03,-3.44e-01,
530,3.60e-03,-3.28e-01,
531,3.60e-03,-3.28e-01,
532,3.20e-03,-3.28e-01,
533,3.20e-03,-3.28e-01,
534,3.60e-03,-3.28e-01,
535,3.60e-03,-3.28e-01,
536,3.60e-03,-3.20e-01,
537,3.60e-03,-3.20e-01,
538,3.20e-03,-3.12e-01,
539,3.20e-03,-3.12e-01,
540,3.20e-03,-2.96e-01,
541,3.20e-03,-2.96e-01,
542,3.20e-03,-2.88e-01,
543,3.20e-03,-2.88e-01,
544,3.20e-03,-2.80e-01,
545,3.20e-03,-2.80e-01,
546,3.20e-03,-2.72e-01,
547,3.20e-03,-2.72e-01,
548,2.80e-03,-2.64e-01,
549,2.80e-03,-2.64e-01,
550,2.80e-03,-2.56e-01,
551,2.80e-03,-2.56e-01,
552,2.80e-03,-2.48e-01,
553,2.80e-03,-2.48e-01,
554,2.80e-03,-2.40e-01,
555,2.80e-03,-2.40e-01,
556,2.80e-03,-2.32e-01,
557,2.80e-03,-2.32e-01,
558,2.40e-03,-2.24e-01,
559,2.40e-03,-2.24e-01,
560,2.40e-03,-2.08e-01,
561,2.40e-03,-2.08e-01,
562,2.80e-03,-2.00e-01,
563,2.80e-03,-2.00e-01,
564,2.40e-03,-1.84e-01,
565,2.40e-03,-1.84e-01,
566,2.40e-03,-1.76e-01,
567,2.40e-03,-1.76e-01,
568,2.00e-03,-1.68e-01,
569,2.00e-03,-1.68e-01,
570,2.00e-03,-1.60e-01,
571,2.00e-03,-1.60e-01,
572,2.00e-03,-1.44e-01,
573,2.00e-03,-1.44e-01,
574,1.60e-03,-1.28e-01,
575,1.60e-03,-1.28e-01,
576,2.00e-03,-1.28e-01,
577,2.00e-03,-1.28e-01,
578,2.00e-03,-1.12e-01,
579,2.00e-03,-1.12e-01,
580,1.60e-03,-9.60e-02,
581,1.60e-03,-9.60e-02,
582,1.20e-03,-8.80e-02,
583,1.20e-03,-8.80e-02,
584,8.00e-04,-7.20e-02,
585,8.00e-04,-7.20e-02,
586,-8.00e-04,-6.40e-02,
587,-8.00e-04,-6.40e-02,
588,-5.60e-03,-4.80e-02,
589,-5.60e-03,-4.80e-02,
590,-4.80e-03,-4.80e-02,
591,-4.80e-03,-4.80e-02,
592,-4.40e-03,-2.40e-02,
593,-4.40e-03,-2.40e-02,
594,-3.60e-03,-1.60e-02,
595,-3.60e-03,-1.60e-02,
596,-3.20e-03,0.00e+00,
597,-3.20e-03,0.00e+00,
598,-3.20e-03,8.00e-03,
599,-3.20e-03,8.00e-03,
600,-3.20e-03,1.60e-02,
601,-3.20e-03,1.60e-02,
602,-2.80e-03,3.20e-02,
603,-2.80e-03,3.20e-02,
604,-2.80e-03,4.80e-02,
605,-2.80e-03,4.80e-02,
606,-2.80e-03,5.60e-02,
607,-2.80e-03,5.60e-02,
608,-2.80e-03,6.40e-02,
609,-2.80e-03,6.40e-02,
610,-2.80e-03,8.00e-02,
611,-2.80e-03,8.00e-02,
612,-3.20e-03,8.80e-02,
613,-3.20e-03,8.80e-02,
614,-3.20e-03,1.04e-01,
615,-3.20e-03,1.04e-01,
616,-3.60e-03,1.20e-01,
617,-3.60e-03,1.20e-01,
618,-3.60e-03,1.28e-01,
619,-3.60e-03,1.28e-01,
620,-4.00e-03,1.36e-01,
621,-4.00e-03,1.36e-01,
622,-3.60e-03,1.44e-01,
623,-3.60e-03,1.44e-01,
624,-4.40e-03,1.60e-01,
625,-4.40e-03,1.60e-01,
626,-4.40e-03,1.68e-01,
627,-4.40e-03,1.68e-01,
628,-4.40e-03,1.76e-01,
629,-4.40e-03,1.76e-01,
630,-4.80e-03,1.84e-01,
631,-4.80e-03,1.84e-01,
632,-5.20e-03,2.00e-01,
633,-5.20e-03,2.00e-01,
634,-5.20e-03,2.08e-01,
635,-5.20e-03,2.08e-01,
636,-5.60e-03,2.16e-01,
637,-5.60e-03,2.16e-01,
638,-5.20e-03,2.32e-01,
639,-5.20e-03,2.32e-01,
640,-5.60e-03,2.40e-01,
641,-5.60e-03,2.40e-01,
642,-5.60e-03,2.48e-01,
643,-5.60e-03,2.48e-01,
644,-5.60e-03,2.56e-01,
645,-5.60e-03,2.56e-01,
646,-5.20e-03,2.64e-01,
647,-5.20e-03,2.64e-01,
648,-5.20e-03,2.72e-01,
649,-5.20e-03,2.72e-01,
650,-4.80e-03,2.80e-01,
651,-4.80e-03,2.80e-01,
652,-4.80e-03,2.96e-01,
653,-4.80e-03,2.96e-01,
654,-4.40e-03,2.96e-01,
655,-4.40e-03,2.96e-01,
656,-4.00e-03,3.04e-01,
657,-4.00e-03,3.04e-01,
658,-3.60e-03,3.12e-01,
659,-3.60e-03,3.12e-01,
660,-3.20e-03,3.20e-01,
661,-3.20e-03,3.20e-01,
662,-2.80e-03,3.28e-01,
663,-2.80e-03,3.28e-01,
664,-2.40e-03,3.20e-01,
665,-2.40e-03,3.20e-01,
666,-2.40e-03,3.36e-01,
667,-2.40e-03,3.36e-01,
668,-1.60e-03,3.36e-01,
669,-1.60e-03,3.36e-01,
670,-1.20e-03,3.44e-01,
671,-1.20e-03,3.44e-01,
672,-1.20e-03,3.52e-01,
673,-1.20e-03,3.52e-01,
674,-8.00e-04,3.52e-01,
675,-8.00e-04,3.52e-01,
676,-4.00e-04,3.52e-01,
677,-4.00e-04,3.52e-01,
678,0.00e+00,3.68e-01,
679,0.00e+00,3.68e-01,
680,0.00e+00,3.68e-01,
681,0.00e+00,3.68e-01,
682,4.00e-04,3.68e-01,
683,4.00e-04,3.68e-01,
684,8.00e-04,3.68e-01,
685,8.00e-04,3.68e-01,
686,8.00e-04,3.76e-01,
687,8.00e-04,3.76e-01,
688,4.00e-04,3.76e-01,
689,4.00e-04,3.76e-01,
690,-4.00e-04,3.68e-01,
691,-4.00e-04,3.68e-01,
692,-1.60e-03,3.76e-01,
693,-1.60e-03,3.76e-01,
694,-2.00e-03,3.76e-01,
695,-2.00e-03,3.76e-01,
696,-2.40e-03,3.76e-01,
697,-2.40e-03,3.76e-01,
698,-2.00e-03,3.76e-01,
699,-2.00e-03,3.76e-01,
700,-1.20e-03,3.76e-01,
701,-1.20e-03,3.76e-01,
702,-8.00e-04,3.68e-01,
703,-8.00e-04,3.68e-01,
704,-4.00e-04,3.76e-01,
705,-4.00e-04,3.76e-01,
706,0.00e+00,3.68e-01,
707,0.00e+00,3.68e-01,
708,4.00e-04,3.76e-01,
709,4.00e-04,3.76e-01,
710,1.20e-03,3.68e-01,
711,1.20e-03,3.68e-01,
712,1.20e-03,3.68e-01,
713,1.20e-03,3.68e-01,
714,1.20e-03,3.60e-01,
715,1.20e-03,3.60e-01,
716,1.60e-03,3.52e-01,
717,1.60e-03,3.52e-01,
718,1.60e-03,3.52e-01,
719,1.60e-03,3.52e-01,
720,2.00e-03,3.52e-01,
721,2.00e-03,3.52e-01,
722,1.60e-03,3.44e-01,
723,1.60e-03,3.44e-01,
724,2.00e-03,3.44e-01,
725,2.00e-03,3.44e-01,
726,2.00e-03,3.36e-01,
727,2.00e-03,3.36e-01,
728,2.00e-03,3.28e-01,
729,2.00e-03,3.28e-01,
730,2.00e-03,3.20e-01,
731,2.00e-03,3.20e-01,
732,2.40e-03,3.20e-01,
733,2.40e-03,3.20e-01,
734,2.40e-03,3.04e-01,
735,2.40e-03,3.04e-01,
736,2.40e-03,3.04e-01,
737,2.40e-03,3.04e-01,
738,2.00e-03,3.04e-01,
739,2.00e-03,3.04e-01,
740,2.00e-03,2.96e-01,
741,2.00e-03,2.96e-01,
742,2.00e-03,2.88e-01,
743,2.00e-03,2.88e-01,
744,2.00e-03,2.80e-01,
745,2.00e-03,2.80e-01,
746,2.00e-03,2.64e-01,
747,2.00e-03,2.64e-01,
748,2.00e-03,2.56e-01,
749,2.00e-03,2.56e-01,
750,2.00e-03,2.48e-01,
751,2.00e-03,2.48e-01,
752,2.00e-03,2.40e-01,
753,2.00e-03,2.40e-01,
754,1.60e-03,2.32e-01,
755,1.60e-03,2.32e-01,
756,4.00e-04,2.24e-01,
757,4.00e-04,2.24e-01,
758,-8.00e-04,2.08e-01,
759,-8.00e-04,2.08e-01,
760,-2.40e-03,2.00e-01,
761,-2.40e-03,2.00e-01,
762,-3.20e-03,1.92e-01,
763,-3.20e-03,1.92e-01,
764,-4.00e-03,1.76e-01,
765,-4.00e-03,1.76e-01,
766,-3.60e-03,1.60e-01,
767,-3.60e-03,1.60e-01,
768,-2.80e-03,1.52e-01,
769,-2.80e-03,1.52e-01,
770,-2.40e-03,1.44e-01,
771,-2.40e-03,1.44e-01,
772,-2.00e-03,1.36e-01,
773,-2.00e-03,1.36e-01,
774,-1.60e-03,1.28e-01,
775,-1.60e-03,1.28e-01,
776,-1.60e-03,1.20e-01,
777,-1.60e-03,1.20e-01,
778,-1.20e-03,1.04e-01,
779,-1.20e-03,1.04e-01,
780,-1.20e-03,8.80e-02,
781,-1.20e-03,8.80e-02,
782,-1.20e-03,8.00e-02,
783,-1.20e-03,8.00e-02,
784,-1.20e-03,6.40e-02,
785,-1.20e-03,6.40e-02,
786,-1.20e-03,5.60e-02,
787,-1.20e-03,5.60e-02,
788,-1.20e-03,4.80e-02,
789,-1.20e-03,4.80e-02,
790,-1.20e-03,3.20e-02,
791,-1.20e-03,3.20e-02,
792,-1.20e-03,2.40e-02,
793,-1.20e-03,2.40e-02,
794,-1.60e-03,8.00e-03,
795,-1.60e-03,8.00e-03,
796,-2.00e-03,-8.00e-03,
797,-2.00e-03,-8.00e-03,
798,-2.40e-03,-1.60e-02,
799,-2.40e-03,-1.60e-02,
800,-2.40e-03,-2.40e-02,
801,-2.40e-03,-2.40e-02,
802,-2.40e-03,-4.00e-02,
803,-2.40e-03,-4.00e-02,
804,-2.40e-03,-4.80e-02,
805,-2.40e-03,-4.80e-02,
806,-2.80e-03,-6.40e-02,
807,-2.80e-03,-6.40e-02,
808,-3.20e-03,-8.00e-02,
809,-3.20e-03,-8.00e-02,
810,-3.20e-03,-8.80e-02,
811,-3.20e-03,-8.80e-02,
812,-3.60e-03,-1.04e-01,
813,-3.60e-03,-1.04e-01,
814,-4.00e-03,-1.20e-01,
815,-4.00e-03,-1.20e-01,
816,-4.00e-03,-1.28e-01,
817,-4.00e-03,-1.28e-01,
818,-4.00e-03,-1.36e-01,
819,-4.00e-03,-1.36e-01,
820,-4.40e-03,-1.44e-01,
821,-4.40e-03,-1.44e-01,
822,-4.40e-03,-1.52e-01,
823,-4.40e-03,-1.52e-01,
824,-4.40e-03,-1.68e-01,
825,-4.40e-03,-1.68e-01,
826,-4.40e-03,-1.76e-01,
827,-4.40e-03,-1.76e-01,
828,-4.00e-03,-1.92e-01,
829,-4.00e-03,-1.92e-01,
830,-4.00e-03,-2.08e-01,
831,-4.00e-03,-2.08e-01,
