Optical Pumping/Data/etalonhyperfine.csv

X,CH1,CH2,Start,Increment,
Sequence,Volt,Volt,1.925000e-02,5.000000e-06
0,2.80e-02,1.04e-01,
1,3.60e-02,1.12e-01,
2,3.20e-02,1.04e-01,
3,3.60e-02,1.12e-01,
4,3.40e-02,1.04e-01,
5,3.80e-02,1.20e-01,
6,3.60e-02,1.28e-01,
7,4.20e-02,1.04e-01,
8,3.60e-02,1.04e-01,
9,4.20e-02,1.28e-01,
10,4.00e-02,1.04e-01,
11,4.40e-02,1.28e-01,
12,4.00e-02,1.04e-01,
13,4.60e-02,1.28e-01,
14,4.20e-02,1.04e-01,
15,4.80e-02,1.28e-01,
16,5.20e-02,1.20e-01,
17,3.40e-02,-1.04e-01,
18,3.60e-02,-8.80e-02,
19,2.00e-03,-1.04e-01,
20,4.00e-03,-8.80e-02,
21,-1.80e-02,-1.04e-01,
22,-1.40e-02,-8.80e-02,
23,-2.80e-02,-1.04e-01,
24,-2.40e-02,-8.80e-02,
25,-3.40e-02,-9.60e-02,
26,-3.00e-02,-8.80e-02,
27,-4.20e-02,-9.60e-02,
28,-3.80e-02,-8.80e-02,
29,-4.80e-02,-9.60e-02,
30,-4.40e-02,-8.80e-02,
31,-5.40e-02,-9.60e-02,
32,-4.80e-02,-8.80e-02,
33,-5.60e-02,-9.60e-02,
34,-5.20e-02,-8.00e-02,
35,-6.20e-02,-9.60e-02,
36,-5.60e-02,-8.00e-02,
37,-6.40e-02,-9.60e-02,
38,-6.60e-02,-8.00e-02,
39,-6.00e-02,-9.60e-02,
40,-6.20e-02,-8.00e-02,
41,-7.00e-02,-9.60e-02,
42,-6.40e-02,-8.00e-02,
43,-7.20e-02,-9.60e-02,
44,-6.80e-02,-8.00e-02,
45,-7.40e-02,-9.60e-02,
46,-7.40e-02,-8.00e-02,
47,-6.80e-02,-9.60e-02,
48,-7.00e-02,-8.80e-02,
49,-7.80e-02,-8.00e-02,
50,-7.80e-02,-8.00e-02,
51,-7.00e-02,-9.60e-02,
52,-7.00e-02,-8.00e-02,
53,-8.00e-02,-9.60e-02,
54,-8.00e-02,-9.60e-02,
55,-7.20e-02,-8.00e-02,
56,-8.00e-02,-8.80e-02,
57,-7.40e-02,-9.60e-02,
58,-7.60e-02,-9.60e-02,
59,-8.20e-02,-8.00e-02,
60,-7.60e-02,-8.00e-02,
61,-8.20e-02,-9.60e-02,
62,-7.60e-02,-8.00e-02,
63,-8.40e-02,-9.60e-02,
64,-7.60e-02,-9.60e-02,
65,-8.40e-02,-8.00e-02,
66,-8.40e-02,-9.60e-02,
67,-7.60e-02,-8.00e-02,
68,-7.60e-02,-8.00e-02,
69,-8.40e-02,-9.60e-02,
70,-7.60e-02,-8.00e-02,
71,-8.40e-02,-9.60e-02,
72,-8.40e-02,-8.00e-02,
73,-7.60e-02,-9.60e-02,
74,-7.80e-02,-8.00e-02,
75,-8.60e-02,-9.60e-02,
76,-7.80e-02,-8.00e-02,
77,-8.60e-02,-9.60e-02,
78,-7.80e-02,-8.00e-02,
79,-8.60e-02,-8.80e-02,
80,-8.60e-02,-8.00e-02,
81,-7.80e-02,-8.80e-02,
82,-8.60e-02,-8.00e-02,
83,-7.80e-02,-8.80e-02,
84,-8.20e-02,-8.80e-02,
85,-8.80e-02,-6.40e-02,
86,-8.60e-02,-8.80e-02,
87,-7.80e-02,-7.20e-02,
88,-8.60e-02,-8.80e-02,
89,-8.20e-02,-6.40e-02,
90,-8.60e-02,-8.80e-02,
91,-8.00e-02,-6.40e-02,
92,-8.60e-02,-6.40e-02,
93,-7.80e-02,-8.80e-02,
94,-8.60e-02,-7.20e-02,
95,-7.80e-02,-8.80e-02,
96,-8.60e-02,-8.80e-02,
97,-7.80e-02,-6.40e-02,
98,-7.80e-02,-8.80e-02,
99,-8.60e-02,-6.40e-02,
100,-7.80e-02,-8.80e-02,
101,-8.60e-02,-6.40e-02,
102,-7.80e-02,-8.80e-02,
103,-8.60e-02,-6.40e-02,
104,-8.40e-02,-6.40e-02,
105,-7.60e-02,-8.80e-02,
106,-7.80e-02,-8.80e-02,
107,-8.60e-02,-6.40e-02,
108,-7.80e-02,-8.80e-02,
109,-8.40e-02,-6.40e-02,
110,-8.40e-02,-6.40e-02,
111,-7.60e-02,-8.80e-02,
112,-7.80e-02,-6.40e-02,
113,-8.60e-02,-8.80e-02,
114,-7.80e-02,-8.80e-02,
115,-8.60e-02,-6.40e-02,
116,-8.40e-02,-8.80e-02,
117,-7.80e-02,-6.40e-02,
118,-7.60e-02,-8.80e-02,
119,-8.40e-02,-6.40e-02,
120,-7.60e-02,-6.40e-02,
121,-8.20e-02,-8.80e-02,
122,-7.60e-02,-8.00e-02,
123,-8.20e-02,-6.40e-02,
124,-8.00e-02,-6.40e-02,
125,-7.40e-02,-8.80e-02,
126,-7.40e-02,-8.00e-02,
127,-8.20e-02,-6.40e-02,
128,-7.60e-02,-6.40e-02,
129,-8.40e-02,-8.00e-02,
130,-8.40e-02,-6.40e-02,
131,-7.40e-02,-7.20e-02,
132,-8.20e-02,-7.20e-02,
133,-7.40e-02,-6.40e-02,
134,-8.00e-02,-7.20e-02,
135,-7.40e-02,-5.60e-02,
136,-8.00e-02,-7.20e-02,
137,-7.20e-02,-5.60e-02,
138,-8.00e-02,-7.20e-02,
139,-7.20e-02,-5.60e-02,
140,-7.80e-02,-7.20e-02,
141,-7.00e-02,-5.60e-02,
142,-7.00e-02,-7.20e-02,
143,-7.80e-02,-5.60e-02,
144,-7.80e-02,-5.60e-02,
145,-7.00e-02,-7.20e-02,
146,-7.80e-02,-7.20e-02,
147,-7.00e-02,-5.60e-02,
148,-7.40e-02,-7.20e-02,
149,-6.80e-02,-5.60e-02,
150,-7.40e-02,-7.20e-02,
151,-6.80e-02,-5.60e-02,
152,-6.80e-02,-5.60e-02,
153,-7.40e-02,-7.20e-02,
154,-6.80e-02,-7.20e-02,
155,-7.40e-02,-5.60e-02,
156,-6.80e-02,-5.60e-02,
157,-7.40e-02,-7.20e-02,
158,-6.80e-02,-7.20e-02,
159,-7.40e-02,-5.60e-02,
160,-7.20e-02,-7.20e-02,
161,-6.60e-02,-5.60e-02,
162,-7.20e-02,-7.20e-02,
163,-6.40e-02,-6.40e-02,
164,-7.20e-02,-7.20e-02,
165,-6.40e-02,-6.40e-02,
166,-7.20e-02,-7.20e-02,
167,-6.40e-02,-6.40e-02,
168,-7.00e-02,-7.20e-02,
169,-6.20e-02,-5.60e-02,
170,-7.00e-02,-7.20e-02,
171,-6.20e-02,-5.60e-02,
172,-6.20e-02,-7.20e-02,
173,-7.00e-02,-5.60e-02,
174,-6.20e-02,-7.20e-02,
175,-7.00e-02,-5.60e-02,
176,-6.80e-02,-7.20e-02,
177,-6.00e-02,-5.60e-02,
178,-6.60e-02,-7.20e-02,
179,-6.00e-02,-5.60e-02,
180,-6.60e-02,-5.60e-02,
181,-6.00e-02,-7.20e-02,
182,-6.00e-02,-6.40e-02,
183,-6.60e-02,-5.60e-02,
184,-6.00e-02,-5.60e-02,
185,-6.60e-02,-6.40e-02,
186,-6.40e-02,-6.40e-02,
187,-5.80e-02,-5.60e-02,
188,-5.60e-02,-6.40e-02,
189,-6.40e-02,-4.80e-02,
190,-6.40e-02,-4.80e-02,
191,-5.60e-02,-6.40e-02,
192,-5.60e-02,-6.40e-02,
193,-6.40e-02,-4.80e-02,
194,-6.20e-02,-6.40e-02,
195,-5.60e-02,-4.80e-02,
196,-6.20e-02,-6.40e-02,
197,-5.40e-02,-4.80e-02,
198,-5.40e-02,-4.80e-02,
199,-6.00e-02,-6.40e-02,
200,-5.80e-02,-4.80e-02,
201,-5.40e-02,-6.40e-02,
202,-5.80e-02,-4.80e-02,
203,-5.20e-02,-6.40e-02,
204,-5.20e-02,-4.80e-02,
205,-5.60e-02,-6.40e-02,
206,-5.60e-02,-4.80e-02,
207,-4.80e-02,-6.40e-02,
208,-4.80e-02,-6.40e-02,
209,-5.60e-02,-4.80e-02,
210,-5.40e-02,-6.40e-02,
211,-4.60e-02,-4.80e-02,
212,-5.40e-02,-6.40e-02,
213,-4.60e-02,-5.60e-02,
214,-5.20e-02,-6.40e-02,
215,-4.40e-02,-5.60e-02,
216,-5.00e-02,-6.40e-02,
217,-4.60e-02,-5.60e-02,
218,-5.00e-02,-6.40e-02,
219,-4.40e-02,-4.80e-02,
220,-5.00e-02,-4.80e-02,
221,-4.40e-02,-6.40e-02,
222,-4.40e-02,-6.40e-02,
223,-4.80e-02,-4.80e-02,
224,-4.40e-02,-6.40e-02,
225,-4.80e-02,-4.80e-02,
226,-4.40e-02,-6.40e-02,
227,-4.80e-02,-4.80e-02,
228,-4.80e-02,-6.40e-02,
229,-4.00e-02,-4.80e-02,
230,-4.00e-02,-4.80e-02,
231,-4.60e-02,-6.40e-02,
232,-4.60e-02,-4.80e-02,
233,-3.80e-02,-6.40e-02,
234,-4.60e-02,-4.80e-02,
235,-3.80e-02,-6.40e-02,
236,-4.40e-02,-5.60e-02,
237,-3.80e-02,-4.00e-02,
238,-4.20e-02,-5.60e-02,
239,-3.80e-02,-4.00e-02,
240,-4.20e-02,-5.60e-02,
241,-3.40e-02,-4.00e-02,
242,-4.20e-02,-5.60e-02,
243,-3.40e-02,-4.00e-02,
244,-4.20e-02,-4.00e-02,
245,-3.40e-02,-5.60e-02,
246,-4.00e-02,-4.00e-02,
247,-3.20e-02,-5.60e-02,
248,-4.00e-02,-4.00e-02,
249,-3.20e-02,-5.60e-02,
250,-3.20e-02,-4.00e-02,
251,-3.80e-02,-5.60e-02,
252,-3.60e-02,-4.00e-02,
253,-3.00e-02,-5.60e-02,
254,-3.40e-02,-4.00e-02,
255,-2.80e-02,-5.60e-02,
256,-3.20e-02,-5.60e-02,
257,-2.60e-02,-4.00e-02,
258,-3.20e-02,-5.60e-02,
259,-2.40e-02,-4.00e-02,
260,-2.40e-02,-4.00e-02,
261,-3.00e-02,-5.60e-02,
262,-2.80e-02,-5.60e-02,
263,-2.40e-02,-4.00e-02,
264,-2.80e-02,-5.60e-02,
265,-2.20e-02,-4.00e-02,
266,-2.20e-02,-4.00e-02,
267,-2.80e-02,-5.60e-02,
268,-2.20e-02,-5.60e-02,
269,-2.80e-02,-4.00e-02,
270,-2.60e-02,-5.60e-02,
271,-1.80e-02,-4.00e-02,
272,-1.80e-02,-5.60e-02,
273,-2.40e-02,-4.00e-02,
274,-1.80e-02,-5.60e-02,
275,-2.40e-02,-4.00e-02,
276,-1.60e-02,-5.60e-02,
277,-2.40e-02,-4.00e-02,
278,-1.60e-02,-5.60e-02,
279,-2.00e-02,-4.00e-02,
280,-2.00e-02,-5.60e-02,
281,-1.60e-02,-4.00e-02,
282,-2.00e-02,-5.60e-02,
283,-1.40e-02,-3.20e-02,
284,-1.40e-02,-5.60e-02,
285,-1.80e-02,-3.20e-02,
286,-1.80e-02,-3.20e-02,
287,-1.20e-02,-5.60e-02,
288,-1.00e-02,-4.80e-02,
289,-1.60e-02,-3.20e-02,
290,-1.40e-02,-4.80e-02,
291,-1.00e-02,-3.20e-02,
292,-1.60e-02,-3.20e-02,
293,-8.00e-03,-4.80e-02,
294,-1.40e-02,-3.20e-02,
295,-8.00e-03,-4.80e-02,
296,-8.00e-03,-3.20e-02,
297,-1.20e-02,-4.80e-02,
298,-1.20e-02,-4.80e-02,
299,-6.00e-03,-3.20e-02,
300,-1.00e-02,-4.80e-02,
301,-4.00e-03,-3.20e-02,
302,-2.00e-03,-4.80e-02,
303,-1.00e-02,-3.20e-02,
304,-1.00e-02,-4.80e-02,
305,-2.00e-03,-3.20e-02,
306,-2.00e-03,-3.20e-02,
307,-8.00e-03,-4.80e-02,
308,-6.00e-03,-4.80e-02,
309,0.00e+00,-3.20e-02,
310,-4.00e-03,-3.20e-02,
311,0.00e+00,-4.80e-02,
312,0.00e+00,-4.80e-02,
313,-4.00e-03,-3.20e-02,
314,-4.00e-03,-3.20e-02,
315,0.00e+00,-4.80e-02,
316,-2.00e-03,-4.80e-02,
317,2.00e-03,-3.20e-02,
318,-2.00e-03,-3.20e-02,
319,4.00e-03,-4.80e-02,
320,-2.00e-03,-4.80e-02,
321,6.00e-03,-3.20e-02,
322,2.00e-03,-4.00e-02,
323,6.00e-03,-4.80e-02,
324,2.00e-03,-4.80e-02,
325,8.00e-03,-3.20e-02,
326,4.00e-03,-4.80e-02,
327,8.00e-03,-3.20e-02,
328,4.00e-03,-4.80e-02,
329,1.00e-02,-3.20e-02,
330,1.20e-02,-4.80e-02,
331,4.00e-03,-3.20e-02,
332,6.00e-03,-4.80e-02,
333,1.20e-02,-3.20e-02,
334,1.20e-02,-4.80e-02,
335,8.00e-03,-3.20e-02,
336,1.00e-02,-4.80e-02,
337,1.40e-02,-2.40e-02,
338,1.00e-02,-4.80e-02,
339,1.40e-02,-2.40e-02,
340,1.40e-02,-2.40e-02,
341,1.00e-02,-4.00e-02,
342,1.00e-02,-2.40e-02,
343,1.40e-02,-4.00e-02,
344,1.00e-02,-2.40e-02,
345,1.40e-02,-4.00e-02,
346,1.00e-02,-4.00e-02,
347,1.60e-02,-2.40e-02,
348,1.20e-02,-2.40e-02,
349,1.60e-02,-4.00e-02,
350,1.60e-02,-4.00e-02,
351,1.20e-02,-2.40e-02,
352,1.20e-02,-2.40e-02,
353,1.60e-02,-4.00e-02,
354,1.20e-02,-2.40e-02,
355,2.00e-02,-4.00e-02,
356,1.40e-02,-2.40e-02,
357,2.00e-02,-4.00e-02,
358,1.40e-02,-4.00e-02,
359,2.00e-02,-2.40e-02,
360,1.40e-02,-2.40e-02,
361,2.00e-02,-4.00e-02,
362,1.40e-02,-4.00e-02,
363,2.20e-02,-2.40e-02,
364,1.80e-02,-3.20e-02,
365,2.20e-02,-4.00e-02,
366,1.80e-02,-4.00e-02,
367,2.40e-02,-2.40e-02,
368,2.20e-02,-4.00e-02,
369,1.80e-02,-2.40e-02,
370,2.20e-02,-3.20e-02,
371,1.80e-02,-4.00e-02,
372,1.80e-02,-4.00e-02,
373,2.40e-02,-3.20e-02,
374,1.80e-02,-4.00e-02,
375,2.40e-02,-2.40e-02,
376,2.00e-02,-4.00e-02,
377,2.40e-02,-2.40e-02,
378,2.00e-02,-4.00e-02,
379,2.80e-02,-2.40e-02,
380,2.20e-02,-4.00e-02,
381,2.80e-02,-2.40e-02,
382,2.20e-02,-4.00e-02,
383,2.80e-02,-2.40e-02,
384,2.20e-02,-4.00e-02,
385,2.80e-02,-2.40e-02,
386,2.20e-02,-4.00e-02,
387,2.80e-02,-1.60e-02,
388,2.20e-02,-1.60e-02,
389,2.80e-02,-4.00e-02,
390,2.80e-02,-1.60e-02,
391,2.20e-02,-3.20e-02,
392,2.40e-02,-1.60e-02,
393,2.80e-02,-3.20e-02,
394,2.80e-02,-1.60e-02,
395,2.20e-02,-4.00e-02,
396,2.80e-02,-3.20e-02,
397,2.20e-02,-1.60e-02,
398,2.20e-02,-1.60e-02,
399,2.80e-02,-3.20e-02,
400,2.80e-02,-1.60e-02,
401,2.20e-02,-3.20e-02,
402,2.80e-02,-1.60e-02,
403,2.00e-02,-3.20e-02,
404,2.80e-02,-1.60e-02,
405,2.20e-02,-3.20e-02,
406,2.80e-02,-1.60e-02,
407,2.20e-02,-3.20e-02,
408,2.80e-02,-1.60e-02,
409,2.20e-02,-3.20e-02,
410,2.80e-02,-3.20e-02,
411,2.20e-02,-1.60e-02,
412,2.40e-02,-3.20e-02,
413,2.20e-02,-1.60e-02,
414,2.40e-02,-3.20e-02,
415,2.00e-02,-1.60e-02,
416,2.20e-02,-3.20e-02,
417,1.80e-02,-2.40e-02,
418,2.20e-02,-3.20e-02,
419,1.80e-02,-1.60e-02,
420,1.80e-02,-3.20e-02,
421,2.20e-02,-1.60e-02,
422,2.00e-02,-3.20e-02,
423,1.40e-02,-1.60e-02,
424,1.40e-02,-1.60e-02,
425,2.00e-02,-3.20e-02,
426,2.00e-02,-3.20e-02,
427,1.20e-02,-1.60e-02,
428,1.60e-02,-1.60e-02,
429,1.20e-02,-3.20e-02,
430,1.60e-02,-3.20e-02,
431,1.20e-02,-8.00e-03,
432,1.60e-02,-3.20e-02,
433,1.00e-02,-1.60e-02,
434,1.40e-02,-3.20e-02,
435,1.00e-02,-1.60e-02,
436,1.00e-02,-1.60e-02,
437,1.40e-02,-3.20e-02,
438,1.20e-02,-3.20e-02,
439,4.00e-03,-8.00e-03,
440,8.00e-03,-2.40e-02,
441,4.00e-03,-8.00e-03,
442,4.00e-03,-8.00e-03,
443,8.00e-03,-2.40e-02,
444,8.00e-03,-2.40e-02,
445,2.00e-03,-8.00e-03,
446,6.00e-03,-8.00e-03,
447,-2.00e-03,-2.40e-02,
448,-2.00e-03,-8.00e-03,
449,4.00e-03,-2.40e-02,
450,4.00e-03,-8.00e-03,
451,-4.00e-03,-2.40e-02,
452,-4.00e-03,-8.00e-03,
453,0.00e+00,-2.40e-02,
454,-2.00e-03,-8.00e-03,
455,-1.00e-02,-2.40e-02,
456,-2.00e-03,-8.00e-03,
457,-1.00e-02,-2.40e-02,
458,-6.00e-03,-8.00e-03,
459,-1.20e-02,-2.40e-02,
460,-8.00e-03,-8.00e-03,
461,-1.20e-02,-2.40e-02,
462,-8.00e-03,-2.40e-02,
463,-1.60e-02,-8.00e-03,
464,-1.00e-02,-8.00e-03,
465,-1.60e-02,-2.40e-02,
466,-1.00e-02,-8.00e-03,
467,-1.80e-02,-2.40e-02,
468,-1.40e-02,-2.40e-02,
469,-2.00e-02,-8.00e-03,
470,-1.60e-02,-8.00e-03,
471,-2.00e-02,-2.40e-02,
472,-2.40e-02,-2.40e-02,
473,-1.60e-02,-8.00e-03,
474,-1.80e-02,-8.00e-03,
475,-2.60e-02,-2.40e-02,
476,-2.20e-02,-8.00e-03,
477,-2.80e-02,-2.40e-02,
478,-2.80e-02,-2.40e-02,
479,-2.20e-02,-8.00e-03,
480,-2.80e-02,-2.40e-02,
481,-2.20e-02,-8.00e-03,
482,-2.40e-02,-2.40e-02,
483,-3.20e-02,0.00e+00,
484,-2.60e-02,-8.00e-03,
485,-3.40e-02,-2.40e-02,
486,-3.40e-02,0.00e+00,
487,-3.00e-02,-2.40e-02,
488,-3.00e-02,-2.40e-02,
489,-3.60e-02,0.00e+00,
490,-3.60e-02,0.00e+00,
491,-3.00e-02,-2.40e-02,
492,-3.20e-02,0.00e+00,
493,-3.60e-02,-1.60e-02,
494,-3.60e-02,0.00e+00,
495,-3.20e-02,-1.60e-02,
496,-3.20e-02,0.00e+00,
497,-4.00e-02,-1.60e-02,
498,-3.40e-02,0.00e+00,
499,-4.20e-02,-1.60e-02,
500,-4.20e-02,0.00e+00,
501,-3.60e-02,-1.60e-02,
502,-4.20e-02,0.00e+00,
503,-3.80e-02,-1.60e-02,
504,-4.40e-02,0.00e+00,
505,-3.80e-02,-1.60e-02,
506,-4.00e-02,0.00e+00,
507,-4.60e-02,-1.60e-02,
508,-4.00e-02,0.00e+00,
509,-4.80e-02,-1.60e-02,
510,-4.80e-02,0.00e+00,
511,-4.00e-02,-1.60e-02,
512,-4.80e-02,0.00e+00,
513,-4.40e-02,-1.60e-02,
514,-4.40e-02,0.00e+00,
515,-5.00e-02,-1.60e-02,
516,-4.40e-02,-1.60e-02,
517,-5.00e-02,0.00e+00,
518,-5.00e-02,0.00e+00,
519,-4.60e-02,-1.60e-02,
520,-4.60e-02,-1.60e-02,
521,-5.20e-02,0.00e+00,
522,-4.60e-02,-8.00e-03,
523,-5.40e-02,-1.60e-02,
524,-4.80e-02,-1.60e-02,
525,-5.40e-02,-8.00e-03,
526,-5.40e-02,-1.60e-02,
527,-4.80e-02,-8.00e-03,
528,-4.80e-02,-1.60e-02,
529,-5.60e-02,0.00e+00,
530,-5.60e-02,-1.60e-02,
531,-4.80e-02,0.00e+00,
532,-5.60e-02,-1.60e-02,
533,-4.80e-02,0.00e+00,
534,-4.80e-02,0.00e+00,
535,-5.60e-02,-1.60e-02,
536,-5.60e-02,-1.60e-02,
537,-5.20e-02,8.00e-03,
538,-5.20e-02,8.00e-03,
539,-5.80e-02,-1.60e-02,
540,-5.80e-02,8.00e-03,
541,-5.20e-02,-8.00e-03,
542,-5.80e-02,8.00e-03,
543,-5.20e-02,-8.00e-03,
544,-5.80e-02,8.00e-03,
545,-5.40e-02,-8.00e-03,
546,-5.40e-02,8.00e-03,
547,-6.20e-02,-8.00e-03,
548,-6.20e-02,8.00e-03,
549,-5.40e-02,-8.00e-03,
550,-5.60e-02,8.00e-03,
551,-6.40e-02,-8.00e-03,
552,-6.20e-02,8.00e-03,
553,-5.40e-02,-8.00e-03,
554,-5.60e-02,8.00e-03,
555,-6.40e-02,-8.00e-03,
556,-5.60e-02,8.00e-03,
557,-6.40e-02,-8.00e-03,
558,-6.20e-02,8.00e-03,
559,-5.40e-02,-8.00e-03,
560,-6.20e-02,8.00e-03,
561,-5.60e-02,-8.00e-03,
562,-5.40e-02,8.00e-03,
563,-6.20e-02,-8.00e-03,
564,-5.60e-02,-8.00e-03,
565,-6.40e-02,8.00e-03,
566,-5.60e-02,0.00e+00,
567,-6.40e-02,-8.00e-03,
568,-6.40e-02,-8.00e-03,
569,-5.60e-02,8.00e-03,
570,-5.60e-02,0.00e+00,
571,-6.40e-02,-8.00e-03,
572,-5.60e-02,-8.00e-03,
573,-6.40e-02,0.00e+00,
574,-6.40e-02,0.00e+00,
575,-5.60e-02,-8.00e-03,
576,-6.00e-02,0.00e+00,
577,-6.60e-02,-8.00e-03,
578,-6.60e-02,-8.00e-03,
579,-5.80e-02,8.00e-03,
580,-6.00e-02,8.00e-03,
581,-6.60e-02,-8.00e-03,
582,-6.00e-02,8.00e-03,
583,-6.60e-02,-8.00e-03,
584,-6.00e-02,8.00e-03,
585,-6.60e-02,-8.00e-03,
586,-6.60e-02,-8.00e-03,
587,-6.00e-02,1.60e-02,
588,-6.60e-02,-8.00e-03,
589,-6.00e-02,2.40e-02,
590,-6.60e-02,-8.00e-03,
591,-6.00e-02,2.40e-02,
592,-6.40e-02,0.00e+00,
593,-6.00e-02,2.40e-02,
594,-6.00e-02,0.00e+00,
595,-6.60e-02,2.40e-02,
596,-6.00e-02,0.00e+00,
597,-6.60e-02,2.40e-02,
598,-6.00e-02,1.60e-02,
599,-6.60e-02,0.00e+00,
600,-6.00e-02,0.00e+00,
601,-6.60e-02,2.40e-02,
602,-6.40e-02,2.40e-02,
603,-6.00e-02,0.00e+00,
604,-6.40e-02,8.00e-03,
605,-5.60e-02,2.40e-02,
606,-5.60e-02,2.40e-02,
607,-6.40e-02,0.00e+00,
608,-5.60e-02,0.00e+00,
609,-6.40e-02,2.40e-02,
610,-5.60e-02,2.40e-02,
611,-6.40e-02,0.00e+00,
612,-6.20e-02,0.00e+00,
613,-5.60e-02,2.40e-02,
614,-5.60e-02,0.00e+00,
615,-6.40e-02,2.40e-02,
616,-6.40e-02,0.00e+00,
617,-5.60e-02,1.60e-02,
618,-6.20e-02,0.00e+00,
619,-5.40e-02,2.40e-02,
620,-6.20e-02,2.40e-02,
621,-5.40e-02,0.00e+00,
622,-5.40e-02,0.00e+00,
623,-6.20e-02,2.40e-02,
624,-6.20e-02,0.00e+00,
625,-5.40e-02,2.40e-02,
626,-5.80e-02,8.00e-03,
627,-5.40e-02,2.40e-02,
628,-5.80e-02,2.40e-02,
629,-5.20e-02,0.00e+00,
630,-5.80e-02,2.40e-02,
631,-5.20e-02,0.00e+00,
632,-5.20e-02,8.00e-03,
633,-5.80e-02,2.40e-02,
634,-5.20e-02,8.00e-03,
635,-5.80e-02,2.40e-02,
636,-5.20e-02,8.00e-03,
637,-5.80e-02,2.40e-02,
638,-5.20e-02,3.20e-02,
639,-5.60e-02,0.00e+00,
640,-5.60e-02,3.20e-02,
641,-5.20e-02,0.00e+00,
642,-5.60e-02,3.20e-02,
643,-4.80e-02,8.00e-03,
644,-5.60e-02,3.20e-02,
645,-4.80e-02,8.00e-03,
646,-5.60e-02,1.60e-02,
647,-4.80e-02,3.20e-02,
648,-5.60e-02,1.60e-02,
649,-4.80e-02,3.20e-02,
650,-4.80e-02,1.60e-02,
651,-5.60e-02,3.20e-02,
652,-5.40e-02,1.60e-02,
653,-4.80e-02,3.20e-02,
654,-5.40e-02,1.60e-02,
655,-4.60e-02,3.20e-02,
656,-5.20e-02,1.60e-02,
657,-4.60e-02,3.20e-02,
658,-5.00e-02,1.60e-02,
659,-4.40e-02,3.20e-02,
660,-4.40e-02,3.20e-02,
661,-5.00e-02,1.60e-02,
662,-4.40e-02,1.60e-02,
663,-5.00e-02,3.20e-02,
664,-5.00e-02,1.60e-02,
665,-4.40e-02,3.20e-02,
666,-4.40e-02,1.60e-02,
667,-5.00e-02,3.20e-02,
668,-4.80e-02,1.60e-02,
669,-4.00e-02,3.20e-02,
670,-4.00e-02,1.60e-02,
671,-4.60e-02,3.20e-02,
672,-4.60e-02,1.60e-02,
673,-4.00e-02,3.20e-02,
674,-4.60e-02,1.60e-02,
675,-3.80e-02,3.20e-02,
676,-4.40e-02,1.60e-02,
677,-3.80e-02,3.20e-02,
678,-4.40e-02,1.60e-02,
679,-3.80e-02,3.20e-02,
680,-4.40e-02,1.60e-02,
681,-3.80e-02,3.20e-02,
682,-4.20e-02,1.60e-02,
683,-3.40e-02,3.20e-02,
684,-4.00e-02,1.60e-02,
685,-3.40e-02,3.20e-02,
686,-4.00e-02,1.60e-02,
687,-3.40e-02,3.20e-02,
688,-4.00e-02,1.60e-02,
689,-3.20e-02,3.20e-02,
690,-3.60e-02,1.60e-02,
691,-3.00e-02,4.00e-02,
692,-3.60e-02,1.60e-02,
693,-3.00e-02,4.00e-02,
694,-3.40e-02,1.60e-02,
695,-3.00e-02,4.00e-02,
696,-3.00e-02,4.00e-02,
697,-3.40e-02,2.40e-02,
698,-3.40e-02,4.00e-02,
699,-2.80e-02,2.40e-02,
700,-3.40e-02,2.40e-02,
701,-2.60e-02,4.00e-02,
702,-3.20e-02,2.40e-02,
703,-2.40e-02,4.00e-02,
704,-2.40e-02,2.40e-02,
705,-3.20e-02,4.00e-02,
706,-2.80e-02,2.40e-02,
707,-2.40e-02,4.00e-02,
708,-2.20e-02,2.40e-02,
709,-2.80e-02,4.00e-02,
710,-2.20e-02,2.40e-02,
711,-2.80e-02,4.00e-02,
712,-2.60e-02,2.40e-02,
713,-2.20e-02,4.00e-02,
714,-2.60e-02,2.40e-02,
715,-1.80e-02,4.00e-02,
716,-2.20e-02,2.40e-02,
717,-1.60e-02,4.00e-02,
718,-2.00e-02,2.40e-02,
719,-1.60e-02,4.00e-02,
720,-2.00e-02,2.40e-02,
721,-1.40e-02,4.00e-02,
722,-1.40e-02,3.20e-02,
723,-2.00e-02,2.40e-02,
724,-1.80e-02,2.40e-02,
725,-1.00e-02,3.20e-02,
726,-1.00e-02,3.20e-02,
727,-1.60e-02,2.40e-02,
728,-1.40e-02,2.40e-02,
729,-8.00e-03,3.20e-02,
730,-1.20e-02,2.40e-02,
731,-6.00e-03,4.00e-02,
732,-1.20e-02,2.40e-02,
733,-6.00e-03,4.00e-02,
734,-6.00e-03,2.40e-02,
735,-1.00e-02,4.80e-02,
736,-2.00e-03,2.40e-02,
737,-8.00e-03,4.00e-02,
738,-2.00e-03,2.40e-02,
739,-6.00e-03,4.80e-02,
740,-6.00e-03,2.40e-02,
741,0.00e+00,4.80e-02,
742,-4.00e-03,2.40e-02,
743,4.00e-03,4.80e-02,
744,-2.00e-03,4.80e-02,
745,6.00e-03,2.40e-02,
746,-2.00e-03,3.20e-02,
747,6.00e-03,4.80e-02,
748,2.00e-03,4.80e-02,
749,8.00e-03,3.20e-02,
750,4.00e-03,3.20e-02,
751,8.00e-03,4.80e-02,
752,4.00e-03,3.20e-02,
753,1.20e-02,4.80e-02,
754,6.00e-03,4.80e-02,
755,1.20e-02,3.20e-02,
756,8.00e-03,3.20e-02,
757,1.40e-02,4.80e-02,
758,1.00e-02,3.20e-02,
759,1.60e-02,4.80e-02,
760,1.20e-02,3.20e-02,
761,2.00e-02,4.80e-02,
762,1.40e-02,3.20e-02,
763,2.20e-02,4.80e-02,
764,1.80e-02,3.20e-02,
765,2.40e-02,4.80e-02,
766,2.00e-02,3.20e-02,
767,2.80e-02,4.00e-02,
768,2.20e-02,3.20e-02,
769,3.00e-02,4.80e-02,
770,3.00e-02,4.80e-02,
771,2.60e-02,3.20e-02,
772,2.80e-02,3.20e-02,
773,3.20e-02,4.00e-02,
774,3.60e-02,4.00e-02,
775,3.00e-02,3.20e-02,
776,3.20e-02,3.20e-02,
777,3.80e-02,4.80e-02,
778,3.60e-02,3.20e-02,
779,4.20e-02,4.80e-02,
780,4.00e-02,3.20e-02,
781,4.40e-02,4.80e-02,
782,4.20e-02,3.20e-02,
783,4.80e-02,4.80e-02,
784,4.40e-02,3.20e-02,
785,5.00e-02,5.60e-02,
786,4.40e-02,3.20e-02,
787,5.20e-02,5.60e-02,
788,5.00e-02,3.20e-02,
789,5.40e-02,5.60e-02,
790,5.00e-02,3.20e-02,
791,5.80e-02,5.60e-02,
792,5.20e-02,3.20e-02,
793,6.00e-02,5.60e-02,
794,5.60e-02,5.60e-02,
795,6.00e-02,3.20e-02,
796,5.80e-02,5.60e-02,
797,6.20e-02,3.20e-02,
798,6.00e-02,4.00e-02,
799,6.60e-02,5.60e-02,
800,6.20e-02,4.00e-02,
801,6.80e-02,5.60e-02,
802,6.60e-02,5.60e-02,
803,7.00e-02,4.00e-02,
804,6.60e-02,5.60e-02,
805,7.40e-02,4.00e-02,
806,7.20e-02,5.60e-02,
807,7.60e-02,4.00e-02,
808,7.40e-02,5.60e-02,
809,8.00e-02,4.00e-02,
810,7.40e-02,5.60e-02,
811,8.20e-02,4.00e-02,
812,8.00e-02,4.00e-02,
813,8.40e-02,5.60e-02,
814,8.00e-02,4.00e-02,
815,8.80e-02,5.60e-02,
816,8.40e-02,4.00e-02,
817,9.00e-02,5.60e-02,
818,8.80e-02,4.00e-02,
819,9.20e-02,5.60e-02,
820,8.80e-02,4.00e-02,
821,9.40e-02,5.60e-02,
