Optical Pumping/Data/Hyperfine_T_345_I_60.csv

X,CH1,CH2,Start,Increment,
Sequence,Volt,Volt,4.912000e-01,1.000000e-04
0,1.20e+00,1.20e+00,
1,1.20e+00,1.20e+00,
2,1.20e+00,1.24e+00,
3,1.20e+00,1.24e+00,
4,1.20e+00,1.24e+00,
5,1.20e+00,1.24e+00,
6,1.20e+00,1.24e+00,
7,1.20e+00,1.24e+00,
8,1.20e+00,1.24e+00,
9,1.20e+00,1.24e+00,
10,1.20e+00,1.24e+00,
11,1.20e+00,1.24e+00,
12,1.20e+00,1.24e+00,
13,1.20e+00,1.24e+00,
14,1.20e+00,1.24e+00,
15,1.20e+00,1.24e+00,
16,1.20e+00,1.24e+00,
17,1.20e+00,1.24e+00,
18,1.20e+00,1.28e+00,
19,1.20e+00,1.28e+00,
20,1.00e+00,1.28e+00,
21,1.00e+00,1.28e+00,
22,1.00e+00,1.28e+00,
23,1.00e+00,1.28e+00,
24,1.00e+00,1.28e+00,
25,1.00e+00,1.28e+00,
26,1.20e+00,1.28e+00,
27,1.20e+00,1.28e+00,
28,1.20e+00,1.28e+00,
29,1.20e+00,1.28e+00,
30,1.20e+00,1.28e+00,
31,1.20e+00,1.28e+00,
32,1.20e+00,1.32e+00,
33,1.20e+00,1.32e+00,
34,1.20e+00,1.32e+00,
35,1.20e+00,1.32e+00,
36,1.20e+00,1.32e+00,
37,1.20e+00,1.32e+00,
38,1.00e+00,1.32e+00,
39,1.00e+00,1.32e+00,
40,1.00e+00,1.32e+00,
41,1.00e+00,1.32e+00,
42,1.20e+00,1.32e+00,
43,1.20e+00,1.32e+00,
44,1.20e+00,1.32e+00,
45,1.20e+00,1.32e+00,
46,1.00e+00,1.36e+00,
47,1.00e+00,1.36e+00,
48,1.00e+00,1.36e+00,
49,1.00e+00,1.36e+00,
50,1.00e+00,1.36e+00,
51,1.00e+00,1.36e+00,
52,1.00e+00,1.36e+00,
53,1.00e+00,1.36e+00,
54,1.20e+00,1.36e+00,
55,1.20e+00,1.36e+00,
56,1.20e+00,1.36e+00,
57,1.20e+00,1.36e+00,
58,1.00e+00,1.36e+00,
59,1.00e+00,1.36e+00,
60,1.20e+00,1.40e+00,
61,1.20e+00,1.40e+00,
62,1.20e+00,1.40e+00,
63,1.20e+00,1.40e+00,
64,1.00e+00,1.40e+00,
65,1.00e+00,1.40e+00,
66,1.00e+00,1.40e+00,
67,1.00e+00,1.40e+00,
68,1.00e+00,1.40e+00,
69,1.00e+00,1.40e+00,
70,1.00e+00,1.40e+00,
71,1.00e+00,1.40e+00,
72,1.00e+00,1.40e+00,
73,1.00e+00,1.40e+00,
74,1.20e+00,1.40e+00,
75,1.20e+00,1.40e+00,
76,1.00e+00,1.48e+00,
77,1.00e+00,1.48e+00,
78,1.00e+00,1.44e+00,
79,1.00e+00,1.44e+00,
80,1.00e+00,1.48e+00,
81,1.00e+00,1.48e+00,
82,8.00e-01,1.44e+00,
83,8.00e-01,1.44e+00,
84,1.00e+00,1.48e+00,
85,1.00e+00,1.48e+00,
86,-1.36e+01,-1.64e+00,
87,-1.36e+01,-1.64e+00,
88,-1.36e+01,-1.64e+00,
89,-1.36e+01,-1.64e+00,
90,-1.32e+01,-1.64e+00,
91,-1.32e+01,-1.64e+00,
92,-1.28e+01,-1.64e+00,
93,-1.28e+01,-1.64e+00,
94,-1.28e+01,-1.60e+00,
95,-1.28e+01,-1.60e+00,
96,-1.24e+01,-1.56e+00,
97,-1.24e+01,-1.56e+00,
98,-1.20e+01,-1.56e+00,
99,-1.20e+01,-1.56e+00,
100,-1.18e+01,-1.60e+00,
101,-1.18e+01,-1.60e+00,
102,-1.16e+01,-1.56e+00,
103,-1.16e+01,-1.56e+00,
104,-1.12e+01,-1.56e+00,
105,-1.12e+01,-1.56e+00,
106,-1.10e+01,-1.60e+00,
107,-1.10e+01,-1.60e+00,
108,-1.08e+01,-1.56e+00,
109,-1.08e+01,-1.56e+00,
110,-1.04e+01,-1.52e+00,
111,-1.04e+01,-1.52e+00,
112,-1.04e+01,-1.52e+00,
113,-1.04e+01,-1.52e+00,
114,-1.02e+01,-1.52e+00,
115,-1.02e+01,-1.52e+00,
116,-9.80e+00,-1.52e+00,
117,-9.80e+00,-1.52e+00,
118,-9.60e+00,-1.52e+00,
119,-9.60e+00,-1.52e+00,
120,-9.20e+00,-1.52e+00,
121,-9.20e+00,-1.52e+00,
122,-9.00e+00,-1.48e+00,
123,-9.00e+00,-1.48e+00,
124,-8.80e+00,-1.48e+00,
125,-8.80e+00,-1.48e+00,
126,-8.60e+00,-1.44e+00,
127,-8.60e+00,-1.44e+00,
128,-8.40e+00,-1.44e+00,
129,-8.40e+00,-1.44e+00,
130,-8.20e+00,-1.44e+00,
131,-8.20e+00,-1.44e+00,
132,-8.00e+00,-1.44e+00,
133,-8.00e+00,-1.44e+00,
134,-7.80e+00,-1.44e+00,
135,-7.80e+00,-1.44e+00,
136,-7.60e+00,-1.44e+00,
137,-7.60e+00,-1.44e+00,
138,-7.40e+00,-1.44e+00,
139,-7.40e+00,-1.44e+00,
140,-7.40e+00,-1.40e+00,
141,-7.40e+00,-1.40e+00,
142,-7.20e+00,-1.40e+00,
143,-7.20e+00,-1.40e+00,
144,-7.00e+00,-1.40e+00,
145,-7.00e+00,-1.40e+00,
146,-6.60e+00,-1.44e+00,
147,-6.60e+00,-1.44e+00,
148,-6.40e+00,-1.44e+00,
149,-6.40e+00,-1.44e+00,
150,-6.40e+00,-1.40e+00,
151,-6.40e+00,-1.40e+00,
152,-6.20e+00,-1.40e+00,
153,-6.20e+00,-1.40e+00,
154,-6.00e+00,-1.36e+00,
155,-6.00e+00,-1.36e+00,
156,-5.80e+00,-1.36e+00,
157,-5.80e+00,-1.36e+00,
158,-5.60e+00,-1.36e+00,
159,-5.60e+00,-1.36e+00,
160,-5.40e+00,-1.36e+00,
161,-5.40e+00,-1.36e+00,
162,-5.40e+00,-1.36e+00,
163,-5.40e+00,-1.36e+00,
164,-5.20e+00,-1.36e+00,
165,-5.20e+00,-1.36e+00,
166,-5.00e+00,-1.36e+00,
167,-5.00e+00,-1.36e+00,
168,-4.80e+00,-1.32e+00,
169,-4.80e+00,-1.32e+00,
170,-4.80e+00,-1.32e+00,
171,-4.80e+00,-1.32e+00,
172,-4.60e+00,-1.32e+00,
173,-4.60e+00,-1.32e+00,
174,-4.60e+00,-1.32e+00,
175,-4.60e+00,-1.32e+00,
176,-4.40e+00,-1.32e+00,
177,-4.40e+00,-1.32e+00,
178,-4.20e+00,-1.32e+00,
179,-4.20e+00,-1.32e+00,
180,-4.00e+00,-1.32e+00,
181,-4.00e+00,-1.32e+00,
182,-4.00e+00,-1.32e+00,
183,-4.00e+00,-1.32e+00,
184,-3.80e+00,-1.28e+00,
185,-3.80e+00,-1.28e+00,
186,-3.60e+00,-1.28e+00,
187,-3.60e+00,-1.28e+00,
188,-3.60e+00,-1.28e+00,
189,-3.60e+00,-1.28e+00,
190,-3.40e+00,-1.28e+00,
191,-3.40e+00,-1.28e+00,
192,-3.20e+00,-1.28e+00,
193,-3.20e+00,-1.28e+00,
194,-3.20e+00,-1.28e+00,
195,-3.20e+00,-1.28e+00,
196,-3.20e+00,-1.24e+00,
197,-3.20e+00,-1.24e+00,
198,-3.00e+00,-1.24e+00,
199,-3.00e+00,-1.24e+00,
200,-2.80e+00,-1.24e+00,
201,-2.80e+00,-1.24e+00,
202,-2.60e+00,-1.24e+00,
203,-2.60e+00,-1.24e+00,
204,-2.60e+00,-1.24e+00,
205,-2.60e+00,-1.24e+00,
206,-2.60e+00,-1.24e+00,
207,-2.60e+00,-1.24e+00,
208,-2.60e+00,-1.24e+00,
209,-2.60e+00,-1.24e+00,
210,-2.20e+00,-1.20e+00,
211,-2.20e+00,-1.20e+00,
212,-2.20e+00,-1.20e+00,
213,-2.20e+00,-1.20e+00,
214,-2.20e+00,-1.16e+00,
215,-2.20e+00,-1.16e+00,
216,-2.00e+00,-1.20e+00,
217,-2.00e+00,-1.20e+00,
218,-2.00e+00,-1.20e+00,
219,-2.00e+00,-1.20e+00,
220,-1.80e+00,-1.20e+00,
221,-1.80e+00,-1.20e+00,
222,-1.80e+00,-1.20e+00,
223,-1.80e+00,-1.20e+00,
224,-1.60e+00,-1.16e+00,
225,-1.60e+00,-1.16e+00,
226,-1.60e+00,-1.16e+00,
227,-1.60e+00,-1.16e+00,
228,-1.60e+00,-1.16e+00,
229,-1.60e+00,-1.16e+00,
230,-1.40e+00,-1.16e+00,
231,-1.40e+00,-1.16e+00,
232,-1.40e+00,-1.16e+00,
233,-1.40e+00,-1.16e+00,
234,-1.20e+00,-1.12e+00,
235,-1.20e+00,-1.12e+00,
236,-1.20e+00,-1.12e+00,
237,-1.20e+00,-1.12e+00,
238,-1.20e+00,-1.16e+00,
239,-1.20e+00,-1.16e+00,
240,-1.00e+00,-1.12e+00,
241,-1.00e+00,-1.12e+00,
242,-1.00e+00,-1.12e+00,
243,-1.00e+00,-1.12e+00,
244,-1.00e+00,-1.12e+00,
245,-1.00e+00,-1.12e+00,
246,-8.00e-01,-1.08e+00,
247,-8.00e-01,-1.08e+00,
248,-8.00e-01,-1.12e+00,
249,-8.00e-01,-1.12e+00,
250,-8.00e-01,-1.12e+00,
251,-8.00e-01,-1.12e+00,
252,-6.00e-01,-1.12e+00,
253,-6.00e-01,-1.12e+00,
254,-6.00e-01,-1.08e+00,
255,-6.00e-01,-1.08e+00,
256,-4.00e-01,-1.04e+00,
257,-4.00e-01,-1.04e+00,
258,-4.00e-01,-1.04e+00,
259,-4.00e-01,-1.04e+00,
260,-4.00e-01,-1.04e+00,
261,-4.00e-01,-1.04e+00,
262,-4.00e-01,-1.04e+00,
263,-4.00e-01,-1.04e+00,
264,-2.00e-01,-1.04e+00,
265,-2.00e-01,-1.04e+00,
266,-2.00e-01,-1.08e+00,
267,-2.00e-01,-1.08e+00,
268,-2.00e-01,-1.00e+00,
269,-2.00e-01,-1.00e+00,
270,-2.00e-01,-1.00e+00,
271,-2.00e-01,-1.00e+00,
272,0.00e+00,-1.00e+00,
273,0.00e+00,-1.00e+00,
274,2.00e-01,-1.00e+00,
275,2.00e-01,-1.00e+00,
276,2.00e-01,-1.00e+00,
277,2.00e-01,-1.00e+00,
278,2.00e-01,-1.00e+00,
279,2.00e-01,-1.00e+00,
280,2.00e-01,-1.00e+00,
281,2.00e-01,-1.00e+00,
282,4.00e-01,-1.00e+00,
283,4.00e-01,-1.00e+00,
284,2.00e-01,-9.60e-01,
285,2.00e-01,-9.60e-01,
286,4.00e-01,-9.60e-01,
287,4.00e-01,-9.60e-01,
288,4.00e-01,-9.60e-01,
289,4.00e-01,-9.60e-01,
290,6.00e-01,-9.60e-01,
291,6.00e-01,-9.60e-01,
292,4.00e-01,-9.60e-01,
293,4.00e-01,-9.60e-01,
294,4.00e-01,-9.60e-01,
295,4.00e-01,-9.60e-01,
296,4.00e-01,-9.60e-01,
297,4.00e-01,-9.60e-01,
298,6.00e-01,-9.20e-01,
299,6.00e-01,-9.20e-01,
300,8.00e-01,-9.20e-01,
301,8.00e-01,-9.20e-01,
302,6.00e-01,-9.20e-01,
303,6.00e-01,-9.20e-01,
304,8.00e-01,-9.20e-01,
305,8.00e-01,-9.20e-01,
306,8.00e-01,-9.20e-01,
307,8.00e-01,-9.20e-01,
308,8.00e-01,-9.20e-01,
309,8.00e-01,-9.20e-01,
310,1.00e+00,-9.20e-01,
311,1.00e+00,-9.20e-01,
312,1.00e+00,-8.80e-01,
313,1.00e+00,-8.80e-01,
314,1.00e+00,-8.80e-01,
315,1.00e+00,-8.80e-01,
316,1.00e+00,-8.80e-01,
317,1.00e+00,-8.80e-01,
318,8.00e-01,-8.80e-01,
319,8.00e-01,-8.80e-01,
320,1.00e+00,-8.80e-01,
321,1.00e+00,-8.80e-01,
322,1.00e+00,-8.80e-01,
323,1.00e+00,-8.80e-01,
324,1.20e+00,-8.80e-01,
325,1.20e+00,-8.80e-01,
326,1.20e+00,-8.80e-01,
327,1.20e+00,-8.80e-01,
328,1.00e+00,-8.40e-01,
329,1.00e+00,-8.40e-01,
330,1.20e+00,-8.40e-01,
331,1.20e+00,-8.40e-01,
332,1.20e+00,-8.40e-01,
333,1.20e+00,-8.40e-01,
334,1.20e+00,-8.40e-01,
335,1.20e+00,-8.40e-01,
336,1.20e+00,-8.40e-01,
337,1.20e+00,-8.40e-01,
338,1.40e+00,-8.40e-01,
339,1.40e+00,-8.40e-01,
340,1.40e+00,-8.00e-01,
341,1.40e+00,-8.00e-01,
342,1.40e+00,-8.00e-01,
343,1.40e+00,-8.00e-01,
344,1.40e+00,-8.00e-01,
345,1.40e+00,-8.00e-01,
346,1.40e+00,-8.00e-01,
347,1.40e+00,-8.00e-01,
348,1.60e+00,-8.00e-01,
349,1.60e+00,-8.00e-01,
350,1.40e+00,-8.00e-01,
351,1.40e+00,-8.00e-01,
352,1.60e+00,-7.60e-01,
353,1.60e+00,-7.60e-01,
354,1.60e+00,-8.00e-01,
355,1.60e+00,-8.00e-01,
356,1.60e+00,-7.60e-01,
357,1.60e+00,-7.60e-01,
358,1.60e+00,-7.60e-01,
359,1.60e+00,-7.60e-01,
360,1.60e+00,-7.20e-01,
361,1.60e+00,-7.20e-01,
362,1.60e+00,-7.20e-01,
363,1.60e+00,-7.20e-01,
364,1.60e+00,-7.60e-01,
365,1.60e+00,-7.60e-01,
366,1.60e+00,-7.60e-01,
367,1.60e+00,-7.60e-01,
368,1.60e+00,-7.20e-01,
369,1.60e+00,-7.20e-01,
370,1.60e+00,-7.20e-01,
371,1.60e+00,-7.20e-01,
372,1.80e+00,-7.20e-01,
373,1.80e+00,-7.20e-01,
374,1.80e+00,-7.20e-01,
375,1.80e+00,-7.20e-01,
376,1.80e+00,-7.20e-01,
377,1.80e+00,-7.20e-01,
378,1.80e+00,-6.80e-01,
379,1.80e+00,-6.80e-01,
380,1.80e+00,-6.80e-01,
381,1.80e+00,-6.80e-01,
382,1.80e+00,-6.80e-01,
383,1.80e+00,-6.80e-01,
384,1.80e+00,-6.80e-01,
385,1.80e+00,-6.80e-01,
386,1.80e+00,-6.80e-01,
387,1.80e+00,-6.80e-01,
388,1.80e+00,-6.80e-01,
389,1.80e+00,-6.80e-01,
390,1.80e+00,-6.80e-01,
391,1.80e+00,-6.80e-01,
392,1.80e+00,-6.40e-01,
393,1.80e+00,-6.40e-01,
394,1.80e+00,-6.80e-01,
395,1.80e+00,-6.80e-01,
396,1.80e+00,-6.80e-01,
397,1.80e+00,-6.80e-01,
398,1.80e+00,-6.40e-01,
399,1.80e+00,-6.40e-01,
400,1.80e+00,-6.40e-01,
401,1.80e+00,-6.40e-01,
402,1.80e+00,-6.00e-01,
403,1.80e+00,-6.00e-01,
404,2.00e+00,-6.00e-01,
405,2.00e+00,-6.00e-01,
406,2.00e+00,-6.00e-01,
407,2.00e+00,-6.00e-01,
408,1.80e+00,-6.00e-01,
409,1.80e+00,-6.00e-01,
410,1.80e+00,-6.40e-01,
411,1.80e+00,-6.40e-01,
412,2.00e+00,-6.40e-01,
413,2.00e+00,-6.40e-01,
414,2.00e+00,-5.60e-01,
415,2.00e+00,-5.60e-01,
416,1.80e+00,-5.60e-01,
417,1.80e+00,-5.60e-01,
418,1.80e+00,-5.60e-01,
419,1.80e+00,-5.60e-01,
420,2.00e+00,-5.60e-01,
421,2.00e+00,-5.60e-01,
422,2.00e+00,-5.60e-01,
423,2.00e+00,-5.60e-01,
424,2.00e+00,-6.00e-01,
425,2.00e+00,-6.00e-01,
426,2.00e+00,-5.60e-01,
427,2.00e+00,-5.60e-01,
428,2.00e+00,-5.20e-01,
429,2.00e+00,-5.20e-01,
430,2.20e+00,-5.20e-01,
431,2.20e+00,-5.20e-01,
432,2.00e+00,-5.20e-01,
433,2.00e+00,-5.20e-01,
434,2.00e+00,-5.20e-01,
435,2.00e+00,-5.20e-01,
436,2.00e+00,-5.20e-01,
437,2.00e+00,-5.20e-01,
438,2.00e+00,-5.20e-01,
439,2.00e+00,-5.20e-01,
440,2.20e+00,-5.20e-01,
441,2.20e+00,-5.20e-01,
442,2.20e+00,-4.80e-01,
443,2.20e+00,-4.80e-01,
444,2.00e+00,-4.80e-01,
445,2.00e+00,-4.80e-01,
446,2.00e+00,-4.80e-01,
447,2.00e+00,-4.80e-01,
448,2.00e+00,-4.80e-01,
449,2.00e+00,-4.80e-01,
450,1.80e+00,-4.80e-01,
451,1.80e+00,-4.80e-01,
452,1.80e+00,-4.80e-01,
453,1.80e+00,-4.80e-01,
454,1.60e+00,-4.80e-01,
455,1.60e+00,-4.80e-01,
456,1.40e+00,-4.40e-01,
457,1.40e+00,-4.40e-01,
458,1.20e+00,-4.40e-01,
459,1.20e+00,-4.40e-01,
460,1.00e+00,-4.40e-01,
461,1.00e+00,-4.40e-01,
462,1.00e+00,-4.40e-01,
463,1.00e+00,-4.40e-01,
464,1.00e+00,-4.40e-01,
465,1.00e+00,-4.40e-01,
466,1.20e+00,-4.40e-01,
467,1.20e+00,-4.40e-01,
468,1.40e+00,-4.40e-01,
469,1.40e+00,-4.40e-01,
470,1.60e+00,-4.00e-01,
471,1.60e+00,-4.00e-01,
472,1.60e+00,-4.00e-01,
473,1.60e+00,-4.00e-01,
474,1.80e+00,-3.60e-01,
475,1.80e+00,-3.60e-01,
476,1.80e+00,-4.00e-01,
477,1.80e+00,-4.00e-01,
478,2.00e+00,-3.60e-01,
479,2.00e+00,-3.60e-01,
480,2.00e+00,-4.00e-01,
481,2.00e+00,-4.00e-01,
482,2.00e+00,-3.60e-01,
483,2.00e+00,-3.60e-01,
484,2.00e+00,-3.60e-01,
485,2.00e+00,-3.60e-01,
486,2.00e+00,-3.60e-01,
487,2.00e+00,-3.60e-01,
488,1.80e+00,-3.60e-01,
489,1.80e+00,-3.60e-01,
490,2.00e+00,-3.20e-01,
491,2.00e+00,-3.20e-01,
492,2.00e+00,-3.60e-01,
493,2.00e+00,-3.60e-01,
494,2.20e+00,-3.60e-01,
495,2.20e+00,-3.60e-01,
496,2.20e+00,-3.60e-01,
497,2.20e+00,-3.60e-01,
498,2.20e+00,-3.20e-01,
499,2.20e+00,-3.20e-01,
500,2.20e+00,-3.20e-01,
501,2.20e+00,-3.20e-01,
502,2.20e+00,-3.20e-01,
503,2.20e+00,-3.20e-01,
504,2.20e+00,-3.20e-01,
505,2.20e+00,-3.20e-01,
506,2.20e+00,-2.80e-01,
507,2.20e+00,-2.80e-01,
508,2.20e+00,-2.80e-01,
509,2.20e+00,-2.80e-01,
510,2.20e+00,-3.20e-01,
511,2.20e+00,-3.20e-01,
512,2.20e+00,-3.20e-01,
513,2.20e+00,-3.20e-01,
514,2.20e+00,-2.80e-01,
515,2.20e+00,-2.80e-01,
516,2.20e+00,-2.40e-01,
517,2.20e+00,-2.40e-01,
518,2.00e+00,-2.80e-01,
519,2.00e+00,-2.80e-01,
520,1.80e+00,-2.80e-01,
521,1.80e+00,-2.80e-01,
522,1.60e+00,-2.80e-01,
523,1.60e+00,-2.80e-01,
524,1.20e+00,-2.40e-01,
525,1.20e+00,-2.40e-01,
526,6.00e-01,-2.40e-01,
527,6.00e-01,-2.40e-01,
528,0.00e+00,-2.40e-01,
529,0.00e+00,-2.40e-01,
530,-6.00e-01,-2.00e-01,
531,-6.00e-01,-2.00e-01,
532,-1.20e+00,-2.40e-01,
533,-1.20e+00,-2.40e-01,
534,-1.20e+00,-2.40e-01,
535,-1.20e+00,-2.40e-01,
536,-1.20e+00,-2.00e-01,
537,-1.20e+00,-2.00e-01,
538,-6.00e-01,-2.40e-01,
539,-6.00e-01,-2.40e-01,
540,-2.00e-01,-2.00e-01,
541,-2.00e-01,-2.00e-01,
542,2.00e-01,-2.00e-01,
543,2.00e-01,-2.00e-01,
544,8.00e-01,-2.00e-01,
545,8.00e-01,-2.00e-01,
546,1.20e+00,-1.60e-01,
547,1.20e+00,-1.60e-01,
548,1.40e+00,-1.60e-01,
549,1.40e+00,-1.60e-01,
550,2.00e+00,-1.60e-01,
551,2.00e+00,-1.60e-01,
552,2.00e+00,-1.60e-01,
553,2.00e+00,-1.60e-01,
554,2.20e+00,-1.60e-01,
555,2.20e+00,-1.60e-01,
556,2.20e+00,-1.60e-01,
557,2.20e+00,-1.60e-01,
558,2.40e+00,-1.20e-01,
559,2.40e+00,-1.20e-01,
560,2.40e+00,-1.20e-01,
561,2.40e+00,-1.20e-01,
562,2.40e+00,-1.60e-01,
563,2.40e+00,-1.60e-01,
564,2.40e+00,-1.60e-01,
565,2.40e+00,-1.60e-01,
566,2.40e+00,-1.60e-01,
567,2.40e+00,-1.60e-01,
568,2.40e+00,-1.20e-01,
569,2.40e+00,-1.20e-01,
570,2.60e+00,-8.00e-02,
571,2.60e+00,-8.00e-02,
572,2.40e+00,-8.00e-02,
573,2.40e+00,-8.00e-02,
574,2.60e+00,-8.00e-02,
575,2.60e+00,-8.00e-02,
576,2.40e+00,-8.00e-02,
577,2.40e+00,-8.00e-02,
578,2.40e+00,-8.00e-02,
579,2.40e+00,-8.00e-02,
580,2.60e+00,-8.00e-02,
581,2.60e+00,-8.00e-02,
582,2.40e+00,-8.00e-02,
583,2.40e+00,-8.00e-02,
584,2.60e+00,-8.00e-02,
585,2.60e+00,-8.00e-02,
586,2.40e+00,-4.00e-02,
587,2.40e+00,-4.00e-02,
588,2.40e+00,-4.00e-02,
589,2.40e+00,-4.00e-02,
590,2.20e+00,-4.00e-02,
591,2.20e+00,-4.00e-02,
592,2.20e+00,-4.00e-02,
593,2.20e+00,-4.00e-02,
594,2.20e+00,-4.00e-02,
595,2.20e+00,-4.00e-02,
596,2.00e+00,-4.00e-02,
597,2.00e+00,-4.00e-02,
598,1.80e+00,-4.00e-02,
599,1.80e+00,-4.00e-02,
600,1.60e+00,0.00e+00,
601,1.60e+00,0.00e+00,
602,1.00e+00,0.00e+00,
603,1.00e+00,0.00e+00,
604,6.00e-01,0.00e+00,
605,6.00e-01,0.00e+00,
606,-6.00e-01,0.00e+00,
607,-6.00e-01,0.00e+00,
608,-1.00e+00,0.00e+00,
609,-1.00e+00,0.00e+00,
610,-1.80e+00,0.00e+00,
611,-1.80e+00,0.00e+00,
612,-2.20e+00,0.00e+00,
613,-2.20e+00,0.00e+00,
614,-2.60e+00,4.00e-02,
615,-2.60e+00,4.00e-02,
616,-2.40e+00,4.00e-02,
617,-2.40e+00,4.00e-02,
618,-2.20e+00,4.00e-02,
619,-2.20e+00,4.00e-02,
620,-2.00e+00,4.00e-02,
621,-2.00e+00,4.00e-02,
622,-1.60e+00,4.00e-02,
623,-1.60e+00,4.00e-02,
624,-1.00e+00,4.00e-02,
625,-1.00e+00,4.00e-02,
626,-6.00e-01,4.00e-02,
627,-6.00e-01,4.00e-02,
628,2.00e-01,4.00e-02,
629,2.00e-01,4.00e-02,
630,8.00e-01,8.00e-02,
631,8.00e-01,8.00e-02,
632,1.00e+00,8.00e-02,
633,1.00e+00,8.00e-02,
634,1.20e+00,8.00e-02,
635,1.20e+00,8.00e-02,
636,1.20e+00,8.00e-02,
637,1.20e+00,8.00e-02,
638,1.40e+00,8.00e-02,
639,1.40e+00,8.00e-02,
640,1.60e+00,8.00e-02,
641,1.60e+00,8.00e-02,
642,1.80e+00,1.20e-01,
643,1.80e+00,1.20e-01,
644,2.20e+00,1.60e-01,
645,2.20e+00,1.60e-01,
646,2.40e+00,1.20e-01,
647,2.40e+00,1.20e-01,
648,2.60e+00,1.60e-01,
649,2.60e+00,1.60e-01,
650,2.80e+00,1.60e-01,
651,2.80e+00,1.60e-01,
652,2.60e+00,1.20e-01,
653,2.60e+00,1.20e-01,
654,2.60e+00,1.20e-01,
655,2.60e+00,1.20e-01,
656,2.40e+00,1.60e-01,
657,2.40e+00,1.60e-01,
658,2.20e+00,1.60e-01,
659,2.20e+00,1.60e-01,
660,2.20e+00,1.60e-01,
661,2.20e+00,1.60e-01,
662,2.20e+00,1.60e-01,
663,2.20e+00,1.60e-01,
664,2.20e+00,1.60e-01,
665,2.20e+00,1.60e-01,
666,2.20e+00,1.60e-01,
667,2.20e+00,1.60e-01,
668,2.40e+00,2.00e-01,
669,2.40e+00,2.00e-01,
670,2.80e+00,2.00e-01,
671,2.80e+00,2.00e-01,
672,3.00e+00,2.40e-01,
673,3.00e+00,2.40e-01,
674,3.00e+00,2.00e-01,
675,3.00e+00,2.00e-01,
676,3.20e+00,2.40e-01,
677,3.20e+00,2.40e-01,
678,3.00e+00,2.40e-01,
679,3.00e+00,2.40e-01,
680,3.00e+00,2.00e-01,
681,3.00e+00,2.00e-01,
682,3.20e+00,2.00e-01,
683,3.20e+00,2.00e-01,
684,3.20e+00,2.40e-01,
685,3.20e+00,2.40e-01,
686,3.00e+00,2.40e-01,
687,3.00e+00,2.40e-01,
688,3.00e+00,2.40e-01,
689,3.00e+00,2.40e-01,
690,3.00e+00,2.80e-01,
691,3.00e+00,2.80e-01,
692,3.00e+00,2.40e-01,
693,3.00e+00,2.40e-01,
694,3.00e+00,2.40e-01,
695,3.00e+00,2.40e-01,
696,2.80e+00,2.40e-01,
697,2.80e+00,2.40e-01,
698,2.80e+00,2.80e-01,
699,2.80e+00,2.80e-01,
700,2.80e+00,2.80e-01,
701,2.80e+00,2.80e-01,
702,3.00e+00,2.80e-01,
703,3.00e+00,2.80e-01,
704,3.00e+00,2.80e-01,
705,3.00e+00,2.80e-01,
706,2.80e+00,2.80e-01,
707,2.80e+00,2.80e-01,
708,2.80e+00,3.20e-01,
709,2.80e+00,3.20e-01,
710,2.80e+00,3.20e-01,
711,2.80e+00,3.20e-01,
712,2.60e+00,3.20e-01,
713,2.60e+00,3.20e-01,
714,2.80e+00,3.20e-01,
715,2.80e+00,3.20e-01,
716,2.60e+00,3.60e-01,
717,2.60e+00,3.60e-01,
718,2.80e+00,3.60e-01,
719,2.80e+00,3.60e-01,
720,2.80e+00,3.60e-01,
721,2.80e+00,3.60e-01,
722,2.60e+00,3.60e-01,
723,2.60e+00,3.60e-01,
724,2.60e+00,3.60e-01,
725,2.60e+00,3.60e-01,
726,2.60e+00,3.60e-01,
727,2.60e+00,3.60e-01,
728,2.60e+00,4.00e-01,
729,2.60e+00,4.00e-01,
730,2.40e+00,4.00e-01,
731,2.40e+00,4.00e-01,
732,2.60e+00,4.00e-01,
733,2.60e+00,4.00e-01,
734,2.60e+00,4.00e-01,
735,2.60e+00,4.00e-01,
736,2.60e+00,4.00e-01,
737,2.60e+00,4.00e-01,
738,2.40e+00,4.00e-01,
739,2.40e+00,4.00e-01,
740,2.40e+00,4.00e-01,
741,2.40e+00,4.00e-01,
742,2.40e+00,4.00e-01,
743,2.40e+00,4.00e-01,
744,2.40e+00,4.40e-01,
745,2.40e+00,4.40e-01,
746,2.40e+00,4.40e-01,
747,2.40e+00,4.40e-01,
748,2.40e+00,4.40e-01,
749,2.40e+00,4.40e-01,
750,2.40e+00,4.40e-01,
751,2.40e+00,4.40e-01,
752,2.40e+00,4.40e-01,
753,2.40e+00,4.40e-01,
754,2.40e+00,4.40e-01,
755,2.40e+00,4.40e-01,
756,2.40e+00,4.40e-01,
757,2.40e+00,4.40e-01,
758,2.40e+00,4.40e-01,
759,2.40e+00,4.40e-01,
760,2.20e+00,4.80e-01,
761,2.20e+00,4.80e-01,
762,2.20e+00,4.80e-01,
763,2.20e+00,4.80e-01,
764,2.20e+00,4.80e-01,
765,2.20e+00,4.80e-01,
766,2.20e+00,4.80e-01,
767,2.20e+00,4.80e-01,
768,2.40e+00,4.80e-01,
769,2.40e+00,4.80e-01,
770,2.20e+00,4.80e-01,
771,2.20e+00,4.80e-01,
772,2.20e+00,5.20e-01,
773,2.20e+00,5.20e-01,
774,2.20e+00,5.20e-01,
775,2.20e+00,5.20e-01,
776,2.20e+00,5.20e-01,
777,2.20e+00,5.20e-01,
778,2.20e+00,5.20e-01,
779,2.20e+00,5.20e-01,
780,2.20e+00,5.20e-01,
781,2.20e+00,5.20e-01,
782,2.00e+00,5.20e-01,
783,2.00e+00,5.20e-01,
784,2.00e+00,5.60e-01,
785,2.00e+00,5.60e-01,
786,2.20e+00,5.60e-01,
787,2.20e+00,5.60e-01,
788,2.00e+00,5.60e-01,
789,2.00e+00,5.60e-01,
790,2.00e+00,5.60e-01,
791,2.00e+00,5.60e-01,
792,2.00e+00,5.60e-01,
793,2.00e+00,5.60e-01,
794,2.00e+00,5.60e-01,
795,2.00e+00,5.60e-01,
796,2.00e+00,5.60e-01,
797,2.00e+00,5.60e-01,
798,2.00e+00,5.60e-01,
799,2.00e+00,5.60e-01,
800,2.00e+00,6.00e-01,
801,2.00e+00,6.00e-01,
802,1.80e+00,6.40e-01,
803,1.80e+00,6.40e-01,
804,2.00e+00,6.40e-01,
805,2.00e+00,6.40e-01,
806,1.80e+00,6.40e-01,
807,1.80e+00,6.40e-01,
808,1.80e+00,6.00e-01,
809,1.80e+00,6.00e-01,
810,1.80e+00,6.40e-01,
811,1.80e+00,6.40e-01,
812,1.80e+00,6.40e-01,
813,1.80e+00,6.40e-01,
814,1.80e+00,6.40e-01,
815,1.80e+00,6.40e-01,
816,1.80e+00,6.80e-01,
817,1.80e+00,6.80e-01,
818,1.80e+00,6.80e-01,
819,1.80e+00,6.80e-01,
820,1.80e+00,6.80e-01,
821,1.80e+00,6.80e-01,
822,1.80e+00,6.80e-01,
823,1.80e+00,6.80e-01,
824,1.80e+00,6.40e-01,
825,1.80e+00,6.40e-01,
826,1.80e+00,6.80e-01,
827,1.80e+00,6.80e-01,
828,1.80e+00,6.80e-01,
829,1.80e+00,6.80e-01,
830,1.80e+00,6.80e-01,
831,1.80e+00,6.80e-01,
832,1.80e+00,7.20e-01,
833,1.80e+00,7.20e-01,
834,1.80e+00,7.20e-01,
835,1.80e+00,7.20e-01,
836,1.60e+00,7.20e-01,
837,1.60e+00,7.20e-01,
838,1.80e+00,7.20e-01,
