Optical Pumping/Data_old/57etalon.csv

X,CH1,CH2,Start,Increment,
Sequence,Volt,Volt,-1.228000e-03,2.000000e-06
0,-3.00e-01,-4.60e-01,
1,-3.80e-01,-5.20e-01,
2,-3.40e-01,-5.20e-01,
3,-4.00e-01,-4.40e-01,
4,-3.60e-01,-4.60e-01,
5,-4.20e-01,-5.20e-01,
6,-3.60e-01,-5.20e-01,
7,-4.40e-01,-4.60e-01,
8,-3.80e-01,-4.60e-01,
9,-4.40e-01,-5.20e-01,
10,-4.00e-01,-5.00e-01,
11,-4.60e-01,-4.40e-01,
12,-4.00e-01,-5.00e-01,
13,-4.60e-01,-4.40e-01,
14,-4.60e-01,-5.00e-01,
15,-4.00e-01,-4.40e-01,
16,-4.60e-01,-4.40e-01,
17,-4.00e-01,-5.00e-01,
18,-4.20e-01,-4.40e-01,
19,-4.80e-01,-5.00e-01,
20,-4.20e-01,-4.40e-01,
21,-4.80e-01,-5.00e-01,
22,-4.40e-01,-4.40e-01,
23,-5.00e-01,-5.00e-01,
24,-4.40e-01,-4.40e-01,
25,-5.00e-01,-5.00e-01,
26,-4.40e-01,-4.40e-01,
27,-5.00e-01,-5.00e-01,
28,-5.00e-01,-5.00e-01,
29,-4.40e-01,-4.20e-01,
30,-5.00e-01,-4.40e-01,
31,-4.40e-01,-5.00e-01,
32,-5.00e-01,-4.40e-01,
33,-4.60e-01,-4.80e-01,
34,-4.60e-01,-5.00e-01,
35,-5.20e-01,-4.40e-01,
36,-4.60e-01,-4.80e-01,
37,-5.20e-01,-4.20e-01,
38,-5.20e-01,-4.80e-01,
39,-4.60e-01,-4.20e-01,
40,-4.60e-01,-4.80e-01,
41,-5.20e-01,-4.20e-01,
42,-5.20e-01,-4.80e-01,
43,-4.60e-01,-4.20e-01,
44,-5.20e-01,-4.80e-01,
45,-4.60e-01,-4.20e-01,
46,-5.20e-01,-4.80e-01,
47,-4.60e-01,-4.20e-01,
48,-4.80e-01,-4.80e-01,
49,-5.20e-01,-4.20e-01,
50,-5.20e-01,-4.20e-01,
51,-4.60e-01,-4.80e-01,
52,-5.20e-01,-4.20e-01,
53,-4.80e-01,-4.80e-01,
54,-4.80e-01,-4.20e-01,
55,-5.40e-01,-4.80e-01,
56,-4.80e-01,-4.80e-01,
57,-5.40e-01,-4.20e-01,
58,-4.80e-01,-4.20e-01,
59,-5.40e-01,-4.80e-01,
60,-5.40e-01,-4.60e-01,
61,-4.80e-01,-4.20e-01,
62,-4.80e-01,-4.80e-01,
63,-5.40e-01,-4.00e-01,
64,-4.80e-01,-4.60e-01,
65,-5.40e-01,-4.00e-01,
66,-4.80e-01,-4.00e-01,
67,-5.40e-01,-4.80e-01,
68,-5.40e-01,-4.60e-01,
69,-4.80e-01,-4.00e-01,
70,-5.40e-01,-4.60e-01,
71,-4.80e-01,-4.00e-01,
72,-5.40e-01,-4.60e-01,
73,-4.80e-01,-4.00e-01,
74,-4.80e-01,-4.00e-01,
75,-5.40e-01,-4.60e-01,
76,-5.40e-01,-4.00e-01,
77,-4.80e-01,-4.60e-01,
78,-5.40e-01,-4.00e-01,
79,-4.80e-01,-4.60e-01,
80,-5.40e-01,-4.00e-01,
81,-4.80e-01,-4.60e-01,
82,-4.80e-01,-4.00e-01,
83,-5.40e-01,-4.60e-01,
84,-5.40e-01,-3.80e-01,
85,-4.80e-01,-4.60e-01,
86,-5.40e-01,-4.40e-01,
87,-4.80e-01,-3.80e-01,
88,-5.40e-01,-4.40e-01,
89,-4.80e-01,-3.80e-01,
90,-5.40e-01,-4.40e-01,
91,-4.80e-01,-3.80e-01,
92,-4.80e-01,-3.80e-01,
93,-5.40e-01,-4.40e-01,
94,-5.40e-01,-4.40e-01,
95,-4.80e-01,-3.80e-01,
96,-4.80e-01,-3.80e-01,
97,-5.40e-01,-4.40e-01,
98,-5.40e-01,-3.80e-01,
99,-4.80e-01,-4.40e-01,
100,-4.80e-01,-3.80e-01,
101,-5.40e-01,-4.40e-01,
102,-5.40e-01,-3.80e-01,
103,-4.80e-01,-4.40e-01,
104,-5.40e-01,-3.80e-01,
105,-4.80e-01,-4.40e-01,
106,-5.40e-01,-3.80e-01,
107,-4.80e-01,-4.40e-01,
108,-5.40e-01,-3.80e-01,
109,-4.80e-01,-4.40e-01,
110,-5.40e-01,-4.20e-01,
111,-4.80e-01,-3.60e-01,
112,-5.40e-01,-4.20e-01,
113,-4.80e-01,-3.60e-01,
114,-5.40e-01,-4.20e-01,
115,-4.80e-01,-3.60e-01,
116,-4.80e-01,-3.60e-01,
117,-5.40e-01,-4.20e-01,
118,-5.40e-01,-3.60e-01,
119,-4.80e-01,-4.20e-01,
120,-5.40e-01,-3.60e-01,
121,-4.80e-01,-4.20e-01,
122,-4.80e-01,-4.20e-01,
123,-5.40e-01,-3.60e-01,
124,-4.80e-01,-3.60e-01,
125,-5.40e-01,-4.20e-01,
126,-5.40e-01,-3.60e-01,
127,-4.80e-01,-4.20e-01,
128,-5.40e-01,-3.60e-01,
129,-4.80e-01,-4.20e-01,
130,-5.40e-01,-3.60e-01,
131,-4.80e-01,-4.20e-01,
132,-4.80e-01,-4.20e-01,
133,-5.40e-01,-3.40e-01,
134,-4.80e-01,-4.00e-01,
135,-5.40e-01,-3.60e-01,
136,-4.80e-01,-4.00e-01,
137,-5.40e-01,-3.40e-01,
138,-4.80e-01,-4.00e-01,
139,-5.40e-01,-3.40e-01,
140,-5.40e-01,-4.00e-01,
141,-4.80e-01,-3.40e-01,
142,-4.80e-01,-4.00e-01,
143,-5.40e-01,-3.40e-01,
144,-4.80e-01,-4.00e-01,
145,-5.40e-01,-3.40e-01,
146,-5.40e-01,-4.00e-01,
147,-4.80e-01,-3.40e-01,
148,-5.40e-01,-4.00e-01,
149,-4.80e-01,-3.40e-01,
150,-4.80e-01,-4.00e-01,
151,-5.40e-01,-3.40e-01,
152,-5.40e-01,-3.40e-01,
153,-4.80e-01,-4.00e-01,
154,-5.40e-01,-3.40e-01,
155,-4.80e-01,-4.00e-01,
156,-5.40e-01,-3.40e-01,
157,-4.80e-01,-4.00e-01,
158,-4.80e-01,-3.40e-01,
159,-5.40e-01,-4.00e-01,
160,-4.80e-01,-3.80e-01,
161,-5.40e-01,-3.40e-01,
162,-5.40e-01,-3.40e-01,
163,-4.80e-01,-4.00e-01,
164,-5.40e-01,-3.80e-01,
165,-4.80e-01,-3.40e-01,
166,-4.80e-01,-3.80e-01,
167,-5.40e-01,-3.20e-01,
168,-5.40e-01,-3.80e-01,
169,-4.80e-01,-3.20e-01,
170,-5.40e-01,-3.80e-01,
171,-4.80e-01,-3.20e-01,
172,-4.80e-01,-3.20e-01,
173,-5.40e-01,-3.80e-01,
174,-5.40e-01,-3.20e-01,
175,-4.80e-01,-3.80e-01,
176,-5.40e-01,-3.80e-01,
177,-4.80e-01,-3.20e-01,
178,-4.80e-01,-3.20e-01,
179,-5.40e-01,-3.80e-01,
180,-4.80e-01,-3.20e-01,
181,-5.40e-01,-3.80e-01,
182,-5.40e-01,-3.20e-01,
183,-4.80e-01,-3.80e-01,
184,-5.40e-01,-3.20e-01,
185,-4.80e-01,-3.60e-01,
186,-4.80e-01,-3.60e-01,
187,-5.40e-01,-3.00e-01,
188,-5.40e-01,-3.60e-01,
189,-4.80e-01,-3.00e-01,
190,-4.80e-01,-3.60e-01,
191,-5.40e-01,-3.00e-01,
192,-4.80e-01,-3.60e-01,
193,-5.40e-01,-3.00e-01,
194,-5.40e-01,-3.60e-01,
195,-4.80e-01,-3.00e-01,
196,-4.80e-01,-3.00e-01,
197,-5.40e-01,-3.60e-01,
198,-5.40e-01,-3.00e-01,
199,-4.80e-01,-3.60e-01,
200,-4.80e-01,-3.00e-01,
201,-5.40e-01,-3.60e-01,
202,-5.40e-01,-3.60e-01,
203,-4.80e-01,-3.00e-01,
204,-5.40e-01,-3.00e-01,
205,-4.80e-01,-3.60e-01,
206,-5.40e-01,-3.60e-01,
207,-4.80e-01,-3.00e-01,
208,-5.40e-01,-3.00e-01,
209,-4.80e-01,-3.60e-01,
210,-5.40e-01,-3.00e-01,
211,-4.80e-01,-3.60e-01,
212,-4.80e-01,-3.60e-01,
213,-5.40e-01,-2.80e-01,
214,-5.40e-01,-3.40e-01,
215,-4.80e-01,-2.80e-01,
216,-5.40e-01,-3.00e-01,
217,-4.80e-01,-3.60e-01,
218,-4.80e-01,-3.40e-01,
219,-5.40e-01,-2.80e-01,
220,-4.80e-01,-3.40e-01,
221,-5.40e-01,-2.80e-01,
222,-5.40e-01,-3.40e-01,
223,-4.80e-01,-2.80e-01,
224,-5.40e-01,-2.80e-01,
225,-4.80e-01,-3.40e-01,
226,-4.80e-01,-2.80e-01,
227,-5.40e-01,-3.40e-01,
228,-5.40e-01,-2.80e-01,
229,-4.80e-01,-3.40e-01,
230,-5.40e-01,-2.80e-01,
231,-4.80e-01,-3.40e-01,
232,-5.40e-01,-2.80e-01,
233,-4.80e-01,-3.40e-01,
234,-4.80e-01,-2.80e-01,
235,-5.40e-01,-3.20e-01,
236,-4.80e-01,-2.80e-01,
237,-5.40e-01,-3.20e-01,
238,-4.80e-01,-3.20e-01,
239,-5.40e-01,-2.80e-01,
240,-4.80e-01,-3.20e-01,
241,-5.40e-01,-2.60e-01,
242,-5.40e-01,-2.60e-01,
243,-4.80e-01,-3.20e-01,
244,-4.80e-01,-2.60e-01,
245,-5.40e-01,-3.20e-01,
246,-4.80e-01,-2.60e-01,
247,-5.40e-01,-3.20e-01,
248,-5.40e-01,-2.60e-01,
249,-4.80e-01,-3.20e-01,
250,-5.40e-01,-2.60e-01,
251,-4.80e-01,-3.20e-01,
252,-5.40e-01,-2.60e-01,
253,-4.80e-01,-3.20e-01,
254,-4.80e-01,-3.20e-01,
255,-5.40e-01,-2.60e-01,
256,-4.80e-01,-2.60e-01,
257,-5.40e-01,-3.20e-01,
258,-4.80e-01,-2.60e-01,
259,-5.40e-01,-3.20e-01,
260,-4.80e-01,-2.60e-01,
261,-5.40e-01,-3.20e-01,
262,-4.80e-01,-3.00e-01,
263,-5.40e-01,-2.40e-01,
264,-4.80e-01,-2.60e-01,
265,-5.40e-01,-3.00e-01,
266,-4.80e-01,-2.20e-01,
267,-5.40e-01,-3.00e-01,
268,-5.40e-01,-3.00e-01,
269,-4.80e-01,-2.20e-01,
270,-5.40e-01,-2.40e-01,
271,-4.60e-01,-3.00e-01,
272,-4.80e-01,-3.00e-01,
273,-5.40e-01,-2.20e-01,
274,-4.80e-01,-3.00e-01,
275,-5.40e-01,-2.20e-01,
276,-4.80e-01,-2.20e-01,
277,-5.40e-01,-3.00e-01,
278,-4.80e-01,-2.20e-01,
279,-5.40e-01,-3.00e-01,
280,-4.80e-01,-3.00e-01,
281,-5.40e-01,-2.20e-01,
282,-5.40e-01,-2.20e-01,
283,-4.60e-01,-3.00e-01,
284,-4.80e-01,-2.80e-01,
285,-5.40e-01,-2.20e-01,
286,-5.40e-01,-2.20e-01,
287,-4.60e-01,-2.80e-01,
288,-4.80e-01,-2.20e-01,
289,-5.40e-01,-2.80e-01,
290,-5.40e-01,-2.80e-01,
291,-4.60e-01,-2.20e-01,
292,-5.20e-01,-2.20e-01,
293,-4.60e-01,-2.60e-01,
294,-5.20e-01,-2.60e-01,
295,-4.60e-01,-2.00e-01,
296,-5.20e-01,-2.60e-01,
297,-4.60e-01,-2.00e-01,
298,-5.20e-01,-2.60e-01,
299,-4.80e-01,-2.00e-01,
300,-5.20e-01,-2.60e-01,
301,-4.80e-01,-2.00e-01,
302,-4.60e-01,-2.60e-01,
303,-5.40e-01,-2.00e-01,
304,-4.80e-01,-2.60e-01,
305,-5.40e-01,-2.00e-01,
306,-5.20e-01,-2.00e-01,
307,-4.60e-01,-2.60e-01,
308,-5.20e-01,-2.00e-01,
309,-4.60e-01,-2.60e-01,
310,-5.20e-01,-2.00e-01,
311,-4.60e-01,-2.60e-01,
312,-5.20e-01,-2.00e-01,
313,-4.80e-01,-2.60e-01,
314,-5.40e-01,-2.40e-01,
315,-4.60e-01,-2.00e-01,
316,-4.80e-01,-2.00e-01,
317,-5.40e-01,-2.60e-01,
318,-4.80e-01,-2.00e-01,
319,-5.40e-01,-2.60e-01,
320,-4.80e-01,-2.40e-01,
321,-5.40e-01,-2.00e-01,
322,-4.80e-01,-2.40e-01,
323,-5.40e-01,-1.80e-01,
324,-4.80e-01,-2.40e-01,
325,-5.40e-01,-2.00e-01,
326,-4.80e-01,-2.40e-01,
327,-5.40e-01,-1.80e-01,
328,-4.80e-01,-2.40e-01,
329,-5.40e-01,-1.80e-01,
330,-4.80e-01,-2.40e-01,
331,-5.40e-01,-1.80e-01,
332,-5.40e-01,-2.40e-01,
333,-4.60e-01,-1.80e-01,
334,-4.80e-01,-2.40e-01,
335,-5.40e-01,-1.80e-01,
336,-4.80e-01,-1.80e-01,
337,-5.40e-01,-2.40e-01,
338,-4.80e-01,-2.40e-01,
339,-5.40e-01,-1.80e-01,
340,-4.80e-01,-1.80e-01,
341,-5.40e-01,-2.40e-01,
342,-4.80e-01,-1.80e-01,
343,-5.40e-01,-2.40e-01,
344,-5.20e-01,-2.20e-01,
345,-4.60e-01,-1.80e-01,
346,-5.20e-01,-2.20e-01,
347,-4.60e-01,-1.80e-01,
348,-5.20e-01,-2.20e-01,
349,-4.60e-01,-1.60e-01,
350,-4.60e-01,-2.20e-01,
351,-5.40e-01,-1.80e-01,
352,-5.20e-01,-2.20e-01,
353,-4.60e-01,-1.60e-01,
354,-4.80e-01,-2.20e-01,
355,-5.40e-01,-1.80e-01,
356,-4.80e-01,-2.20e-01,
357,-5.40e-01,-1.60e-01,
358,-5.20e-01,-1.60e-01,
359,-4.60e-01,-2.20e-01,
360,-4.60e-01,-2.20e-01,
361,-5.40e-01,-1.60e-01,
362,-5.20e-01,-2.20e-01,
363,-4.80e-01,-1.60e-01,
364,-5.20e-01,-1.60e-01,
365,-4.60e-01,-2.20e-01,
366,-5.20e-01,-1.60e-01,
367,-4.60e-01,-2.20e-01,
368,-5.20e-01,-1.60e-01,
369,-4.60e-01,-2.20e-01,
370,-5.20e-01,-2.20e-01,
371,-4.60e-01,-1.40e-01,
372,-5.20e-01,-2.00e-01,
373,-4.60e-01,-1.60e-01,
374,-4.60e-01,-2.00e-01,
375,-5.20e-01,-1.40e-01,
376,-5.20e-01,-2.00e-01,
377,-4.60e-01,-1.40e-01,
378,-4.60e-01,-2.00e-01,
379,-5.20e-01,-1.40e-01,
380,-5.20e-01,-2.00e-01,
381,-4.60e-01,-1.40e-01,
382,-5.20e-01,-2.00e-01,
383,-4.60e-01,-1.40e-01,
384,-5.20e-01,-2.00e-01,
385,-4.60e-01,-1.40e-01,
386,-5.20e-01,-2.00e-01,
387,-4.60e-01,-1.40e-01,
388,-5.20e-01,-1.40e-01,
389,-4.60e-01,-2.00e-01,
390,-5.20e-01,-2.00e-01,
391,-4.60e-01,-1.40e-01,
392,-4.60e-01,-1.40e-01,
393,-5.20e-01,-2.00e-01,
394,-5.20e-01,-1.40e-01,
395,-4.60e-01,-1.80e-01,
396,-4.60e-01,-1.80e-01,
397,-5.20e-01,-1.40e-01,
398,-4.60e-01,-1.80e-01,
399,-5.20e-01,-1.20e-01,
400,-4.60e-01,-1.80e-01,
401,-5.20e-01,-1.20e-01,
402,-4.60e-01,-1.80e-01,
403,-5.20e-01,-1.20e-01,
404,-5.20e-01,-1.20e-01,
405,-4.60e-01,-1.80e-01,
406,-5.20e-01,-1.20e-01,
407,-4.60e-01,-1.80e-01,
408,-4.60e-01,-1.80e-01,
409,-5.20e-01,-1.20e-01,
410,-4.60e-01,-1.20e-01,
411,-5.20e-01,-1.80e-01,
412,-5.20e-01,-1.20e-01,
413,-4.60e-01,-1.80e-01,
414,-5.20e-01,-1.20e-01,
415,-4.60e-01,-1.80e-01,
416,-5.20e-01,-1.20e-01,
417,-4.60e-01,-1.80e-01,
418,-5.00e-01,-1.60e-01,
419,-4.60e-01,-1.00e-01,
420,-4.60e-01,-1.60e-01,
421,-5.20e-01,-1.20e-01,
422,-4.40e-01,-1.60e-01,
423,-5.20e-01,-1.00e-01,
424,-4.60e-01,-1.60e-01,
425,-5.20e-01,-1.00e-01,
426,-5.00e-01,-1.60e-01,
427,-4.60e-01,-1.00e-01,
428,-4.60e-01,-1.00e-01,
429,-5.20e-01,-1.60e-01,
430,-4.60e-01,-1.60e-01,
431,-5.00e-01,-1.00e-01,
432,-5.00e-01,-1.00e-01,
433,-4.60e-01,-1.60e-01,
434,-4.60e-01,-1.00e-01,
435,-5.20e-01,-1.60e-01,
436,-5.00e-01,-1.00e-01,
437,-4.60e-01,-1.60e-01,
438,-5.00e-01,-1.00e-01,
439,-4.40e-01,-1.60e-01,
440,-5.00e-01,-1.00e-01,
441,-4.40e-01,-1.60e-01,
442,-5.00e-01,-1.00e-01,
443,-4.40e-01,-1.60e-01,
444,-5.00e-01,-1.40e-01,
445,-4.40e-01,-1.00e-01,
446,-5.00e-01,-1.40e-01,
447,-4.40e-01,-1.00e-01,
448,-5.00e-01,-1.40e-01,
449,-4.40e-01,-1.00e-01,
450,-4.40e-01,-1.40e-01,
451,-5.00e-01,-8.00e-02,
452,-5.00e-01,-1.40e-01,
453,-4.40e-01,-8.00e-02,
454,-4.40e-01,-1.40e-01,
455,-5.00e-01,-8.00e-02,
456,-5.00e-01,-1.40e-01,
457,-4.40e-01,-8.00e-02,
458,-5.00e-01,-8.00e-02,
459,-4.20e-01,-1.40e-01,
460,-4.80e-01,-8.00e-02,
461,-4.20e-01,-1.40e-01,
462,-4.80e-01,-8.00e-02,
463,-4.20e-01,-1.40e-01,
464,-4.80e-01,-8.00e-02,
465,-4.20e-01,-1.40e-01,
466,-4.20e-01,-8.00e-02,
467,-4.80e-01,-1.20e-01,
468,-4.20e-01,-8.00e-02,
469,-4.80e-01,-1.20e-01,
470,-4.20e-01,-8.00e-02,
471,-4.80e-01,-1.40e-01,
472,-4.20e-01,-8.00e-02,
473,-4.60e-01,-1.20e-01,
474,-4.60e-01,-1.20e-01,
475,-4.00e-01,-6.00e-02,
476,-4.00e-01,-1.20e-01,
477,-4.60e-01,-6.00e-02,
478,-4.00e-01,-1.20e-01,
479,-4.60e-01,-6.00e-02,
480,-4.00e-01,-1.20e-01,
481,-4.60e-01,-6.00e-02,
482,-4.40e-01,-1.20e-01,
483,-4.00e-01,-6.00e-02,
484,-4.40e-01,-6.00e-02,
485,-3.80e-01,-1.20e-01,
486,-4.40e-01,-1.20e-01,
487,-3.80e-01,-6.00e-02,
488,-3.80e-01,-6.00e-02,
489,-4.40e-01,-1.20e-01,
490,-4.20e-01,-6.00e-02,
491,-3.60e-01,-1.20e-01,
492,-3.60e-01,-6.00e-02,
493,-4.20e-01,-1.00e-01,
494,-3.60e-01,-6.00e-02,
495,-4.20e-01,-1.20e-01,
496,-4.00e-01,-1.00e-01,
497,-3.40e-01,-4.00e-02,
498,-4.00e-01,-1.00e-01,
499,-3.20e-01,-4.00e-02,
500,-3.40e-01,-1.00e-01,
501,-4.00e-01,-4.00e-02,
502,-3.80e-01,-1.00e-01,
503,-3.20e-01,-4.00e-02,
504,-3.80e-01,-1.00e-01,
505,-3.00e-01,-4.00e-02,
506,-3.80e-01,-1.00e-01,
507,-3.00e-01,-4.00e-02,
508,-3.00e-01,-1.00e-01,
509,-3.80e-01,-4.00e-02,
510,-3.40e-01,-1.00e-01,
511,-3.00e-01,-4.00e-02,
512,-3.40e-01,-1.00e-01,
513,-2.80e-01,-4.00e-02,
514,-2.80e-01,-4.00e-02,
515,-3.40e-01,-1.00e-01,
516,-3.40e-01,-4.00e-02,
517,-2.80e-01,-1.00e-01,
518,-3.40e-01,-8.00e-02,
519,-2.80e-01,-4.00e-02,
520,-3.40e-01,-4.00e-02,
521,-2.80e-01,-1.00e-01,
522,-2.80e-01,-4.00e-02,
523,-3.40e-01,-8.00e-02,
524,-3.40e-01,-8.00e-02,
525,-2.80e-01,-4.00e-02,
526,-2.80e-01,-8.00e-02,
527,-3.40e-01,-2.00e-02,
528,-2.80e-01,-8.00e-02,
529,-3.40e-01,-2.00e-02,
530,-3.20e-01,-8.00e-02,
531,-2.80e-01,-2.00e-02,
532,-3.20e-01,-8.00e-02,
533,-2.60e-01,-2.00e-02,
534,-3.20e-01,-2.00e-02,
535,-2.60e-01,-8.00e-02,
536,-3.20e-01,-2.00e-02,
537,-2.60e-01,-8.00e-02,
538,-3.20e-01,-2.00e-02,
539,-2.80e-01,-8.00e-02,
540,-3.20e-01,-2.00e-02,
541,-2.60e-01,-6.00e-02,
542,-3.20e-01,-6.00e-02,
543,-2.80e-01,-2.00e-02,
544,-3.20e-01,-2.00e-02,
545,-2.60e-01,-6.00e-02,
546,-3.20e-01,-2.00e-02,
547,-2.60e-01,-6.00e-02,
548,-3.20e-01,-6.00e-02,
549,-2.60e-01,0.00e+00,
550,-3.20e-01,-6.00e-02,
551,-2.60e-01,0.00e+00,
552,-3.20e-01,-6.00e-02,
553,-2.60e-01,0.00e+00,
554,-2.60e-01,-6.00e-02,
555,-3.20e-01,0.00e+00,
556,-2.60e-01,-6.00e-02,
557,-3.20e-01,0.00e+00,
558,-3.00e-01,-6.00e-02,
559,-2.40e-01,0.00e+00,
560,-3.00e-01,-6.00e-02,
561,-2.40e-01,0.00e+00,
562,-2.40e-01,0.00e+00,
563,-3.00e-01,-6.00e-02,
564,-3.00e-01,0.00e+00,
565,-2.40e-01,-6.00e-02,
566,-2.40e-01,0.00e+00,
567,-3.00e-01,-6.00e-02,
568,-2.80e-01,0.00e+00,
569,-2.20e-01,-4.00e-02,
570,-2.80e-01,0.00e+00,
571,-2.20e-01,-4.00e-02,
572,-2.20e-01,0.00e+00,
573,-2.80e-01,-6.00e-02,
574,-2.20e-01,0.00e+00,
575,-2.80e-01,-4.00e-02,
576,-2.60e-01,0.00e+00,
577,-2.00e-01,-4.00e-02,
578,-2.60e-01,-4.00e-02,
579,-2.00e-01,2.00e-02,
580,-2.60e-01,-4.00e-02,
581,-1.80e-01,2.00e-02,
582,-2.40e-01,-4.00e-02,
583,-1.80e-01,2.00e-02,
584,-2.40e-01,-4.00e-02,
585,-1.80e-01,2.00e-02,
586,-1.80e-01,-4.00e-02,
587,-2.20e-01,2.00e-02,
588,-2.20e-01,-4.00e-02,
589,-1.60e-01,2.00e-02,
590,-1.60e-01,-4.00e-02,
591,-2.20e-01,2.00e-02,
592,-1.60e-01,2.00e-02,
593,-2.20e-01,-4.00e-02,
594,-2.00e-01,2.00e-02,
595,-1.40e-01,-4.00e-02,
596,-2.00e-01,2.00e-02,
597,-1.40e-01,-4.00e-02,
598,-2.00e-01,2.00e-02,
599,-1.20e-01,-2.00e-02,
600,-1.20e-01,-2.00e-02,
601,-1.80e-01,4.00e-02,
602,-1.60e-01,-2.00e-02,
603,-1.00e-01,4.00e-02,
604,-1.00e-01,-2.00e-02,
605,-1.60e-01,4.00e-02,
606,-1.40e-01,2.00e-02,
607,-6.00e-02,-2.00e-02,
608,-1.40e-01,-2.00e-02,
609,-6.00e-02,4.00e-02,
610,-1.20e-01,-2.00e-02,
611,-6.00e-02,4.00e-02,
612,-1.20e-01,4.00e-02,
613,-4.00e-02,-2.00e-02,
614,-8.00e-02,-2.00e-02,
615,-2.00e-02,4.00e-02,
616,-6.00e-02,4.00e-02,
617,0.00e+00,-2.00e-02,
618,-6.00e-02,-2.00e-02,
619,0.00e+00,4.00e-02,
620,-4.00e-02,4.00e-02,
621,2.00e-02,-2.00e-02,
622,-4.00e-02,4.00e-02,
623,2.00e-02,0.00e+00,
624,-2.00e-02,4.00e-02,
625,4.00e-02,-2.00e-02,
626,4.00e-02,4.00e-02,
627,-2.00e-02,0.00e+00,
628,4.00e-02,0.00e+00,
629,0.00e+00,6.00e-02,
630,0.00e+00,0.00e+00,
631,6.00e-02,6.00e-02,
632,0.00e+00,0.00e+00,
633,6.00e-02,6.00e-02,
634,0.00e+00,4.00e-02,
635,4.00e-02,0.00e+00,
636,4.00e-02,0.00e+00,
637,-2.00e-02,6.00e-02,
638,4.00e-02,0.00e+00,
639,-2.00e-02,6.00e-02,
640,-2.00e-02,6.00e-02,
641,2.00e-02,0.00e+00,
642,2.00e-02,0.00e+00,
643,-4.00e-02,6.00e-02,
644,-4.00e-02,6.00e-02,
645,2.00e-02,0.00e+00,
646,0.00e+00,6.00e-02,
647,-6.00e-02,0.00e+00,
648,-6.00e-02,6.00e-02,
649,0.00e+00,2.00e-02,
650,-2.00e-02,6.00e-02,
651,-8.00e-02,2.00e-02,
652,-2.00e-02,6.00e-02,
653,-8.00e-02,2.00e-02,
654,-8.00e-02,6.00e-02,
655,-2.00e-02,2.00e-02,
656,-8.00e-02,6.00e-02,
657,-2.00e-02,2.00e-02,
658,-8.00e-02,6.00e-02,
659,-2.00e-02,2.00e-02,
660,-8.00e-02,2.00e-02,
661,-4.00e-02,1.00e-01,
662,-4.00e-02,8.00e-02,
663,-1.00e-01,2.00e-02,
664,-1.00e-01,8.00e-02,
665,-4.00e-02,2.00e-02,
666,-4.00e-02,1.00e-01,
667,-1.20e-01,2.00e-02,
668,-1.20e-01,2.00e-02,
669,-4.00e-02,8.00e-02,
670,-1.20e-01,8.00e-02,
671,-4.00e-02,4.00e-02,
672,-4.00e-02,4.00e-02,
673,-1.20e-01,1.00e-01,
674,-1.00e-01,4.00e-02,
675,-4.00e-02,1.00e-01,
676,-8.00e-02,1.00e-01,
677,-4.00e-02,4.00e-02,
678,-8.00e-02,4.00e-02,
679,-2.00e-02,1.00e-01,
680,-8.00e-02,8.00e-02,
681,-2.00e-02,4.00e-02,
682,-8.00e-02,4.00e-02,
683,-2.00e-02,1.00e-01,
684,-8.00e-02,4.00e-02,
685,-2.00e-02,1.00e-01,
686,-2.00e-02,1.00e-01,
687,-8.00e-02,4.00e-02,
688,-6.00e-02,4.00e-02,
689,0.00e+00,1.00e-01,
690,0.00e+00,1.00e-01,
691,-6.00e-02,4.00e-02,
692,-4.00e-02,1.00e-01,
693,2.00e-02,4.00e-02,
694,-4.00e-02,6.00e-02,
695,2.00e-02,1.20e-01,
696,-2.00e-02,1.20e-01,
697,4.00e-02,4.00e-02,
698,-2.00e-02,4.00e-02,
699,4.00e-02,1.20e-01,
700,4.00e-02,4.00e-02,
701,-2.00e-02,1.20e-01,
702,0.00e+00,6.00e-02,
703,6.00e-02,1.20e-01,
704,6.00e-02,6.00e-02,
705,0.00e+00,1.20e-01,
706,2.00e-02,1.20e-01,
707,8.00e-02,6.00e-02,
708,2.00e-02,1.20e-01,
709,1.00e-01,6.00e-02,
710,4.00e-02,8.00e-02,
711,1.00e-01,1.20e-01,
712,6.00e-02,8.00e-02,
713,1.20e-01,1.20e-01,
714,6.00e-02,8.00e-02,
715,1.20e-01,1.20e-01,
716,8.00e-02,8.00e-02,
717,1.40e-01,1.40e-01,
718,8.00e-02,8.00e-02,
719,1.60e-01,1.40e-01,
720,1.00e-01,8.00e-02,
721,1.80e-01,1.20e-01,
722,1.20e-01,8.00e-02,
723,2.00e-01,1.40e-01,
724,1.40e-01,8.00e-02,
725,2.20e-01,1.40e-01,
726,1.40e-01,8.00e-02,
727,2.40e-01,1.40e-01,
728,1.80e-01,1.40e-01,
729,2.40e-01,8.00e-02,
730,2.00e-01,8.00e-02,
731,2.60e-01,1.40e-01,
732,2.20e-01,1.40e-01,
733,2.80e-01,1.00e-01,
734,2.20e-01,1.00e-01,
735,3.00e-01,1.40e-01,
736,2.40e-01,1.40e-01,
737,3.20e-01,8.00e-02,
738,2.60e-01,1.00e-01,
739,3.20e-01,1.40e-01,
740,2.80e-01,1.00e-01,
741,3.40e-01,1.60e-01,
742,2.80e-01,1.00e-01,
743,3.40e-01,1.60e-01,
744,3.40e-01,1.00e-01,
745,2.80e-01,1.60e-01,
746,3.40e-01,1.00e-01,
747,2.80e-01,1.60e-01,
748,2.80e-01,1.60e-01,
749,3.40e-01,1.00e-01,
750,3.20e-01,1.60e-01,
751,2.60e-01,1.00e-01,
752,3.20e-01,1.60e-01,
753,2.40e-01,1.00e-01,
754,3.00e-01,1.00e-01,
755,2.20e-01,1.60e-01,
756,2.20e-01,1.60e-01,
757,2.80e-01,1.20e-01,
758,2.60e-01,1.60e-01,
759,2.00e-01,1.20e-01,
760,2.40e-01,1.20e-01,
761,1.80e-01,1.60e-01,
762,2.40e-01,1.20e-01,
763,1.60e-01,1.80e-01,
764,2.20e-01,1.20e-01,
765,1.40e-01,1.80e-01,
766,2.00e-01,1.20e-01,
767,1.20e-01,1.80e-01,
768,1.80e-01,1.20e-01,
769,1.20e-01,1.80e-01,
770,1.00e-01,1.20e-01,
771,1.80e-01,1.80e-01,
772,1.60e-01,1.80e-01,
773,1.00e-01,1.20e-01,
774,1.60e-01,1.80e-01,
775,1.00e-01,1.20e-01,
776,1.00e-01,1.80e-01,
777,1.60e-01,1.20e-01,
778,1.40e-01,1.80e-01,
779,8.00e-02,1.20e-01,
780,1.40e-01,1.40e-01,
781,8.00e-02,1.80e-01,
782,1.40e-01,1.40e-01,
783,8.00e-02,1.80e-01,
784,1.40e-01,1.80e-01,
785,8.00e-02,1.40e-01,
786,8.00e-02,1.40e-01,
787,1.40e-01,1.80e-01,
788,1.40e-01,1.40e-01,
789,8.00e-02,2.00e-01,
790,1.40e-01,1.40e-01,
791,8.00e-02,2.00e-01,
792,1.00e-01,1.40e-01,
793,1.60e-01,2.00e-01,
794,1.60e-01,1.40e-01,
795,1.00e-01,2.00e-01,
796,1.60e-01,1.40e-01,
797,1.00e-01,2.00e-01,
798,1.00e-01,1.40e-01,
799,1.80e-01,2.00e-01,
800,1.80e-01,2.00e-01,
801,1.20e-01,1.40e-01,
802,1.40e-01,2.00e-01,
803,2.20e-01,1.40e-01,
804,1.40e-01,1.40e-01,
805,2.20e-01,2.00e-01,
806,1.80e-01,2.00e-01,
807,2.40e-01,1.40e-01,
808,1.80e-01,2.00e-01,
809,2.40e-01,1.40e-01,
810,2.00e-01,2.00e-01,
811,2.60e-01,1.60e-01,
812,2.00e-01,2.00e-01,
813,2.80e-01,1.60e-01,
814,2.20e-01,1.60e-01,
815,2.80e-01,2.00e-01,
