Optical Pumping/Data_old/DRcoil2rf59.3.csv

X,CH1,CH2,Start,Increment,
Sequence,Volt,Volt,-3.000000e-02,5.000000e-05
0,-6.00e-03,-3.20e-02,
1,-6.00e-03,-3.20e-02,
2,-6.00e-03,-4.00e-02,
3,-6.00e-03,-4.00e-02,
4,-6.40e-03,-5.60e-02,
5,-6.40e-03,-5.60e-02,
6,-6.80e-03,-7.20e-02,
7,-6.80e-03,-7.20e-02,
8,-7.20e-03,-8.00e-02,
9,-7.20e-03,-8.00e-02,
10,-7.20e-03,-9.60e-02,
11,-7.20e-03,-9.60e-02,
12,-7.20e-03,-1.04e-01,
13,-7.20e-03,-1.04e-01,
14,-7.60e-03,-1.12e-01,
15,-7.60e-03,-1.12e-01,
16,-7.60e-03,-1.28e-01,
17,-7.60e-03,-1.28e-01,
18,-7.60e-03,-1.36e-01,
19,-7.60e-03,-1.36e-01,
20,-7.20e-03,-1.52e-01,
21,-7.20e-03,-1.52e-01,
22,-7.20e-03,-1.60e-01,
23,-7.20e-03,-1.60e-01,
24,-7.20e-03,-1.76e-01,
25,-7.20e-03,-1.76e-01,
26,-6.80e-03,-1.84e-01,
27,-6.80e-03,-1.84e-01,
28,-6.40e-03,-1.92e-01,
29,-6.40e-03,-1.92e-01,
30,-6.00e-03,-2.00e-01,
31,-6.00e-03,-2.00e-01,
32,-5.60e-03,-2.16e-01,
33,-5.60e-03,-2.16e-01,
34,-5.20e-03,-2.24e-01,
35,-5.20e-03,-2.24e-01,
36,-4.80e-03,-2.32e-01,
37,-4.80e-03,-2.32e-01,
38,-4.40e-03,-2.40e-01,
39,-4.40e-03,-2.40e-01,
40,-4.00e-03,-2.48e-01,
41,-4.00e-03,-2.48e-01,
42,-3.20e-03,-2.64e-01,
43,-3.20e-03,-2.64e-01,
44,-2.80e-03,-2.72e-01,
45,-2.80e-03,-2.72e-01,
46,-2.80e-03,-2.80e-01,
47,-2.80e-03,-2.80e-01,
48,-2.00e-03,-2.88e-01,
49,-2.00e-03,-2.88e-01,
50,-1.60e-03,-3.04e-01,
51,-1.60e-03,-3.04e-01,
52,-8.00e-04,-3.04e-01,
53,-8.00e-04,-3.04e-01,
54,-4.00e-04,-3.12e-01,
55,-4.00e-04,-3.12e-01,
56,0.00e+00,-3.12e-01,
57,0.00e+00,-3.12e-01,
58,4.00e-04,-3.28e-01,
59,4.00e-04,-3.28e-01,
60,8.00e-04,-3.36e-01,
61,8.00e-04,-3.36e-01,
62,1.20e-03,-3.44e-01,
63,1.20e-03,-3.44e-01,
64,1.60e-03,-3.44e-01,
65,1.60e-03,-3.44e-01,
66,2.00e-03,-3.52e-01,
67,2.00e-03,-3.52e-01,
68,2.40e-03,-3.52e-01,
69,2.40e-03,-3.52e-01,
70,2.40e-03,-3.60e-01,
71,2.40e-03,-3.60e-01,
72,2.80e-03,-3.68e-01,
73,2.80e-03,-3.68e-01,
74,3.20e-03,-3.68e-01,
75,3.20e-03,-3.68e-01,
76,3.20e-03,-3.68e-01,
77,3.20e-03,-3.68e-01,
78,3.60e-03,-3.76e-01,
79,3.60e-03,-3.76e-01,
80,3.60e-03,-3.76e-01,
81,3.60e-03,-3.76e-01,
82,4.00e-03,-3.84e-01,
83,4.00e-03,-3.84e-01,
84,4.40e-03,-3.92e-01,
85,4.40e-03,-3.92e-01,
86,4.40e-03,-3.84e-01,
87,4.40e-03,-3.84e-01,
88,4.80e-03,-3.92e-01,
89,4.80e-03,-3.92e-01,
90,4.80e-03,-3.92e-01,
91,4.80e-03,-3.92e-01,
92,4.80e-03,-3.92e-01,
93,4.80e-03,-3.92e-01,
94,4.80e-03,-3.92e-01,
95,4.80e-03,-3.92e-01,
96,4.80e-03,-3.92e-01,
97,4.80e-03,-3.92e-01,
98,5.20e-03,-3.92e-01,
99,5.20e-03,-3.92e-01,
100,5.20e-03,-3.84e-01,
101,5.20e-03,-3.84e-01,
102,5.60e-03,-3.84e-01,
103,5.60e-03,-3.84e-01,
104,5.20e-03,-3.92e-01,
105,5.20e-03,-3.92e-01,
106,5.60e-03,-3.84e-01,
107,5.60e-03,-3.84e-01,
108,5.60e-03,-3.92e-01,
109,5.60e-03,-3.92e-01,
110,5.60e-03,-3.76e-01,
111,5.60e-03,-3.76e-01,
112,5.60e-03,-3.76e-01,
113,5.60e-03,-3.76e-01,
114,5.60e-03,-3.76e-01,
115,5.60e-03,-3.76e-01,
116,5.60e-03,-3.68e-01,
117,5.60e-03,-3.68e-01,
118,5.60e-03,-3.68e-01,
119,5.60e-03,-3.68e-01,
120,5.20e-03,-3.60e-01,
121,5.20e-03,-3.60e-01,
122,5.60e-03,-3.60e-01,
123,5.60e-03,-3.60e-01,
124,5.60e-03,-3.52e-01,
125,5.60e-03,-3.52e-01,
126,5.60e-03,-3.52e-01,
127,5.60e-03,-3.52e-01,
128,5.20e-03,-3.44e-01,
129,5.20e-03,-3.44e-01,
130,5.20e-03,-3.36e-01,
131,5.20e-03,-3.36e-01,
132,5.20e-03,-3.28e-01,
133,5.20e-03,-3.28e-01,
134,5.20e-03,-3.28e-01,
135,5.20e-03,-3.28e-01,
136,4.80e-03,-3.12e-01,
137,4.80e-03,-3.12e-01,
138,5.20e-03,-3.12e-01,
139,5.20e-03,-3.12e-01,
140,4.80e-03,-3.04e-01,
141,4.80e-03,-3.04e-01,
142,4.80e-03,-2.88e-01,
143,4.80e-03,-2.88e-01,
144,4.80e-03,-2.88e-01,
145,4.80e-03,-2.88e-01,
146,4.80e-03,-2.80e-01,
147,4.80e-03,-2.80e-01,
148,4.40e-03,-2.64e-01,
149,4.40e-03,-2.64e-01,
150,4.40e-03,-2.64e-01,
151,4.40e-03,-2.64e-01,
152,4.40e-03,-2.48e-01,
153,4.40e-03,-2.48e-01,
154,4.00e-03,-2.40e-01,
155,4.00e-03,-2.40e-01,
156,4.00e-03,-2.32e-01,
157,4.00e-03,-2.32e-01,
158,3.60e-03,-2.16e-01,
159,3.60e-03,-2.16e-01,
160,3.60e-03,-2.16e-01,
161,3.60e-03,-2.16e-01,
162,3.20e-03,-2.00e-01,
163,3.20e-03,-2.00e-01,
164,3.20e-03,-1.92e-01,
165,3.20e-03,-1.92e-01,
166,2.80e-03,-1.76e-01,
167,2.80e-03,-1.76e-01,
168,2.80e-03,-1.68e-01,
169,2.80e-03,-1.68e-01,
170,2.40e-03,-1.52e-01,
171,2.40e-03,-1.52e-01,
172,2.40e-03,-1.44e-01,
173,2.40e-03,-1.44e-01,
174,2.00e-03,-1.36e-01,
175,2.00e-03,-1.36e-01,
176,1.60e-03,-1.20e-01,
177,1.60e-03,-1.20e-01,
178,1.20e-03,-1.12e-01,
179,1.20e-03,-1.12e-01,
180,1.20e-03,-9.60e-02,
181,1.20e-03,-9.60e-02,
182,8.00e-04,-8.80e-02,
183,8.00e-04,-8.80e-02,
184,4.00e-04,-8.00e-02,
185,4.00e-04,-8.00e-02,
186,0.00e+00,-6.40e-02,
187,0.00e+00,-6.40e-02,
188,-4.00e-04,-5.60e-02,
189,-4.00e-04,-5.60e-02,
190,-8.00e-04,-4.80e-02,
191,-8.00e-04,-4.80e-02,
192,-1.20e-03,-3.20e-02,
193,-1.20e-03,-3.20e-02,
194,-1.60e-03,-1.60e-02,
195,-1.60e-03,-1.60e-02,
196,-2.40e-03,-8.00e-03,
197,-2.40e-03,-8.00e-03,
198,-2.40e-03,8.00e-03,
199,-2.40e-03,8.00e-03,
200,-3.20e-03,1.60e-02,
201,-3.20e-03,1.60e-02,
202,-3.60e-03,3.20e-02,
203,-3.60e-03,3.20e-02,
204,-4.40e-03,4.80e-02,
205,-4.40e-03,4.80e-02,
206,-4.80e-03,5.60e-02,
207,-4.80e-03,5.60e-02,
208,-5.20e-03,6.40e-02,
209,-5.20e-03,6.40e-02,
210,-6.00e-03,8.00e-02,
211,-6.00e-03,8.00e-02,
212,-6.00e-03,8.80e-02,
213,-6.00e-03,8.80e-02,
214,-6.80e-03,9.60e-02,
215,-6.80e-03,9.60e-02,
216,-7.20e-03,1.12e-01,
217,-7.20e-03,1.12e-01,
218,-7.60e-03,1.28e-01,
219,-7.60e-03,1.28e-01,
220,-8.00e-03,1.28e-01,
221,-8.00e-03,1.28e-01,
222,-8.40e-03,1.44e-01,
223,-8.40e-03,1.44e-01,
224,-8.80e-03,1.60e-01,
225,-8.80e-03,1.60e-01,
226,-9.20e-03,1.68e-01,
227,-9.20e-03,1.68e-01,
228,-9.20e-03,1.76e-01,
229,-9.20e-03,1.76e-01,
230,-9.20e-03,1.84e-01,
231,-9.20e-03,1.84e-01,
232,-9.60e-03,2.00e-01,
233,-9.60e-03,2.00e-01,
234,-9.60e-03,2.08e-01,
235,-9.60e-03,2.08e-01,
236,-9.60e-03,2.16e-01,
237,-9.60e-03,2.16e-01,
238,-9.20e-03,2.32e-01,
239,-9.20e-03,2.32e-01,
240,-8.80e-03,2.40e-01,
241,-8.80e-03,2.40e-01,
242,-9.20e-03,2.48e-01,
243,-9.20e-03,2.48e-01,
244,-8.80e-03,2.56e-01,
245,-8.80e-03,2.56e-01,
246,-8.00e-03,2.64e-01,
247,-8.00e-03,2.64e-01,
248,-7.60e-03,2.72e-01,
249,-7.60e-03,2.72e-01,
250,-7.60e-03,2.80e-01,
251,-7.60e-03,2.80e-01,
252,-7.20e-03,2.88e-01,
253,-7.20e-03,2.88e-01,
254,-6.80e-03,2.88e-01,
255,-6.80e-03,2.88e-01,
256,-6.00e-03,2.96e-01,
257,-6.00e-03,2.96e-01,
258,-5.60e-03,3.12e-01,
259,-5.60e-03,3.12e-01,
260,-5.20e-03,3.20e-01,
261,-5.20e-03,3.20e-01,
262,-4.40e-03,3.20e-01,
263,-4.40e-03,3.20e-01,
264,-4.00e-03,3.28e-01,
265,-4.00e-03,3.28e-01,
266,-4.00e-03,3.36e-01,
267,-4.00e-03,3.36e-01,
268,-3.20e-03,3.36e-01,
269,-3.20e-03,3.36e-01,
270,-2.80e-03,3.44e-01,
271,-2.80e-03,3.44e-01,
272,-2.40e-03,3.44e-01,
273,-2.40e-03,3.44e-01,
274,-2.00e-03,3.52e-01,
275,-2.00e-03,3.52e-01,
276,-1.60e-03,3.52e-01,
277,-1.60e-03,3.52e-01,
278,-1.20e-03,3.68e-01,
279,-1.20e-03,3.68e-01,
280,-4.00e-04,3.68e-01,
281,-4.00e-04,3.68e-01,
282,0.00e+00,3.68e-01,
283,0.00e+00,3.68e-01,
284,0.00e+00,3.68e-01,
285,0.00e+00,3.68e-01,
286,0.00e+00,3.76e-01,
287,0.00e+00,3.76e-01,
288,4.00e-04,3.68e-01,
289,4.00e-04,3.68e-01,
290,1.20e-03,3.68e-01,
291,1.20e-03,3.68e-01,
292,1.20e-03,3.68e-01,
293,1.20e-03,3.68e-01,
294,1.20e-03,3.76e-01,
295,1.20e-03,3.76e-01,
296,1.60e-03,3.76e-01,
297,1.60e-03,3.76e-01,
298,1.60e-03,3.76e-01,
299,1.60e-03,3.76e-01,
300,2.00e-03,3.68e-01,
301,2.00e-03,3.68e-01,
302,2.00e-03,3.68e-01,
303,2.00e-03,3.68e-01,
304,2.40e-03,3.76e-01,
305,2.40e-03,3.76e-01,
306,2.40e-03,3.76e-01,
307,2.40e-03,3.76e-01,
308,2.40e-03,3.76e-01,
309,2.40e-03,3.76e-01,
310,2.80e-03,3.68e-01,
311,2.80e-03,3.68e-01,
312,2.80e-03,3.68e-01,
313,2.80e-03,3.68e-01,
314,2.80e-03,3.68e-01,
315,2.80e-03,3.68e-01,
316,3.20e-03,3.60e-01,
317,3.20e-03,3.60e-01,
318,2.80e-03,3.52e-01,
319,2.80e-03,3.52e-01,
320,2.80e-03,3.44e-01,
321,2.80e-03,3.44e-01,
322,3.20e-03,3.44e-01,
323,3.20e-03,3.44e-01,
324,3.20e-03,3.44e-01,
325,3.20e-03,3.44e-01,
326,2.80e-03,3.28e-01,
327,2.80e-03,3.28e-01,
328,2.80e-03,3.20e-01,
329,2.80e-03,3.20e-01,
330,3.20e-03,3.20e-01,
331,3.20e-03,3.20e-01,
332,2.80e-03,3.20e-01,
333,2.80e-03,3.20e-01,
334,2.80e-03,3.04e-01,
335,2.80e-03,3.04e-01,
336,2.80e-03,3.04e-01,
337,2.80e-03,3.04e-01,
338,2.80e-03,2.96e-01,
339,2.80e-03,2.96e-01,
340,3.20e-03,2.96e-01,
341,3.20e-03,2.96e-01,
342,2.80e-03,2.80e-01,
343,2.80e-03,2.80e-01,
344,2.40e-03,2.72e-01,
345,2.40e-03,2.72e-01,
346,2.40e-03,2.64e-01,
347,2.40e-03,2.64e-01,
348,2.40e-03,2.56e-01,
349,2.40e-03,2.56e-01,
350,2.40e-03,2.48e-01,
351,2.40e-03,2.48e-01,
352,2.00e-03,2.40e-01,
353,2.00e-03,2.40e-01,
354,1.60e-03,2.32e-01,
355,1.60e-03,2.32e-01,
356,1.60e-03,2.16e-01,
357,1.60e-03,2.16e-01,
358,1.60e-03,2.08e-01,
359,1.60e-03,2.08e-01,
360,1.20e-03,2.00e-01,
361,1.20e-03,2.00e-01,
362,8.00e-04,1.92e-01,
363,8.00e-04,1.92e-01,
364,8.00e-04,1.76e-01,
365,8.00e-04,1.76e-01,
366,4.00e-04,1.68e-01,
367,4.00e-04,1.68e-01,
368,0.00e+00,1.60e-01,
369,0.00e+00,1.60e-01,
370,0.00e+00,1.52e-01,
371,0.00e+00,1.52e-01,
372,-4.00e-04,1.36e-01,
373,-4.00e-04,1.36e-01,
374,-8.00e-04,1.28e-01,
375,-8.00e-04,1.28e-01,
376,-1.20e-03,1.20e-01,
377,-1.20e-03,1.20e-01,
378,-1.60e-03,1.04e-01,
379,-1.60e-03,1.04e-01,
380,-2.00e-03,8.80e-02,
381,-2.00e-03,8.80e-02,
382,-2.00e-03,8.00e-02,
383,-2.00e-03,8.00e-02,
384,-2.40e-03,6.40e-02,
385,-2.40e-03,6.40e-02,
386,-2.80e-03,5.60e-02,
387,-2.80e-03,5.60e-02,
388,-3.20e-03,4.80e-02,
389,-3.20e-03,4.80e-02,
390,-4.00e-03,3.20e-02,
391,-4.00e-03,3.20e-02,
392,-4.00e-03,1.60e-02,
393,-4.00e-03,1.60e-02,
394,-4.40e-03,8.00e-03,
395,-4.40e-03,8.00e-03,
396,-5.20e-03,-8.00e-03,
397,-5.20e-03,-8.00e-03,
398,-5.20e-03,-1.60e-02,
399,-5.20e-03,-1.60e-02,
400,-5.60e-03,-3.20e-02,
401,-5.60e-03,-3.20e-02,
402,-6.00e-03,-4.00e-02,
403,-6.00e-03,-4.00e-02,
404,-6.40e-03,-5.60e-02,
405,-6.40e-03,-5.60e-02,
406,-6.80e-03,-6.40e-02,
407,-6.80e-03,-6.40e-02,
408,-6.80e-03,-8.00e-02,
409,-6.80e-03,-8.00e-02,
410,-6.80e-03,-8.80e-02,
411,-6.80e-03,-8.80e-02,
412,-7.20e-03,-1.04e-01,
413,-7.20e-03,-1.04e-01,
414,-7.20e-03,-1.20e-01,
415,-7.20e-03,-1.20e-01,
416,-7.20e-03,-1.20e-01,
417,-7.20e-03,-1.20e-01,
418,-7.20e-03,-1.36e-01,
419,-7.20e-03,-1.36e-01,
420,-7.20e-03,-1.52e-01,
421,-7.20e-03,-1.52e-01,
422,-7.20e-03,-1.60e-01,
423,-7.20e-03,-1.60e-01,
424,-6.80e-03,-1.68e-01,
425,-6.80e-03,-1.68e-01,
426,-6.80e-03,-1.84e-01,
427,-6.80e-03,-1.84e-01,
428,-6.40e-03,-1.92e-01,
429,-6.40e-03,-1.92e-01,
430,-6.00e-03,-2.00e-01,
431,-6.00e-03,-2.00e-01,
432,-5.60e-03,-2.16e-01,
433,-5.60e-03,-2.16e-01,
434,-5.20e-03,-2.24e-01,
435,-5.20e-03,-2.24e-01,
436,-4.80e-03,-2.32e-01,
437,-4.80e-03,-2.32e-01,
438,-4.00e-03,-2.48e-01,
439,-4.00e-03,-2.48e-01,
440,-3.60e-03,-2.56e-01,
441,-3.60e-03,-2.56e-01,
442,-3.20e-03,-2.64e-01,
443,-3.20e-03,-2.64e-01,
444,-2.80e-03,-2.72e-01,
445,-2.80e-03,-2.72e-01,
446,-2.00e-03,-2.80e-01,
447,-2.00e-03,-2.80e-01,
448,-1.60e-03,-2.88e-01,
449,-1.60e-03,-2.88e-01,
450,-1.20e-03,-2.96e-01,
451,-1.20e-03,-2.96e-01,
452,-8.00e-04,-3.04e-01,
453,-8.00e-04,-3.04e-01,
454,-4.00e-04,-3.12e-01,
455,-4.00e-04,-3.12e-01,
456,4.00e-04,-3.20e-01,
457,4.00e-04,-3.20e-01,
458,8.00e-04,-3.28e-01,
459,8.00e-04,-3.28e-01,
460,8.00e-04,-3.36e-01,
461,8.00e-04,-3.36e-01,
462,1.60e-03,-3.36e-01,
463,1.60e-03,-3.36e-01,
464,1.60e-03,-3.44e-01,
465,1.60e-03,-3.44e-01,
466,2.00e-03,-3.60e-01,
467,2.00e-03,-3.60e-01,
468,2.40e-03,-3.60e-01,
469,2.40e-03,-3.60e-01,
470,2.80e-03,-3.60e-01,
471,2.80e-03,-3.60e-01,
472,3.20e-03,-3.60e-01,
473,3.20e-03,-3.60e-01,
474,3.20e-03,-3.68e-01,
475,3.20e-03,-3.68e-01,
476,3.60e-03,-3.68e-01,
477,3.60e-03,-3.68e-01,
478,3.60e-03,-3.84e-01,
479,3.60e-03,-3.84e-01,
480,4.00e-03,-3.84e-01,
481,4.00e-03,-3.84e-01,
482,4.00e-03,-3.84e-01,
483,4.00e-03,-3.84e-01,
484,4.40e-03,-3.84e-01,
485,4.40e-03,-3.84e-01,
486,4.80e-03,-3.84e-01,
487,4.80e-03,-3.84e-01,
488,4.80e-03,-3.84e-01,
489,4.80e-03,-3.84e-01,
490,4.80e-03,-3.84e-01,
491,4.80e-03,-3.84e-01,
492,4.80e-03,-3.84e-01,
493,4.80e-03,-3.84e-01,
494,5.20e-03,-3.92e-01,
495,5.20e-03,-3.92e-01,
496,5.20e-03,-3.84e-01,
497,5.20e-03,-3.84e-01,
498,5.20e-03,-3.84e-01,
499,5.20e-03,-3.84e-01,
500,5.20e-03,-3.84e-01,
501,5.20e-03,-3.84e-01,
502,5.60e-03,-3.84e-01,
503,5.60e-03,-3.84e-01,
504,5.60e-03,-3.84e-01,
505,5.60e-03,-3.84e-01,
506,5.60e-03,-3.92e-01,
507,5.60e-03,-3.92e-01,
508,5.60e-03,-3.92e-01,
509,5.60e-03,-3.92e-01,
510,5.60e-03,-3.84e-01,
511,5.60e-03,-3.84e-01,
512,5.60e-03,-3.84e-01,
513,5.60e-03,-3.84e-01,
514,5.60e-03,-3.84e-01,
515,5.60e-03,-3.84e-01,
516,5.60e-03,-3.68e-01,
517,5.60e-03,-3.68e-01,
518,5.60e-03,-3.68e-01,
519,5.60e-03,-3.68e-01,
520,5.60e-03,-3.60e-01,
521,5.60e-03,-3.60e-01,
522,5.60e-03,-3.60e-01,
523,5.60e-03,-3.60e-01,
524,5.60e-03,-3.52e-01,
525,5.60e-03,-3.52e-01,
526,5.60e-03,-3.52e-01,
527,5.60e-03,-3.52e-01,
528,5.60e-03,-3.44e-01,
529,5.60e-03,-3.44e-01,
530,5.20e-03,-3.36e-01,
531,5.20e-03,-3.36e-01,
532,5.60e-03,-3.28e-01,
533,5.60e-03,-3.28e-01,
534,5.20e-03,-3.20e-01,
535,5.20e-03,-3.20e-01,
536,5.20e-03,-3.20e-01,
537,5.20e-03,-3.20e-01,
538,5.20e-03,-3.12e-01,
539,5.20e-03,-3.12e-01,
540,4.80e-03,-2.96e-01,
541,4.80e-03,-2.96e-01,
542,4.80e-03,-2.88e-01,
543,4.80e-03,-2.88e-01,
544,4.80e-03,-2.80e-01,
545,4.80e-03,-2.80e-01,
546,4.80e-03,-2.72e-01,
547,4.80e-03,-2.72e-01,
548,4.40e-03,-2.64e-01,
549,4.40e-03,-2.64e-01,
550,4.40e-03,-2.56e-01,
551,4.40e-03,-2.56e-01,
552,4.40e-03,-2.48e-01,
553,4.40e-03,-2.48e-01,
554,4.00e-03,-2.40e-01,
555,4.00e-03,-2.40e-01,
556,4.40e-03,-2.24e-01,
557,4.40e-03,-2.24e-01,
558,4.00e-03,-2.16e-01,
559,4.00e-03,-2.16e-01,
560,3.60e-03,-2.08e-01,
561,3.60e-03,-2.08e-01,
562,3.60e-03,-2.08e-01,
563,3.60e-03,-2.08e-01,
564,3.20e-03,-1.84e-01,
565,3.20e-03,-1.84e-01,
566,3.20e-03,-1.76e-01,
567,3.20e-03,-1.76e-01,
568,2.80e-03,-1.68e-01,
569,2.80e-03,-1.68e-01,
570,2.40e-03,-1.52e-01,
571,2.40e-03,-1.52e-01,
572,2.40e-03,-1.44e-01,
573,2.40e-03,-1.44e-01,
574,2.00e-03,-1.36e-01,
575,2.00e-03,-1.36e-01,
576,2.00e-03,-1.20e-01,
577,2.00e-03,-1.20e-01,
578,1.60e-03,-1.12e-01,
579,1.60e-03,-1.12e-01,
580,8.00e-04,-9.60e-02,
581,8.00e-04,-9.60e-02,
582,8.00e-04,-8.80e-02,
583,8.00e-04,-8.80e-02,
584,4.00e-04,-8.00e-02,
585,4.00e-04,-8.00e-02,
586,0.00e+00,-6.40e-02,
587,0.00e+00,-6.40e-02,
588,-4.00e-04,-4.80e-02,
589,-4.00e-04,-4.80e-02,
590,-8.00e-04,-4.80e-02,
591,-8.00e-04,-4.80e-02,
592,-1.20e-03,-3.20e-02,
593,-1.20e-03,-3.20e-02,
594,-1.60e-03,-2.40e-02,
595,-1.60e-03,-2.40e-02,
596,-2.40e-03,0.00e+00,
597,-2.40e-03,0.00e+00,
598,-2.80e-03,8.00e-03,
599,-2.80e-03,8.00e-03,
600,-3.20e-03,1.60e-02,
601,-3.20e-03,1.60e-02,
602,-3.60e-03,3.20e-02,
603,-3.60e-03,3.20e-02,
604,-4.00e-03,4.00e-02,
605,-4.00e-03,4.00e-02,
606,-4.40e-03,4.80e-02,
607,-4.40e-03,4.80e-02,
608,-5.20e-03,7.20e-02,
609,-5.20e-03,7.20e-02,
610,-5.60e-03,8.00e-02,
611,-5.60e-03,8.00e-02,
612,-6.40e-03,8.80e-02,
613,-6.40e-03,8.80e-02,
614,-6.80e-03,1.04e-01,
615,-6.80e-03,1.04e-01,
616,-7.20e-03,1.12e-01,
617,-7.20e-03,1.12e-01,
618,-7.60e-03,1.20e-01,
619,-7.60e-03,1.20e-01,
620,-8.00e-03,1.36e-01,
621,-8.00e-03,1.36e-01,
622,-8.80e-03,1.44e-01,
623,-8.80e-03,1.44e-01,
624,-8.80e-03,1.60e-01,
625,-8.80e-03,1.60e-01,
626,-9.20e-03,1.68e-01,
627,-9.20e-03,1.68e-01,
628,-9.20e-03,1.76e-01,
629,-9.20e-03,1.76e-01,
630,-9.20e-03,1.84e-01,
631,-9.20e-03,1.84e-01,
632,-9.60e-03,2.00e-01,
633,-9.60e-03,2.00e-01,
634,-9.60e-03,2.08e-01,
635,-9.60e-03,2.08e-01,
636,-9.60e-03,2.24e-01,
637,-9.60e-03,2.24e-01,
638,-9.20e-03,2.24e-01,
639,-9.20e-03,2.24e-01,
640,-9.20e-03,2.32e-01,
641,-9.20e-03,2.32e-01,
642,-8.80e-03,2.40e-01,
643,-8.80e-03,2.40e-01,
644,-8.80e-03,2.56e-01,
645,-8.80e-03,2.56e-01,
646,-8.40e-03,2.64e-01,
647,-8.40e-03,2.64e-01,
648,-8.00e-03,2.72e-01,
649,-8.00e-03,2.72e-01,
650,-7.20e-03,2.88e-01,
651,-7.20e-03,2.88e-01,
652,-6.80e-03,2.88e-01,
653,-6.80e-03,2.88e-01,
654,-6.40e-03,2.96e-01,
655,-6.40e-03,2.96e-01,
656,-6.00e-03,3.04e-01,
657,-6.00e-03,3.04e-01,
658,-5.60e-03,3.04e-01,
659,-5.60e-03,3.04e-01,
660,-4.80e-03,3.12e-01,
661,-4.80e-03,3.12e-01,
662,-4.80e-03,3.28e-01,
663,-4.80e-03,3.28e-01,
664,-4.00e-03,3.28e-01,
665,-4.00e-03,3.28e-01,
666,-3.60e-03,3.36e-01,
667,-3.60e-03,3.36e-01,
668,-3.20e-03,3.44e-01,
669,-3.20e-03,3.44e-01,
670,-2.40e-03,3.44e-01,
671,-2.40e-03,3.44e-01,
672,-2.00e-03,3.52e-01,
673,-2.00e-03,3.52e-01,
674,-1.60e-03,3.52e-01,
675,-1.60e-03,3.52e-01,
676,-1.20e-03,3.60e-01,
677,-1.20e-03,3.60e-01,
678,-8.00e-04,3.60e-01,
679,-8.00e-04,3.60e-01,
680,-4.00e-04,3.60e-01,
681,-4.00e-04,3.60e-01,
682,0.00e+00,3.68e-01,
683,0.00e+00,3.68e-01,
684,4.00e-04,3.68e-01,
685,4.00e-04,3.68e-01,
686,4.00e-04,3.68e-01,
687,4.00e-04,3.68e-01,
688,8.00e-04,3.68e-01,
689,8.00e-04,3.68e-01,
690,1.20e-03,3.76e-01,
691,1.20e-03,3.76e-01,
692,1.20e-03,3.76e-01,
693,1.20e-03,3.76e-01,
694,1.60e-03,3.76e-01,
695,1.60e-03,3.76e-01,
696,2.00e-03,3.76e-01,
697,2.00e-03,3.76e-01,
698,2.00e-03,3.76e-01,
699,2.00e-03,3.76e-01,
700,2.00e-03,3.76e-01,
701,2.00e-03,3.76e-01,
702,2.00e-03,3.76e-01,
703,2.00e-03,3.76e-01,
704,2.40e-03,3.76e-01,
705,2.40e-03,3.76e-01,
706,2.40e-03,3.76e-01,
707,2.40e-03,3.76e-01,
708,2.40e-03,3.76e-01,
709,2.40e-03,3.76e-01,
710,2.80e-03,3.68e-01,
711,2.80e-03,3.68e-01,
712,2.80e-03,3.60e-01,
713,2.80e-03,3.60e-01,
714,2.80e-03,3.60e-01,
715,2.80e-03,3.60e-01,
716,3.20e-03,3.60e-01,
717,3.20e-03,3.60e-01,
718,3.20e-03,3.52e-01,
719,3.20e-03,3.52e-01,
720,3.20e-03,3.52e-01,
721,3.20e-03,3.52e-01,
722,2.80e-03,3.44e-01,
723,2.80e-03,3.44e-01,
724,2.80e-03,3.44e-01,
725,2.80e-03,3.44e-01,
726,3.20e-03,3.36e-01,
727,3.20e-03,3.36e-01,
728,2.80e-03,3.28e-01,
729,2.80e-03,3.28e-01,
730,2.80e-03,3.28e-01,
731,2.80e-03,3.28e-01,
732,3.20e-03,3.20e-01,
733,3.20e-03,3.20e-01,
734,2.80e-03,3.12e-01,
735,2.80e-03,3.12e-01,
736,2.80e-03,3.12e-01,
737,2.80e-03,3.12e-01,
738,2.80e-03,2.96e-01,
739,2.80e-03,2.96e-01,
740,2.80e-03,2.96e-01,
741,2.80e-03,2.96e-01,
742,2.80e-03,2.88e-01,
743,2.80e-03,2.88e-01,
744,2.80e-03,2.72e-01,
745,2.80e-03,2.72e-01,
746,2.40e-03,2.64e-01,
747,2.40e-03,2.64e-01,
748,2.40e-03,2.56e-01,
749,2.40e-03,2.56e-01,
750,2.40e-03,2.40e-01,
751,2.40e-03,2.40e-01,
752,2.00e-03,2.32e-01,
753,2.00e-03,2.32e-01,
754,1.60e-03,2.24e-01,
755,1.60e-03,2.24e-01,
756,1.60e-03,2.16e-01,
757,1.60e-03,2.16e-01,
758,1.60e-03,2.08e-01,
759,1.60e-03,2.08e-01,
760,1.20e-03,2.00e-01,
761,1.20e-03,2.00e-01,
762,1.20e-03,1.92e-01,
763,1.20e-03,1.92e-01,
764,8.00e-04,1.76e-01,
765,8.00e-04,1.76e-01,
766,4.00e-04,1.68e-01,
767,4.00e-04,1.68e-01,
768,4.00e-04,1.52e-01,
769,4.00e-04,1.52e-01,
770,0.00e+00,1.44e-01,
771,0.00e+00,1.44e-01,
772,-4.00e-04,1.36e-01,
773,-4.00e-04,1.36e-01,
774,-8.00e-04,1.20e-01,
775,-8.00e-04,1.20e-01,
776,-1.20e-03,1.12e-01,
777,-1.20e-03,1.12e-01,
778,-1.60e-03,1.04e-01,
779,-1.60e-03,1.04e-01,
780,-1.60e-03,8.80e-02,
781,-1.60e-03,8.80e-02,
782,-2.40e-03,8.00e-02,
783,-2.40e-03,8.00e-02,
784,-2.80e-03,6.40e-02,
785,-2.80e-03,6.40e-02,
786,-3.20e-03,4.80e-02,
787,-3.20e-03,4.80e-02,
788,-3.20e-03,4.80e-02,
789,-3.20e-03,4.80e-02,
790,-3.60e-03,3.20e-02,
791,-3.60e-03,3.20e-02,
792,-4.40e-03,1.60e-02,
793,-4.40e-03,1.60e-02,
794,-4.40e-03,8.00e-03,
795,-4.40e-03,8.00e-03,
796,-4.80e-03,-8.00e-03,
797,-4.80e-03,-8.00e-03,
798,-5.60e-03,-2.40e-02,
799,-5.60e-03,-2.40e-02,
800,-5.60e-03,-2.40e-02,
801,-5.60e-03,-2.40e-02,
802,-6.00e-03,-4.80e-02,
803,-6.00e-03,-4.80e-02,
804,-6.40e-03,-4.80e-02,
805,-6.40e-03,-4.80e-02,
806,-6.40e-03,-7.20e-02,
807,-6.40e-03,-7.20e-02,
808,-6.80e-03,-8.00e-02,
809,-6.80e-03,-8.00e-02,
810,-7.20e-03,-8.80e-02,
811,-7.20e-03,-8.80e-02,
812,-7.20e-03,-1.04e-01,
813,-7.20e-03,-1.04e-01,
814,-7.60e-03,-1.12e-01,
815,-7.60e-03,-1.12e-01,
816,-7.60e-03,-1.28e-01,
817,-7.60e-03,-1.28e-01,
818,-7.20e-03,-1.36e-01,
819,-7.20e-03,-1.36e-01,
820,-7.20e-03,-1.44e-01,
821,-7.20e-03,-1.44e-01,
822,-6.80e-03,-1.52e-01,
823,-6.80e-03,-1.52e-01,
824,-6.80e-03,-1.68e-01,
825,-6.80e-03,-1.68e-01,
826,-6.40e-03,-1.76e-01,
827,-6.40e-03,-1.76e-01,
828,-6.40e-03,-1.92e-01,
829,-6.40e-03,-1.92e-01,
830,-6.00e-03,-2.00e-01,
831,-6.00e-03,-2.00e-01,
832,-5.60e-03,-2.08e-01,
833,-5.60e-03,-2.08e-01,
834,-5.20e-03,-2.24e-01,
